[2016.11.09 15:37:40] [0000m.13s.696ms] [0] WELCOME
[2016.11.09 15:37:40] [0000m.13s.696ms] [1] iCDB Database ver.2.200, jmoSXI5tfcQi0m1NxN3JKg, build:5060443 created 2016-08-17 14:30:24, sources stamp:jmoSXI5tfcQi0m1NxN3JKg
[2016.11.09 15:37:40] [0000m.13s.696ms] [1] Copyright 2016 Mentor Graphics Corporation.  All Rights Reserved.
[2016.11.09 15:37:40] [0000m.13s.696ms] [1] Base flow version [VX.2]
[2016.11.09 15:37:40] [0000m.13s.696ms] [1] Install Id [1409847], Flow Id [PADS Professional VX.2], Full Flow Name [PADS Professional VX.2], Exact Access Date [2016/05/01]
[2016.11.09 15:37:40] [0000m.13s.696ms] [1] Machine [PC-P50-JT]  User [john.timothy]  PID [11520]
[2016.11.09 15:37:40] [0000m.13s.696ms] [1] Operating system [Microsoft Enterprise Edition, 64-bit (build 9200)]
[2016.11.09 15:37:40] [0000m.13s.696ms] [1] Current working dir [C:\pd_repo\pd\_COWBOY\_Mentor]
[2016.11.09 15:37:40] [0000m.13s.696ms] [1] PATH [C:\MentorGraphics\PADSProVX.2\SDD_HOME\common\win32\bin;C:\MentorGraphics\PADSProVX.2\SDD_HOME\common\win32\lib;C:\MentorGraphics\PADSProVX.2\MGC_HOME.ixn\bin;C:\MentorGraphics\PADSProVX.2\MGC_HOME.ixn\lib;C:\MentorGraphics\PADSProVX.2\SDD_HOME\wv\win32\bin;C:\Program Files (x86)\CSR\BlueSuite 2.5.8\DFU Tools;C:\Program Files (x86)\NVIDIA Corporation\PhysX\Common;C:\WINDOWS\system32;C:\WINDOWS;C:\WINDOWS\System32\Wbem;C:\WINDOWS\System32\WindowsPowerShell\v1.0\;C:\Program Files (x86)\Skype\Phone\;C:\Program Files\TortoiseSVN\bin;C:\Program Files (x86)\Windows Kits\8.1\Windows Performance Toolkit\;C:\Users\john.timothy\AppData\Local\Microsoft\WindowsApps;]
[2016.11.09 15:37:40] [0000m.13s.696ms] [1] SDD_HOME [C:\MentorGraphics\PADSProVX.2\SDD_HOME] on file system [NTFS]
[2016.11.09 15:37:40] [0000m.13s.696ms] [1] SDD_PLATFORM [win32]
[2016.11.09 15:37:40] [0000m.13s.696ms] [1] WDIR [C:\WDIR\PADSProVX.2;C:\MentorGraphics\PADSProVX.2\SDD_HOME\standard;]
[2016.11.09 15:37:40] [0000m.13s.696ms] [1] Local iCDB working dir [C:\WDIR\PADSProVX.2\iCDB] on file system [NTFS]
[2016.11.09 15:37:40] [0000m.13s.696ms] [3] WARNING: Database [C:\pd_repo\pd\_COWBOY\_Mentor\database\icdb.dat] was manually copied
[2016.11.09 15:37:40] [0000m.13s.696ms] [3] File change time:        [2016-10-26 15.26.55]
[2016.11.09 15:37:40] [0000m.13s.696ms] [3] File modification time:  [2016-10-12 17.10.40]
[2016.11.09 15:37:40] [0000m.13s.696ms] [3] Last change time:        [2016-10-12 17.10.39]
[2016.11.09 15:37:40] [0000m.13s.696ms] [3] Last database open information:
[2016.11.09 15:37:40] [0000m.13s.696ms] [3] Time:             [2016-10-12 12.53.43]
[2016.11.09 15:37:40] [0000m.13s.696ms] [3] Location:         [C:\pd_repo\pd\_COWBOY\database\icdb.dat]
[2016.11.09 15:37:40] [0000m.13s.696ms] [3] Machine:          [DESKTOP-7CVSN2U]
[2016.11.09 15:37:40] [0000m.13s.696ms] [3] User:             [john.timothy]
[2016.11.09 15:37:40] [0000m.13s.696ms] [3] PID:              [5684]
[2016.11.09 15:37:40] [0000m.13s.696ms] [3] Application:      [iCDB Server]
[2016.11.09 15:37:40] [0000m.13s.696ms] [3] Operating system: [Microsoft Enterprise Edition, 64-bit (build 9200)]
[2016.11.09 15:37:40] [0000m.13s.696ms] [3] WARNING: Regenerating database GUID
[2016.11.09 15:37:40] [0000m.13s.696ms] [3] Previous database GUID [8b3a-f0c6-62ad-bdc1-e706-7b73-8067-b750-8b53-4492-b381-e0a8]
[2016.11.09 15:37:40] [0000m.13s.696ms] [3] Current database GUID  [93f4-5281-f798-19c3-435a-3289-35a3-2850-96a1-8cad-7c9c-6c6a]
[2016.11.09 15:37:40] [0000m.13s.696ms] [0] .
