[2016.03.08 15:23:32] [0000m.10s.790ms] [0] WELCOME
[2016.03.08 15:23:32] [0000m.10s.795ms] [1] iCDB Database ver.2.101, 3UDjJHMiCHg78unffLJcEw, build:673008 created 2015-03-11 13:21:12, sources stamp:3UDjJHMiCHg78unffLJcEw
[2016.03.08 15:23:32] [0000m.10s.795ms] [1] Copyright 2015 Mentor Graphics Corporation. All Rights Reserved.
[2016.03.08 15:23:32] [0000m.10s.795ms] [1] Base flow version [VX.1.1]
[2016.03.08 15:23:32] [0000m.10s.795ms] [1] GBS Install Id [43430], Flow Id [PADS-Pro VX.1.1], Full Flow Name [PADS Professional VX.1.1], Exact Access Date [Feb 1 2015]
[2016.03.08 15:23:32] [0000m.10s.796ms] [1] Machine [DESKTOP-7CVSN2U]  User [john.timothy]  PID [748]
[2016.03.08 15:23:32] [0000m.10s.796ms] [1] Operating system [Microsoft Enterprise Edition, 64-bit (build 9200)]
[2016.03.08 15:23:32] [0000m.10s.796ms] [1] Current working dir [Z:\PRODUCTS\2016\2016 - Crusher 3.0 BT\Electrical\CrusherMain]
[2016.03.08 15:23:32] [0000m.10s.796ms] [1] PATH [C:\MentorGraphics\PADSProVX.1.1\SDD_HOME\common\win32\bin;C:\MentorGraphics\PADSProVX.1.1\SDD_HOME\common\win32\lib;C:\MentorGraphics\PADSProVX.1.1\MGC_HOME.ixn\bin;C:\MentorGraphics\PADSProVX.1.1\MGC_HOME.ixn\lib;C:\MentorGraphics\PADSProVX.1.1\SDD_HOME\wv\win32\bin;C:\Program Files (x86)\NVIDIA Corporation\PhysX\Common;C:\Program Files (x86)\CSR\BlueSuite 2.5.8\DFU Tools;C:\Program Files (x86)\Intel\iCLS Client\;C:\Program Files\Intel\iCLS Client\;C:\WINDOWS\system32;C:\WINDOWS;C:\WINDOWS\System32\Wbem;C:\WINDOWS\System32\WindowsPowerShell\v1.0\;C:\Program Files\Intel\Intel(R) Management Engine Components\DAL;C:\Program Files (x86)\Intel\Intel(R) Management Engine Components\DAL;C:\Program Files\Intel\Intel(R) Management Engine Components\IPT;C:\Program Files (x86)\Intel\Intel(R) Management Engine Components\IPT;C:\Program Files (x86)\ATI Technologies\ATI.ACE\Core-Static;C:\Program Files (x86)\MATLAB\MATLAB Compiler Runtime\v716\runtime\win32;C:\Program Files (x86)\Skype\Phone\;C:\Program Files (x86)\Windows Kits\8.1\Windows Performance Toolkit\]
[2016.03.08 15:23:32] [0000m.10s.797ms] [1] SDD_HOME [C:\MentorGraphics\PADSProVX.1.1\SDD_HOME] on file system [NTFS]
[2016.03.08 15:23:32] [0000m.10s.797ms] [1] SDD_PLATFORM [win32]
[2016.03.08 15:23:32] [0000m.10s.797ms] [1] WDIR [C:\WDIR\PADSProVX.1.1;C:\MentorGraphics\PADSProVX.1.1\SDD_HOME\standard;]
[2016.03.08 15:23:32] [0000m.10s.797ms] [1] Local iCDB working dir [C:\WDIR\PADSProVX.1.1\iCDB] on file system [NTFS]
[2016.03.08 15:23:32] [0000m.10s.797ms] [3] WARNING: Database [Z:\PRODUCTS\2016\2016 - Crusher 3.0 BT\Electrical\CrusherMain\database\icdb.dat] was manually copied
[2016.03.08 15:23:32] [0000m.10s.797ms] [3] File change time:        [2016-03-02 10.43.52]
[2016.03.08 15:23:32] [0000m.10s.797ms] [3] File modification time:  [2016-02-29 18.49.11]
[2016.03.08 15:23:32] [0000m.10s.797ms] [3] Last change time:        [2016-02-29 18.49.11]
[2016.03.08 15:23:32] [0000m.10s.797ms] [3] Last database open information:
[2016.03.08 15:23:32] [0000m.10s.797ms] [3] Time:             [2016-02-29 15.05.45]
[2016.03.08 15:23:32] [0000m.10s.797ms] [3] Location:         [C:\Users\branden.sheffield\Documents\Crusher3.0\Mentor\CrusherMain\database\icdb.dat]
[2016.03.08 15:23:32] [0000m.10s.798ms] [3] Machine:          [PC-ENG2LJDFJKDS]
[2016.03.08 15:23:32] [0000m.10s.798ms] [3] User:             [branden.sheffield]
[2016.03.08 15:23:32] [0000m.10s.798ms] [3] PID:              [7668]
[2016.03.08 15:23:32] [0000m.10s.798ms] [3] Application:      [iCDB Server]
[2016.03.08 15:23:32] [0000m.10s.798ms] [3] Operating system: [Microsoft Windows 7 Enterprise Edition, 64-bit Service Pack 1 (build 7601)]
[2016.03.08 15:23:32] [0000m.10s.798ms] [3] WARNING: Regenerating database GUID
[2016.03.08 15:23:32] [0000m.10s.798ms] [3] Previous database GUID [88cc-5579-384d-6fdd-cf30-0b61-0400-b650-fcd7-d2a5-d616-449c]
[2016.03.08 15:23:32] [0000m.10s.799ms] [3] Current database GUID  [b14e-c042-8fbb-ceda-4e05-fd69-e05f-d650-4453-4492-53f1-14a8]
[2016.03.08 15:23:32] [0000m.10s.799ms] [0] .
