[2016.02.01 18:18:55] [0000m.00s.829ms] [0] WELCOME
[2016.02.01 18:18:55] [0000m.00s.831ms] [1] iCDB Diagnostic ver.2.101, 3UDjJHMiCHg78unffLJcEw, build:673008 created 2015-03-11 13:21:12, sources stamp:3UDjJHMiCHg78unffLJcEw
[2016.02.01 18:18:55] [0000m.00s.831ms] [1] Copyright 2015 Mentor Graphics Corporation. All Rights Reserved.
[2016.02.01 18:18:55] [0000m.00s.831ms] [1] Base flow version [VX.1.1]
[2016.02.01 18:18:55] [0000m.00s.831ms] [1] GBS Install Id [43430], Flow Id [PADS-Pro VX.1.1], Full Flow Name [PADS Professional VX.1.1], Exact Access Date [Feb 1 2015]
[2016.02.01 18:18:55] [0000m.00s.831ms] [1] Machine [PC-ENG2LJDFJKDS]  User [branden.sheffield]  PID [792]
[2016.02.01 18:18:55] [0000m.00s.832ms] [1] Operating system [Microsoft Windows 7 Enterprise Edition, 64-bit Service Pack 1 (build 7601)]
[2016.02.01 18:18:55] [0000m.00s.832ms] [1] Current working dir [C:\Users\branden.sheffield\Documents\Crusher3.0\Mentor\CrusherMain]
[2016.02.01 18:18:55] [0000m.00s.832ms] [1] PATH [C:\MentorGraphics\PADSProVX.1.1\MGC_HOME.ixn\bin;C:\MentorGraphics\PADSProVX.1.1\MGC_HOME.ixn\lib;C:\MentorGraphics\PADSProVX.1.1\SDD_HOME\common\win32\bin;C:\MentorGraphics\PADSProVX.1.1\SDD_HOME\common\win32\lib;C:\MentorGraphics\PADSProVX.1.1\MGC_HOME.ixn\bin;C:\MentorGraphics\PADSProVX.1.1\MGC_HOME.ixn\lib;C:\MentorGraphics\PADSProVX.1.1\SDD_HOME\wv\win32\bin;C:\Program Files (x86)\CSR\BlueSuite 2.5.8\DFU Tools;C:\ProgramData\Oracle\Java\javapath;C:\Program Files (x86)\NVIDIA Corporation\PhysX\Common;C:\Windows\system32;C:\Windows;C:\Windows\System32\Wbem;C:\Windows\System32\WindowsPowerShell\v1.0\;C:\Program Files (x86)\Skype\Phone\;C:\Program Files (x86)\MATLAB\MATLAB Compiler Runtime\v716\runtime\win32]
[2016.02.01 18:18:55] [0000m.00s.832ms] [1] SDD_HOME [C:\MentorGraphics\PADSProVX.1.1\SDD_HOME] on file system [NTFS]
[2016.02.01 18:18:55] [0000m.00s.832ms] [1] SDD_PLATFORM [win32]
[2016.02.01 18:18:55] [0000m.00s.832ms] [1] WDIR [C:\WDIR\PADSProVX.1.1;C:\MentorGraphics\PADSProVX.1.1\SDD_HOME\standard;]
[2016.02.01 18:18:55] [0000m.00s.832ms] [1] Local iCDB working dir [C:\WDIR\PADSProVX.1.1\iCDB] on file system [NTFS]
[2016.02.01 18:18:55] [0000m.00s.895ms] [2] Diagnostic: Snapshot: DxD
[2016.02.01 18:18:55] [0000m.00s.895ms] [2] Diagnostic: SnapshotCheck: CDBImplBlock
[2016.02.01 18:18:55] [0000m.00s.895ms] [2] Diagnostic: SnapshotCheck: CDBImplComp
[2016.02.01 18:18:55] [0000m.00s.898ms] [2] Diagnostic: SnapshotCheck: DxDCompView (cached)
[2016.02.01 18:18:55] [0000m.00s.899ms] [2] Diagnostic: DxDCheck: LineDxD
[2016.02.01 18:18:55] [0000m.00s.899ms] [2] Diagnostic: DxDCheck: CircleDxD
[2016.02.01 18:18:55] [0000m.00s.899ms] [2] Diagnostic: DxDCheck: ArcDxD
[2016.02.01 18:18:55] [0000m.00s.899ms] [2] Diagnostic: DxDCheck: RectDxD
[2016.02.01 18:18:55] [0000m.00s.899ms] [2] Diagnostic: DxDCheck: TextDxD
[2016.02.01 18:18:55] [0000m.00s.899ms] [2] Diagnostic: SnapshotCheck: CDBImplGroup
[2016.02.01 18:18:55] [0000m.00s.899ms] [2] Diagnostic: SnapshotCheck: CDBImplPin (regular)
[2016.02.01 18:18:55] [0000m.00s.899ms] [2] Diagnostic: SnapshotCheck: AttributesUtility (regular)
[2016.02.01 18:18:55] [0000m.00s.899ms] [2] Diagnostic: SnapshotCheck: CDBImplPin (cached)
[2016.02.01 18:18:55] [0000m.00s.900ms] [2] Diagnostic: SnapshotCheck: AttributesUtility (cached)
[2016.02.01 18:18:55] [0000m.00s.900ms] [2] Diagnostic: Block: Schematic1
[2016.02.01 18:18:55] [0000m.00s.900ms] [2] Diagnostic: BlockCheck: CDBImplNet
[2016.02.01 18:18:55] [0000m.00s.900ms] [2] Diagnostic: BlockCheck: CDBImplBus
[2016.02.01 18:18:55] [0000m.00s.900ms] [2] Diagnostic: BlockCheck: CDBImplPin
[2016.02.01 18:18:55] [0000m.00s.900ms] [2] Diagnostic: BlockCheck: CDBImplPort
[2016.02.01 18:18:55] [0000m.00s.901ms] [2] Diagnostic: BlockCheck: CDBImplComp
[2016.02.01 18:18:55] [0000m.00s.902ms] [2] Diagnostic: BlockCheck: AttributesUtility
[2016.02.01 18:18:55] [0000m.00s.902ms] [2] Diagnostic: BlockCheck: CDBImplBlockViewDxD
[2016.02.01 18:18:55] [0000m.00s.903ms] [2] Diagnostic: BlockViewDxDCheck: CDBImplNetDxD
[2016.02.01 18:18:55] [0000m.00s.903ms] [2] Diagnostic: BlockViewDxDCheck: CDBImplRipperDxD
[2016.02.01 18:18:55] [0000m.00s.907ms] [2] Diagnostic: CesConfigCheck: CesConstraint
[2016.02.01 18:18:55] [0000m.00s.918ms] [2] Diagnostic: CesConfigCheck: CesPin
[2016.02.01 18:18:55] [0000m.00s.919ms] [2] Diagnostic: CesConfigCheck: CesFromTo
[2016.02.01 18:18:55] [0000m.00s.919ms] [2] Diagnostic: CesConfigCheck: CesPhysicalNet
[2016.02.01 18:18:55] [0000m.00s.920ms] [2] Diagnostic: CesConfigCheck: CesPinPair
[2016.02.01 18:18:55] [0000m.00s.920ms] [2] Diagnostic: CesConfigCheck: CesElectricalNet
[2016.02.01 18:18:55] [0000m.00s.920ms] [2] Diagnostic: CesConfigCheck: CesDiffPair
[2016.02.01 18:18:55] [0000m.00s.920ms] [2] Diagnostic: CesConfigCheck: CesComponent
[2016.02.01 18:18:55] [0000m.00s.921ms] [2] Diagnostic: CesConfigCheck: CesPartPin
[2016.02.01 18:18:55] [0000m.00s.921ms] [2] Diagnostic: CesConfigCheck: CesPartPinPair
[2016.02.01 18:18:55] [0000m.00s.921ms] [2] Diagnostic: CesConfigCheck: CesPart
[2016.02.01 18:18:55] [0000m.00s.921ms] [2] Diagnostic: CesConfigCheck: CesDesign
[2016.02.01 18:18:55] [0000m.00s.921ms] [2] Diagnostic: CesConfigCheck: CesLayerClearRule
[2016.02.01 18:18:55] [0000m.00s.921ms] [2] Diagnostic: CesConfigCheck: CesSchemeClearRule
[2016.02.01 18:18:55] [0000m.00s.922ms] [2] Diagnostic: CesConfigCheck: CesViaAssign
[2016.02.01 18:18:55] [0000m.00s.922ms] [2] Diagnostic: CesConfigCheck: CesLayerRule
[2016.02.01 18:18:55] [0000m.00s.922ms] [2] Diagnostic: CesConfigCheck: CesSchemeNetClassRule
[2016.02.01 18:18:55] [0000m.00s.922ms] [2] Diagnostic: CesConfigCheck: CesScheme
[2016.02.01 18:18:55] [0000m.00s.922ms] [2] Diagnostic: CesConfigCheck: CesLayer
[2016.02.01 18:18:55] [0000m.00s.922ms] [2] Diagnostic: CesConfigCheck: CesNetClass
[2016.02.01 18:18:55] [0000m.00s.922ms] [2] Diagnostic: CesConfigCheck: CesClearRule
[2016.02.01 18:18:55] [0000m.00s.922ms] [2] Diagnostic: CesConfigCheck: CesConstraintClass
[2016.02.01 18:18:55] [0000m.00s.922ms] [2] Diagnostic: CesConfigCheck: CesViaSpan
[2016.02.01 18:18:55] [0000m.00s.922ms] [2] Diagnostic: CesConfigCheck: CesGenClear
[2016.02.01 18:18:55] [0000m.00s.923ms] [2] Diagnostic: CesConfigCheck: CesPartTech
[2016.02.01 18:18:55] [0000m.00s.924ms] [2] Diagnostic: CesConfigCheck: CesConstVar
[2016.02.01 18:18:55] [0000m.00s.924ms] [2] Diagnostic: CesConfigCheck: CesC2CClearRule
[2016.02.01 18:18:55] [0000m.00s.924ms] [2] Diagnostic: CesConfigCheck: CesPkgTypeClearRule
[2016.02.01 18:18:55] [0000m.00s.924ms] [2] Diagnostic: CesConfigCheck: CesP2PClearRule
[2016.02.01 18:18:55] [0000m.00s.924ms] [2] Diagnostic: CesConfigCheck: CesParRuleSection
[2016.02.01 18:18:55] [0000m.00s.924ms] [2] Diagnostic: CesConfigCheck: CesParRuleDef
[2016.02.01 18:18:55] [0000m.00s.924ms] [2] Diagnostic: CesConfigCheck: CesNoiseRule
[2016.02.01 18:18:55] [0000m.00s.924ms] [2] Diagnostic: CesConfigCheck: CesGenObj
[2016.02.01 18:18:55] [0000m.00s.924ms] [2] Diagnostic: CesConfigCheck: CesGenCompObj
[2016.02.01 18:18:55] [0000m.00s.924ms] [2] Diagnostic: CesConfigCheck: CesGenObjType
[2016.02.01 18:18:55] [0000m.00s.924ms] [2] Diagnostic: CesConfigCheck: CesVia
[2016.02.01 18:18:55] [0000m.00s.924ms] [2] Diagnostic: CesConfigCheck: CesZAxisLayerRule
[2016.02.01 18:18:55] [0000m.00s.924ms] [2] Diagnostic: CesConfigCheck: CesZAxisClearRule
[2016.02.01 18:18:55] [0000m.00s.924ms] [2] Diagnostic: ConfigCheck: CDBImplComp
[2016.02.01 18:18:55] [0000m.00s.925ms] [2] Diagnostic: ConfigCheck: CDBImplNet
[2016.02.01 18:18:55] [0000m.00s.925ms] [2] Diagnostic: ConfigCheck: CDBImplPin
[2016.02.01 18:18:55] [0000m.00s.925ms] [2] Diagnostic: Snapshot: DxD check finished.
[2016.02.01 18:18:55] [0000m.00s.931ms] [2] Diagnostic: Snapshot: __ise_DxD
[2016.02.01 18:18:55] [0000m.00s.931ms] [2] Diagnostic: SnapshotCheck: CDBImplBlock
[2016.02.01 18:18:55] [0000m.00s.931ms] [2] Diagnostic: SnapshotCheck: CDBImplComp
[2016.02.01 18:18:55] [0000m.00s.931ms] [2] Diagnostic: SnapshotCheck: CDBImplGroup
[2016.02.01 18:18:55] [0000m.00s.931ms] [2] Diagnostic: SnapshotCheck: CDBImplPin (regular)
[2016.02.01 18:18:55] [0000m.00s.931ms] [2] Diagnostic: SnapshotCheck: AttributesUtility (regular)
[2016.02.01 18:18:55] [0000m.00s.931ms] [2] Diagnostic: SnapshotCheck: CDBImplPin (cached)
[2016.02.01 18:18:55] [0000m.00s.931ms] [2] Diagnostic: SnapshotCheck: AttributesUtility (cached)
[2016.02.01 18:18:55] [0000m.00s.931ms] [2] Diagnostic: Snapshot: __ise_DxD check finished.
[2016.02.01 18:18:55] [0000m.00s.932ms] [2] Diagnostic: Snapshot: xIOPT
[2016.02.01 18:18:55] [0000m.00s.933ms] [2] Diagnostic: SnapshotCheck: CDBImplBlock
[2016.02.01 18:18:55] [0000m.00s.933ms] [2] Diagnostic: SnapshotCheck: CDBImplComp
[2016.02.01 18:18:55] [0000m.00s.933ms] [2] Diagnostic: SnapshotCheck: CDBImplGroup
[2016.02.01 18:18:55] [0000m.00s.933ms] [2] Diagnostic: SnapshotCheck: CDBImplPin (regular)
[2016.02.01 18:18:55] [0000m.00s.933ms] [2] Diagnostic: SnapshotCheck: AttributesUtility (regular)
[2016.02.01 18:18:55] [0000m.00s.933ms] [2] Diagnostic: SnapshotCheck: CDBImplPin (cached)
[2016.02.01 18:18:55] [0000m.00s.933ms] [2] Diagnostic: SnapshotCheck: AttributesUtility (cached)
[2016.02.01 18:18:55] [0000m.00s.933ms] [2] Diagnostic: Snapshot: xIOPT check finished.
[2016.02.01 18:18:55] [0000m.00s.944ms] [2] Diagnostic: Snapshot: Main_layout_temp
[2016.02.01 18:18:55] [0000m.00s.944ms] [2] Diagnostic: SnapshotCheck: CDBImplBlock
[2016.02.01 18:18:55] [0000m.00s.944ms] [2] Diagnostic: SnapshotCheck: CDBImplComp
[2016.02.01 18:18:55] [0000m.00s.944ms] [2] Diagnostic: SnapshotCheck: DxDCompView (cached)
[2016.02.01 18:18:55] [0000m.00s.944ms] [2] Diagnostic: DxDCheck: LineDxD
[2016.02.01 18:18:55] [0000m.00s.944ms] [2] Diagnostic: DxDCheck: CircleDxD
[2016.02.01 18:18:55] [0000m.00s.944ms] [2] Diagnostic: DxDCheck: ArcDxD
[2016.02.01 18:18:55] [0000m.00s.944ms] [2] Diagnostic: DxDCheck: RectDxD
[2016.02.01 18:18:55] [0000m.00s.944ms] [2] Diagnostic: DxDCheck: TextDxD
[2016.02.01 18:18:55] [0000m.00s.944ms] [2] Diagnostic: SnapshotCheck: CDBImplGroup
[2016.02.01 18:18:55] [0000m.00s.945ms] [2] Diagnostic: SnapshotCheck: CDBImplPin (regular)
[2016.02.01 18:18:55] [0000m.00s.945ms] [2] Diagnostic: SnapshotCheck: AttributesUtility (regular)
[2016.02.01 18:18:55] [0000m.00s.945ms] [2] Diagnostic: SnapshotCheck: CDBImplPin (cached)
[2016.02.01 18:18:55] [0000m.00s.945ms] [2] Diagnostic: SnapshotCheck: AttributesUtility (cached)
[2016.02.01 18:18:55] [0000m.00s.945ms] [2] Diagnostic: Block: Schematic1
[2016.02.01 18:18:55] [0000m.00s.945ms] [2] Diagnostic: BlockCheck: CDBImplNet
[2016.02.01 18:18:55] [0000m.00s.945ms] [2] Diagnostic: BlockCheck: CDBImplBus
[2016.02.01 18:18:55] [0000m.00s.945ms] [2] Diagnostic: BlockCheck: CDBImplPin
[2016.02.01 18:18:55] [0000m.00s.945ms] [2] Diagnostic: BlockCheck: CDBImplPort
[2016.02.01 18:18:55] [0000m.00s.945ms] [2] Diagnostic: BlockCheck: CDBImplComp
[2016.02.01 18:18:55] [0000m.00s.946ms] [2] Diagnostic: BlockCheck: AttributesUtility
[2016.02.01 18:18:55] [0000m.00s.946ms] [2] Diagnostic: CesConfigCheck: CesConstraint
[2016.02.01 18:18:55] [0000m.00s.948ms] [2] Diagnostic: CesConfigCheck: CesPin
[2016.02.01 18:18:55] [0000m.00s.949ms] [2] Diagnostic: CesConfigCheck: CesFromTo
[2016.02.01 18:18:55] [0000m.00s.949ms] [2] Diagnostic: CesConfigCheck: CesPhysicalNet
[2016.02.01 18:18:55] [0000m.00s.949ms] [2] Diagnostic: CesConfigCheck: CesPinPair
[2016.02.01 18:18:55] [0000m.00s.950ms] [2] Diagnostic: CesConfigCheck: CesElectricalNet
[2016.02.01 18:18:55] [0000m.00s.950ms] [2] Diagnostic: CesConfigCheck: CesDiffPair
[2016.02.01 18:18:55] [0000m.00s.950ms] [2] Diagnostic: CesConfigCheck: CesComponent
[2016.02.01 18:18:55] [0000m.00s.950ms] [2] Diagnostic: CesConfigCheck: CesPartPin
[2016.02.01 18:18:55] [0000m.00s.951ms] [2] Diagnostic: CesConfigCheck: CesPartPinPair
[2016.02.01 18:18:55] [0000m.00s.951ms] [2] Diagnostic: CesConfigCheck: CesPart
[2016.02.01 18:18:55] [0000m.00s.951ms] [2] Diagnostic: CesConfigCheck: CesDesign
[2016.02.01 18:18:55] [0000m.00s.951ms] [2] Diagnostic: CesConfigCheck: CesLayerClearRule
[2016.02.01 18:18:55] [0000m.00s.951ms] [2] Diagnostic: CesConfigCheck: CesSchemeClearRule
[2016.02.01 18:18:55] [0000m.00s.951ms] [2] Diagnostic: CesConfigCheck: CesViaAssign
[2016.02.01 18:18:55] [0000m.00s.951ms] [2] Diagnostic: CesConfigCheck: CesLayerRule
[2016.02.01 18:18:55] [0000m.00s.951ms] [2] Diagnostic: CesConfigCheck: CesSchemeNetClassRule
[2016.02.01 18:18:55] [0000m.00s.951ms] [2] Diagnostic: CesConfigCheck: CesScheme
[2016.02.01 18:18:55] [0000m.00s.951ms] [2] Diagnostic: CesConfigCheck: CesLayer
[2016.02.01 18:18:55] [0000m.00s.951ms] [2] Diagnostic: CesConfigCheck: CesNetClass
[2016.02.01 18:18:55] [0000m.00s.951ms] [2] Diagnostic: CesConfigCheck: CesClearRule
[2016.02.01 18:18:55] [0000m.00s.951ms] [2] Diagnostic: CesConfigCheck: CesConstraintClass
[2016.02.01 18:18:55] [0000m.00s.951ms] [2] Diagnostic: CesConfigCheck: CesViaSpan
[2016.02.01 18:18:55] [0000m.00s.951ms] [2] Diagnostic: CesConfigCheck: CesGenClear
[2016.02.01 18:18:55] [0000m.00s.951ms] [2] Diagnostic: CesConfigCheck: CesPartTech
[2016.02.01 18:18:55] [0000m.00s.951ms] [2] Diagnostic: CesConfigCheck: CesConstVar
[2016.02.01 18:18:55] [0000m.00s.951ms] [2] Diagnostic: CesConfigCheck: CesC2CClearRule
[2016.02.01 18:18:55] [0000m.00s.951ms] [2] Diagnostic: CesConfigCheck: CesPkgTypeClearRule
[2016.02.01 18:18:55] [0000m.00s.951ms] [2] Diagnostic: CesConfigCheck: CesP2PClearRule
[2016.02.01 18:18:55] [0000m.00s.951ms] [2] Diagnostic: CesConfigCheck: CesParRuleSection
[2016.02.01 18:18:55] [0000m.00s.951ms] [2] Diagnostic: CesConfigCheck: CesParRuleDef
[2016.02.01 18:18:55] [0000m.00s.951ms] [2] Diagnostic: CesConfigCheck: CesNoiseRule
[2016.02.01 18:18:55] [0000m.00s.951ms] [2] Diagnostic: CesConfigCheck: CesGenObj
[2016.02.01 18:18:55] [0000m.00s.951ms] [2] Diagnostic: CesConfigCheck: CesGenCompObj
[2016.02.01 18:18:55] [0000m.00s.951ms] [2] Diagnostic: CesConfigCheck: CesGenObjType
[2016.02.01 18:18:55] [0000m.00s.951ms] [2] Diagnostic: CesConfigCheck: CesVia
[2016.02.01 18:18:55] [0000m.00s.951ms] [2] Diagnostic: CesConfigCheck: CesZAxisLayerRule
[2016.02.01 18:18:55] [0000m.00s.951ms] [2] Diagnostic: CesConfigCheck: CesZAxisClearRule
[2016.02.01 18:18:55] [0000m.00s.951ms] [2] Diagnostic: ConfigCheck: CDBImplComp
[2016.02.01 18:18:55] [0000m.00s.951ms] [2] Diagnostic: ConfigCheck: CDBImplNet
[2016.02.01 18:18:55] [0000m.00s.951ms] [2] Diagnostic: ConfigCheck: CDBImplPin
[2016.02.01 18:18:55] [0000m.00s.952ms] [2] Diagnostic: Snapshot: Main_layout_temp check finished.
[2016.02.01 18:18:55] [0000m.00s.962ms] [2] Diagnostic: Snapshot: Main
[2016.02.01 18:18:55] [0000m.00s.962ms] [2] Diagnostic: SnapshotCheck: CDBImplBlock
[2016.02.01 18:18:55] [0000m.00s.962ms] [2] Diagnostic: SnapshotCheck: CDBImplComp
[2016.02.01 18:18:55] [0000m.00s.962ms] [2] Diagnostic: SnapshotCheck: DxDCompView (cached)
[2016.02.01 18:18:55] [0000m.00s.962ms] [2] Diagnostic: DxDCheck: LineDxD
[2016.02.01 18:18:55] [0000m.00s.962ms] [2] Diagnostic: DxDCheck: CircleDxD
[2016.02.01 18:18:55] [0000m.00s.962ms] [2] Diagnostic: DxDCheck: ArcDxD
[2016.02.01 18:18:55] [0000m.00s.962ms] [2] Diagnostic: DxDCheck: RectDxD
[2016.02.01 18:18:55] [0000m.00s.962ms] [2] Diagnostic: DxDCheck: TextDxD
[2016.02.01 18:18:55] [0000m.00s.962ms] [2] Diagnostic: SnapshotCheck: CDBImplGroup
[2016.02.01 18:18:55] [0000m.00s.962ms] [2] Diagnostic: SnapshotCheck: CDBImplPin (regular)
[2016.02.01 18:18:55] [0000m.00s.962ms] [2] Diagnostic: SnapshotCheck: AttributesUtility (regular)
[2016.02.01 18:18:55] [0000m.00s.962ms] [2] Diagnostic: SnapshotCheck: CDBImplPin (cached)
[2016.02.01 18:18:55] [0000m.00s.963ms] [2] Diagnostic: SnapshotCheck: AttributesUtility (cached)
[2016.02.01 18:18:55] [0000m.00s.963ms] [2] Diagnostic: Block: Schematic1
[2016.02.01 18:18:55] [0000m.00s.963ms] [2] Diagnostic: BlockCheck: CDBImplNet
[2016.02.01 18:18:55] [0000m.00s.963ms] [2] Diagnostic: BlockCheck: CDBImplBus
[2016.02.01 18:18:55] [0000m.00s.963ms] [2] Diagnostic: BlockCheck: CDBImplPin
[2016.02.01 18:18:55] [0000m.00s.963ms] [2] Diagnostic: BlockCheck: CDBImplPort
[2016.02.01 18:18:55] [0000m.00s.963ms] [2] Diagnostic: BlockCheck: CDBImplComp
[2016.02.01 18:18:55] [0000m.00s.964ms] [2] Diagnostic: BlockCheck: AttributesUtility
[2016.02.01 18:18:55] [0000m.00s.964ms] [2] Diagnostic: CesConfigCheck: CesConstraint
[2016.02.01 18:18:55] [0000m.00s.965ms] [2] Diagnostic: CesConfigCheck: CesPin
[2016.02.01 18:18:55] [0000m.00s.966ms] [2] Diagnostic: CesConfigCheck: CesFromTo
[2016.02.01 18:18:55] [0000m.00s.966ms] [2] Diagnostic: CesConfigCheck: CesPhysicalNet
[2016.02.01 18:18:55] [0000m.00s.967ms] [2] Diagnostic: CesConfigCheck: CesPinPair
[2016.02.01 18:18:55] [0000m.00s.967ms] [2] Diagnostic: CesConfigCheck: CesElectricalNet
[2016.02.01 18:18:55] [0000m.00s.968ms] [2] Diagnostic: CesConfigCheck: CesDiffPair
[2016.02.01 18:18:55] [0000m.00s.968ms] [2] Diagnostic: CesConfigCheck: CesComponent
[2016.02.01 18:18:55] [0000m.00s.968ms] [2] Diagnostic: CesConfigCheck: CesPartPin
[2016.02.01 18:18:55] [0000m.00s.968ms] [2] Diagnostic: CesConfigCheck: CesPartPinPair
[2016.02.01 18:18:55] [0000m.00s.968ms] [2] Diagnostic: CesConfigCheck: CesPart
[2016.02.01 18:18:55] [0000m.00s.968ms] [2] Diagnostic: CesConfigCheck: CesDesign
[2016.02.01 18:18:55] [0000m.00s.969ms] [2] Diagnostic: CesConfigCheck: CesLayerClearRule
[2016.02.01 18:18:55] [0000m.00s.969ms] [2] Diagnostic: CesConfigCheck: CesSchemeClearRule
[2016.02.01 18:18:55] [0000m.00s.969ms] [2] Diagnostic: CesConfigCheck: CesViaAssign
[2016.02.01 18:18:55] [0000m.00s.969ms] [2] Diagnostic: CesConfigCheck: CesLayerRule
[2016.02.01 18:18:55] [0000m.00s.969ms] [2] Diagnostic: CesConfigCheck: CesSchemeNetClassRule
[2016.02.01 18:18:55] [0000m.00s.969ms] [2] Diagnostic: CesConfigCheck: CesScheme
[2016.02.01 18:18:55] [0000m.00s.969ms] [2] Diagnostic: CesConfigCheck: CesLayer
[2016.02.01 18:18:55] [0000m.00s.969ms] [2] Diagnostic: CesConfigCheck: CesNetClass
[2016.02.01 18:18:55] [0000m.00s.969ms] [2] Diagnostic: CesConfigCheck: CesClearRule
[2016.02.01 18:18:55] [0000m.00s.969ms] [2] Diagnostic: CesConfigCheck: CesConstraintClass
[2016.02.01 18:18:55] [0000m.00s.969ms] [2] Diagnostic: CesConfigCheck: CesViaSpan
[2016.02.01 18:18:55] [0000m.00s.969ms] [2] Diagnostic: CesConfigCheck: CesGenClear
[2016.02.01 18:18:55] [0000m.00s.969ms] [2] Diagnostic: CesConfigCheck: CesPartTech
[2016.02.01 18:18:55] [0000m.00s.969ms] [2] Diagnostic: CesConfigCheck: CesConstVar
[2016.02.01 18:18:55] [0000m.00s.969ms] [2] Diagnostic: CesConfigCheck: CesC2CClearRule
[2016.02.01 18:18:55] [0000m.00s.969ms] [2] Diagnostic: CesConfigCheck: CesPkgTypeClearRule
[2016.02.01 18:18:55] [0000m.00s.969ms] [2] Diagnostic: CesConfigCheck: CesP2PClearRule
[2016.02.01 18:18:55] [0000m.00s.969ms] [2] Diagnostic: CesConfigCheck: CesParRuleSection
[2016.02.01 18:18:55] [0000m.00s.969ms] [2] Diagnostic: CesConfigCheck: CesParRuleDef
[2016.02.01 18:18:55] [0000m.00s.969ms] [2] Diagnostic: CesConfigCheck: CesNoiseRule
[2016.02.01 18:18:55] [0000m.00s.969ms] [2] Diagnostic: CesConfigCheck: CesGenObj
[2016.02.01 18:18:55] [0000m.00s.969ms] [2] Diagnostic: CesConfigCheck: CesGenCompObj
[2016.02.01 18:18:55] [0000m.00s.969ms] [2] Diagnostic: CesConfigCheck: CesGenObjType
[2016.02.01 18:18:55] [0000m.00s.969ms] [2] Diagnostic: CesConfigCheck: CesVia
[2016.02.01 18:18:55] [0000m.00s.969ms] [2] Diagnostic: CesConfigCheck: CesZAxisLayerRule
[2016.02.01 18:18:55] [0000m.00s.969ms] [2] Diagnostic: CesConfigCheck: CesZAxisClearRule
[2016.02.01 18:18:55] [0000m.00s.969ms] [2] Diagnostic: ConfigCheck: CDBImplComp
[2016.02.01 18:18:55] [0000m.00s.969ms] [2] Diagnostic: ConfigCheck: CDBImplNet
[2016.02.01 18:18:55] [0000m.00s.969ms] [2] Diagnostic: ConfigCheck: CDBImplPin
[2016.02.01 18:18:55] [0000m.00s.969ms] [2] Diagnostic: Snapshot: Main check finished.
[2016.02.01 18:18:55] [0000m.00s.990ms] [2] Diagnostic: Snapshot: Main_RefSync
[2016.02.01 18:18:55] [0000m.00s.990ms] [2] Diagnostic: SnapshotCheck: CDBImplBlock
[2016.02.01 18:18:55] [0000m.00s.990ms] [2] Diagnostic: SnapshotCheck: CDBImplComp
[2016.02.01 18:18:55] [0000m.00s.991ms] [2] Diagnostic: SnapshotCheck: DxDCompView (cached)
[2016.02.01 18:18:55] [0000m.00s.991ms] [2] Diagnostic: DxDCheck: LineDxD
[2016.02.01 18:18:55] [0000m.00s.991ms] [2] Diagnostic: DxDCheck: CircleDxD
[2016.02.01 18:18:55] [0000m.00s.991ms] [2] Diagnostic: DxDCheck: ArcDxD
[2016.02.01 18:18:55] [0000m.00s.991ms] [2] Diagnostic: DxDCheck: RectDxD
[2016.02.01 18:18:55] [0000m.00s.991ms] [2] Diagnostic: DxDCheck: TextDxD
[2016.02.01 18:18:55] [0000m.00s.991ms] [2] Diagnostic: SnapshotCheck: CDBImplGroup
[2016.02.01 18:18:55] [0000m.00s.991ms] [2] Diagnostic: SnapshotCheck: CDBImplPin (regular)
[2016.02.01 18:18:55] [0000m.00s.991ms] [2] Diagnostic: SnapshotCheck: AttributesUtility (regular)
[2016.02.01 18:18:55] [0000m.00s.991ms] [2] Diagnostic: SnapshotCheck: CDBImplPin (cached)
[2016.02.01 18:18:55] [0000m.00s.991ms] [2] Diagnostic: SnapshotCheck: AttributesUtility (cached)
[2016.02.01 18:18:55] [0000m.00s.992ms] [2] Diagnostic: Block: Schematic1
[2016.02.01 18:18:55] [0000m.00s.992ms] [2] Diagnostic: BlockCheck: CDBImplNet
[2016.02.01 18:18:55] [0000m.00s.992ms] [2] Diagnostic: BlockCheck: CDBImplBus
[2016.02.01 18:18:55] [0000m.00s.992ms] [2] Diagnostic: BlockCheck: CDBImplPin
[2016.02.01 18:18:55] [0000m.00s.992ms] [2] Diagnostic: BlockCheck: CDBImplPort
[2016.02.01 18:18:55] [0000m.00s.992ms] [2] Diagnostic: BlockCheck: CDBImplComp
[2016.02.01 18:18:55] [0000m.00s.992ms] [2] Diagnostic: BlockCheck: AttributesUtility
[2016.02.01 18:18:55] [0000m.00s.992ms] [2] Diagnostic: BlockCheck: CDBImplBlockViewDxD
[2016.02.01 18:18:55] [0000m.00s.993ms] [2] Diagnostic: BlockViewDxDCheck: CDBImplNetDxD
[2016.02.01 18:18:55] [0000m.00s.993ms] [2] Diagnostic: BlockViewDxDCheck: CDBImplRipperDxD
[2016.02.01 18:18:55] [0000m.00s.993ms] [2] Diagnostic: CesConfigCheck: CesConstraint
[2016.02.01 18:18:55] [0000m.00s.995ms] [2] Diagnostic: CesConfigCheck: CesPin
[2016.02.01 18:18:55] [0000m.00s.996ms] [2] Diagnostic: CesConfigCheck: CesFromTo
[2016.02.01 18:18:55] [0000m.00s.996ms] [2] Diagnostic: CesConfigCheck: CesPhysicalNet
[2016.02.01 18:18:55] [0000m.00s.997ms] [2] Diagnostic: CesConfigCheck: CesPinPair
[2016.02.01 18:18:55] [0000m.00s.997ms] [2] Diagnostic: CesConfigCheck: CesElectricalNet
[2016.02.01 18:18:55] [0000m.00s.997ms] [2] Diagnostic: CesConfigCheck: CesDiffPair
[2016.02.01 18:18:55] [0000m.00s.997ms] [2] Diagnostic: CesConfigCheck: CesComponent
[2016.02.01 18:18:55] [0000m.00s.998ms] [2] Diagnostic: CesConfigCheck: CesPartPin
[2016.02.01 18:18:55] [0000m.00s.998ms] [2] Diagnostic: CesConfigCheck: CesPartPinPair
[2016.02.01 18:18:55] [0000m.00s.998ms] [2] Diagnostic: CesConfigCheck: CesPart
[2016.02.01 18:18:55] [0000m.00s.998ms] [2] Diagnostic: CesConfigCheck: CesDesign
[2016.02.01 18:18:55] [0000m.00s.998ms] [2] Diagnostic: CesConfigCheck: CesLayerClearRule
[2016.02.01 18:18:55] [0000m.00s.998ms] [2] Diagnostic: CesConfigCheck: CesSchemeClearRule
[2016.02.01 18:18:55] [0000m.00s.998ms] [2] Diagnostic: CesConfigCheck: CesViaAssign
[2016.02.01 18:18:55] [0000m.00s.998ms] [2] Diagnostic: CesConfigCheck: CesLayerRule
[2016.02.01 18:18:55] [0000m.00s.998ms] [2] Diagnostic: CesConfigCheck: CesSchemeNetClassRule
[2016.02.01 18:18:55] [0000m.00s.998ms] [2] Diagnostic: CesConfigCheck: CesScheme
[2016.02.01 18:18:55] [0000m.00s.998ms] [2] Diagnostic: CesConfigCheck: CesLayer
[2016.02.01 18:18:55] [0000m.00s.998ms] [2] Diagnostic: CesConfigCheck: CesNetClass
[2016.02.01 18:18:55] [0000m.00s.998ms] [2] Diagnostic: CesConfigCheck: CesClearRule
[2016.02.01 18:18:55] [0000m.00s.998ms] [2] Diagnostic: CesConfigCheck: CesConstraintClass
[2016.02.01 18:18:55] [0000m.00s.998ms] [2] Diagnostic: CesConfigCheck: CesViaSpan
[2016.02.01 18:18:55] [0000m.00s.998ms] [2] Diagnostic: CesConfigCheck: CesGenClear
[2016.02.01 18:18:55] [0000m.00s.998ms] [2] Diagnostic: CesConfigCheck: CesPartTech
[2016.02.01 18:18:55] [0000m.00s.998ms] [2] Diagnostic: CesConfigCheck: CesConstVar
[2016.02.01 18:18:55] [0000m.00s.998ms] [2] Diagnostic: CesConfigCheck: CesC2CClearRule
[2016.02.01 18:18:55] [0000m.00s.998ms] [2] Diagnostic: CesConfigCheck: CesPkgTypeClearRule
[2016.02.01 18:18:55] [0000m.00s.998ms] [2] Diagnostic: CesConfigCheck: CesP2PClearRule
[2016.02.01 18:18:55] [0000m.00s.998ms] [2] Diagnostic: CesConfigCheck: CesParRuleSection
[2016.02.01 18:18:55] [0000m.00s.998ms] [2] Diagnostic: CesConfigCheck: CesParRuleDef
[2016.02.01 18:18:55] [0000m.00s.998ms] [2] Diagnostic: CesConfigCheck: CesNoiseRule
[2016.02.01 18:18:55] [0000m.00s.998ms] [2] Diagnostic: CesConfigCheck: CesGenObj
[2016.02.01 18:18:55] [0000m.00s.998ms] [2] Diagnostic: CesConfigCheck: CesGenCompObj
[2016.02.01 18:18:55] [0000m.00s.998ms] [2] Diagnostic: CesConfigCheck: CesGenObjType
[2016.02.01 18:18:55] [0000m.00s.998ms] [2] Diagnostic: CesConfigCheck: CesVia
[2016.02.01 18:18:55] [0000m.00s.998ms] [2] Diagnostic: CesConfigCheck: CesZAxisLayerRule
[2016.02.01 18:18:55] [0000m.00s.998ms] [2] Diagnostic: CesConfigCheck: CesZAxisClearRule
[2016.02.01 18:18:55] [0000m.00s.998ms] [2] Diagnostic: ConfigCheck: CDBImplComp
[2016.02.01 18:18:55] [0000m.00s.999ms] [2] Diagnostic: ConfigCheck: CDBImplNet
[2016.02.01 18:18:55] [0000m.00s.999ms] [2] Diagnostic: ConfigCheck: CDBImplPin
[2016.02.01 18:18:55] [0000m.00s.999ms] [2] Diagnostic: Snapshot: Main_RefSync check finished.
[2016.02.01 18:18:55] [0000m.01s.020ms] [2] Diagnostic: Snapshot: Main_LDDTemp
[2016.02.01 18:18:55] [0000m.01s.020ms] [2] Diagnostic: SnapshotCheck: CDBImplBlock
[2016.02.01 18:18:55] [0000m.01s.020ms] [2] Diagnostic: SnapshotCheck: CDBImplComp
[2016.02.01 18:18:55] [0000m.01s.020ms] [2] Diagnostic: SnapshotCheck: DxDCompView (cached)
[2016.02.01 18:18:55] [0000m.01s.020ms] [2] Diagnostic: DxDCheck: LineDxD
[2016.02.01 18:18:55] [0000m.01s.020ms] [2] Diagnostic: DxDCheck: CircleDxD
[2016.02.01 18:18:55] [0000m.01s.020ms] [2] Diagnostic: DxDCheck: ArcDxD
[2016.02.01 18:18:55] [0000m.01s.020ms] [2] Diagnostic: DxDCheck: RectDxD
[2016.02.01 18:18:55] [0000m.01s.020ms] [2] Diagnostic: DxDCheck: TextDxD
[2016.02.01 18:18:55] [0000m.01s.020ms] [2] Diagnostic: SnapshotCheck: CDBImplGroup
[2016.02.01 18:18:55] [0000m.01s.021ms] [2] Diagnostic: SnapshotCheck: CDBImplPin (regular)
[2016.02.01 18:18:55] [0000m.01s.021ms] [2] Diagnostic: SnapshotCheck: AttributesUtility (regular)
[2016.02.01 18:18:55] [0000m.01s.021ms] [2] Diagnostic: SnapshotCheck: CDBImplPin (cached)
[2016.02.01 18:18:55] [0000m.01s.021ms] [2] Diagnostic: SnapshotCheck: AttributesUtility (cached)
[2016.02.01 18:18:55] [0000m.01s.021ms] [2] Diagnostic: Block: Schematic1
[2016.02.01 18:18:55] [0000m.01s.021ms] [2] Diagnostic: BlockCheck: CDBImplNet
[2016.02.01 18:18:55] [0000m.01s.022ms] [2] Diagnostic: BlockCheck: CDBImplBus
[2016.02.01 18:18:55] [0000m.01s.022ms] [2] Diagnostic: BlockCheck: CDBImplPin
[2016.02.01 18:18:55] [0000m.01s.022ms] [2] Diagnostic: BlockCheck: CDBImplPort
[2016.02.01 18:18:55] [0000m.01s.022ms] [2] Diagnostic: BlockCheck: CDBImplComp
[2016.02.01 18:18:55] [0000m.01s.023ms] [2] Diagnostic: BlockCheck: AttributesUtility
[2016.02.01 18:18:55] [0000m.01s.023ms] [2] Diagnostic: BlockCheck: CDBImplBlockViewDxD
[2016.02.01 18:18:55] [0000m.01s.024ms] [2] Diagnostic: BlockViewDxDCheck: CDBImplNetDxD
[2016.02.01 18:18:55] [0000m.01s.024ms] [2] Diagnostic: BlockViewDxDCheck: CDBImplRipperDxD
[2016.02.01 18:18:55] [0000m.01s.024ms] [2] Diagnostic: CesConfigCheck: CesConstraint
[2016.02.01 18:18:55] [0000m.01s.026ms] [2] Diagnostic: CesConfigCheck: CesPin
[2016.02.01 18:18:55] [0000m.01s.027ms] [2] Diagnostic: CesConfigCheck: CesFromTo
[2016.02.01 18:18:55] [0000m.01s.027ms] [2] Diagnostic: CesConfigCheck: CesPhysicalNet
[2016.02.01 18:18:55] [0000m.01s.028ms] [2] Diagnostic: CesConfigCheck: CesPinPair
[2016.02.01 18:18:55] [0000m.01s.028ms] [2] Diagnostic: CesConfigCheck: CesElectricalNet
[2016.02.01 18:18:55] [0000m.01s.028ms] [2] Diagnostic: CesConfigCheck: CesDiffPair
[2016.02.01 18:18:55] [0000m.01s.028ms] [2] Diagnostic: CesConfigCheck: CesComponent
[2016.02.01 18:18:55] [0000m.01s.029ms] [2] Diagnostic: CesConfigCheck: CesPartPin
[2016.02.01 18:18:55] [0000m.01s.029ms] [2] Diagnostic: CesConfigCheck: CesPartPinPair
[2016.02.01 18:18:55] [0000m.01s.029ms] [2] Diagnostic: CesConfigCheck: CesPart
[2016.02.01 18:18:55] [0000m.01s.029ms] [2] Diagnostic: CesConfigCheck: CesDesign
[2016.02.01 18:18:55] [0000m.01s.029ms] [2] Diagnostic: CesConfigCheck: CesLayerClearRule
[2016.02.01 18:18:55] [0000m.01s.029ms] [2] Diagnostic: CesConfigCheck: CesSchemeClearRule
[2016.02.01 18:18:55] [0000m.01s.029ms] [2] Diagnostic: CesConfigCheck: CesViaAssign
[2016.02.01 18:18:55] [0000m.01s.029ms] [2] Diagnostic: CesConfigCheck: CesLayerRule
[2016.02.01 18:18:55] [0000m.01s.029ms] [2] Diagnostic: CesConfigCheck: CesSchemeNetClassRule
[2016.02.01 18:18:55] [0000m.01s.030ms] [2] Diagnostic: CesConfigCheck: CesScheme
[2016.02.01 18:18:55] [0000m.01s.030ms] [2] Diagnostic: CesConfigCheck: CesLayer
[2016.02.01 18:18:55] [0000m.01s.030ms] [2] Diagnostic: CesConfigCheck: CesNetClass
[2016.02.01 18:18:55] [0000m.01s.030ms] [2] Diagnostic: CesConfigCheck: CesClearRule
[2016.02.01 18:18:55] [0000m.01s.030ms] [2] Diagnostic: CesConfigCheck: CesConstraintClass
[2016.02.01 18:18:55] [0000m.01s.030ms] [2] Diagnostic: CesConfigCheck: CesViaSpan
[2016.02.01 18:18:55] [0000m.01s.030ms] [2] Diagnostic: CesConfigCheck: CesGenClear
[2016.02.01 18:18:55] [0000m.01s.030ms] [2] Diagnostic: CesConfigCheck: CesPartTech
[2016.02.01 18:18:55] [0000m.01s.030ms] [2] Diagnostic: CesConfigCheck: CesConstVar
[2016.02.01 18:18:55] [0000m.01s.030ms] [2] Diagnostic: CesConfigCheck: CesC2CClearRule
[2016.02.01 18:18:55] [0000m.01s.030ms] [2] Diagnostic: CesConfigCheck: CesPkgTypeClearRule
[2016.02.01 18:18:55] [0000m.01s.030ms] [2] Diagnostic: CesConfigCheck: CesP2PClearRule
[2016.02.01 18:18:55] [0000m.01s.030ms] [2] Diagnostic: CesConfigCheck: CesParRuleSection
[2016.02.01 18:18:55] [0000m.01s.030ms] [2] Diagnostic: CesConfigCheck: CesParRuleDef
[2016.02.01 18:18:55] [0000m.01s.030ms] [2] Diagnostic: CesConfigCheck: CesNoiseRule
[2016.02.01 18:18:55] [0000m.01s.030ms] [2] Diagnostic: CesConfigCheck: CesGenObj
[2016.02.01 18:18:55] [0000m.01s.030ms] [2] Diagnostic: CesConfigCheck: CesGenCompObj
[2016.02.01 18:18:55] [0000m.01s.030ms] [2] Diagnostic: CesConfigCheck: CesGenObjType
[2016.02.01 18:18:55] [0000m.01s.030ms] [2] Diagnostic: CesConfigCheck: CesVia
[2016.02.01 18:18:55] [0000m.01s.030ms] [2] Diagnostic: CesConfigCheck: CesZAxisLayerRule
[2016.02.01 18:18:55] [0000m.01s.030ms] [2] Diagnostic: CesConfigCheck: CesZAxisClearRule
[2016.02.01 18:18:55] [0000m.01s.030ms] [2] Diagnostic: ConfigCheck: CDBImplComp
[2016.02.01 18:18:55] [0000m.01s.030ms] [2] Diagnostic: ConfigCheck: CDBImplNet
[2016.02.01 18:18:55] [0000m.01s.030ms] [2] Diagnostic: ConfigCheck: CDBImplPin
[2016.02.01 18:18:55] [0000m.01s.030ms] [2] Diagnostic: Snapshot: Main_LDDTemp check finished.
[2016.02.01 18:18:55] [0000m.01s.034ms] [0] Diagnostic: FINISH
[2016.02.01 18:18:55] [0000m.01s.034ms] [0] .
