.FILETYPE PLANES_CLASS
.VERSION "01.00"
.CREATOR "Mentor Graphics"
.DATE "Wednesday, November 16, 2016 12:36 AM"
.DESIGN_UNITS MM
.NEGATIVE_FILL_DISTANCE 0
.NEGATIVE_CLEARANCE_PADS ANTIPAD
.USE_THERMAL_DEFINITION NO
.ENABLE_TIE_BRIDGING NO
.SMD_TIE_PROPERTIES
..TIE_LEG_WIDTH 0.13
..THERMAL_CLEARANCE 0.15
..TIE_LEG_TYPE FOUR
..TIE_LEG_ORIENTATION P0
.THRU_TIE_PROPERTIES
..TIE_LEG_WIDTH 0.13
..THERMAL_CLEARANCE 0.15
..TIE_LEG_TYPE FOUR
..TIE_LEG_ORIENTATION P0
.VIA_TIE_PROPERTIES
..TIE_LEG_WIDTH 0.127
..THERMAL_CLEARANCE 0.1524
..TIE_LEG_TYPE BURIED
..TIE_LEG_ORIENTATION P0
.CONTOUR_MHOLE_CLEARANCE 0.2
.OTHER_MINIMUM_CLEARANCE 0.15
.DISCARD_ALL_UNTIED_AREAS YES
..DISCARD_TIED_TO_SINGLE_PAD NO
.DISCARD_BY_AREA NO
..AREA_X 0
..AREA_Y 0
.REMOVE_SCALLOPS NO
.HATCH_WIDTH 0.15
.HATCH_DISTANCE 0.15
.HATCH_PATTERN DIAGONAL
.FILL_NONSQUARE_HATCH_AREAS YES
.RESTRICT_TO_ORTHO_PATTERN NO
..SNAP_TO_HATCH_GRID NO
.MINIMUM_PAD_GAP_DISTANCE 0
.CLEAR_BURIED_PAD YES
