[2017.04.19 14:54:32] [0000m.00s.021ms] [0] WELCOME
[2017.04.19 14:54:32] [0000m.00s.021ms] [1] iCDB Server ver.2.200, jmoSXI5tfcQi0m1NxN3JKg, build:5060443 created 2016-08-17 14:30:24, sources stamp:jmoSXI5tfcQi0m1NxN3JKg
[2017.04.19 14:54:32] [0000m.00s.021ms] [1] Copyright 2016 Mentor Graphics Corporation.  All Rights Reserved.
[2017.04.19 14:54:32] [0000m.00s.021ms] [1] Base flow version [VX.2]
[2017.04.19 14:54:32] [0000m.00s.021ms] [1] Install Id [1409847], Flow Id [PADS Professional VX.2], Full Flow Name [PADS Professional VX.2], Exact Access Date [2016/05/01]
[2017.04.19 14:54:32] [0000m.00s.021ms] [1] Machine [PC-P50-JT]  User [john.timothy]  PID [15276]
[2017.04.19 14:54:32] [0000m.00s.021ms] [1] Operating system [Microsoft Enterprise Edition, 64-bit (build 9200)]
[2017.04.19 14:54:32] [0000m.00s.021ms] [1] Current working dir [C:\pd_repo\pd\_COWBOY\_Mentor]
[2017.04.19 14:54:32] [0000m.00s.021ms] [1] PATH [C:\MentorGraphics\PADSProVX.2\SDD_HOME\common\win32\bin;C:\MentorGraphics\PADSProVX.2\SDD_HOME\common\win32\lib;C:\MentorGraphics\PADSProVX.2\MGC_HOME.ixn\bin;C:\MentorGraphics\PADSProVX.2\MGC_HOME.ixn\lib;C:\MentorGraphics\PADSProVX.2\SDD_HOME\wv\win32\bin;C:\Program Files (x86)\CSR\BlueSuite 2.5.8\DFU Tools;C:\Program Files (x86)\NVIDIA Corporation\PhysX\Common;C:\WINDOWS\system32;C:\WINDOWS;C:\WINDOWS\System32\Wbem;C:\WINDOWS\System32\WindowsPowerShell\v1.0\;C:\Program Files\TortoiseSVN\bin;C:\Program Files (x86)\Windows Kits\8.1\Windows Performance Toolkit\;C:\Program Files (x86)\Skype\Phone\;C:\Users\john.timothy\AppData\Local\Microsoft\WindowsApps;]
[2017.04.19 14:54:32] [0000m.00s.021ms] [1] SDD_HOME [C:\MentorGraphics\PADSProVX.2\SDD_HOME] on file system [NTFS]
[2017.04.19 14:54:32] [0000m.00s.021ms] [1] SDD_PLATFORM [win32]
[2017.04.19 14:54:32] [0000m.00s.021ms] [1] WDIR [C:\WDIR\PADSProVX.2;C:\MentorGraphics\PADSProVX.2\SDD_HOME\standard;]
[2017.04.19 14:54:32] [0000m.00s.021ms] [1] Local iCDB working dir [C:\WDIR\PADSProVX.2\iCDB] on file system [NTFS]
[2017.04.19 14:54:32] [0000m.00s.021ms] [2] S: Loading config files
[2017.04.19 14:54:32] [0000m.00s.021ms] [1] Config file [C:\pd_repo\pd\_COWBOY\_Mentor\database\cdbsvr\Server.cfg] not found
[2017.04.19 14:54:32] [0000m.00s.036ms] [3] S: Config loaded
[2017.04.19 14:54:32] [0000m.00s.036ms] [0] S: Project path [C:\pd_repo\pd\_COWBOY\_Mentor\database] on file system [NTFS]
[2017.04.19 14:54:32] [0000m.00s.036ms] [0] S: Project file (.prj) path [C:\pd_repo\pd\_COWBOY\_Mentor\LHBT120Main.prj] on file system [NTFS]
[2017.04.19 14:54:32] [0000m.00s.036ms] [1] S: WARNING: Database auto-repair support DISABLED
[2017.04.19 14:54:32] [0000m.00s.036ms] [0] S: Multi-user mode (config)
[2017.04.19 14:54:32] [0000m.00s.036ms] [0] S: Event polling mode autodetection
[2017.04.19 14:54:32] [0000m.00s.036ms] [0] S: Started up automatically by iCDB Client: PC-P50-JT:john.timothy:11568
[2017.04.19 14:54:32] [0000m.00s.036ms] [0] S: Auto close mode
[2017.04.19 14:54:32] [0000m.00s.036ms] [0] S: Database ID [51da-db0e-ed84-b988-ce9a-6781-f9a6-7850-5620-7cad-8c6c-5c6a]
[2017.04.19 14:54:32] [0000m.00s.036ms] [0] PathTranslator: BEGIN dumping
[2017.04.19 14:54:32] [0000m.00s.036ms] [0] PathTranslator: Local -> global path prefix list
[2017.04.19 14:54:32] [0000m.00s.036ms] [0] PathTranslator: [Z:\] -> [\\izombie\shares\pd\]
[2017.04.19 14:54:32] [0000m.00s.036ms] [0] PathTranslator: Global -> local path prefix list
[2017.04.19 14:54:32] [0000m.00s.036ms] [0] PathTranslator: [\\izombie\shares\pd\] -> [Z:\]
[2017.04.19 14:54:32] [0000m.00s.036ms] [0] PathTranslator: END dumping
[2017.04.19 14:54:32] [0000m.00s.036ms] [0] S: START
[2017.04.19 14:54:32] [0000m.00s.036ms] [0] S: Server startup lock file created
[2017.04.19 14:54:32] [0000m.00s.036ms] [0] S: Listening for client connections on port [10001]
[2017.04.19 14:54:32] [0000m.00s.036ms] [0] S: Server network ID [PC-P50-JT:10.205.10.242,PC-P50-JT,PC-P50-JT.skullcandy.local:10001]
[2017.04.19 14:54:32] [0000m.00s.036ms] [0] S: Server GUID [ed85-67c4-5cb1-7f5d-88ec-7f8d-8ec7-f850-fb10-5c4e-7c39-b89a]
[2017.04.19 14:54:32] [0000m.00s.036ms] [0] S: Project GUID [51da-db0e-ed84-b988-ce9a-6781-f9a6-7850-5620-7cad-8c6c-5c6a]
[2017.04.19 14:54:32] [0000m.00s.052ms] [0] S: Wrote data to server address file
[2017.04.19 14:54:32] [0000m.00s.052ms] [0] S: Server startup lock file removed
[2017.04.19 14:54:32] [0000m.00s.052ms] [1] ProjectBackupManager: Setting project file (.prj) path: [C:\pd_repo\pd\_COWBOY\_Mentor\LHBT120Main.prj]
[2017.04.19 14:54:32] [0000m.00s.137ms] [0] S: Plugins loaded: [PIM] [ENetGen70] 
[2017.04.19 14:54:32] [0000m.00s.137ms] [0] S: Local disc access time: 35 us
[2017.04.19 14:54:32] [0000m.00s.137ms] [0] S: File server access time: 33 us
[2017.04.19 14:54:32] [0000m.00s.137ms] [0] Single file [C:\pd_repo\pd\_COWBOY\_Mentor\database\icdb.dat] size [526440 (514.1 kB)]
[2017.04.19 14:54:32] [0000m.00s.137ms] [1] Single file [C:\pd_repo\pd\_COWBOY\_Mentor\database\icdb.dat] opened in read-write mode
[2017.04.19 14:54:32] [0000m.00s.137ms] [0] SingleFile: [0000-0000-0000-0000] SFI header version check [1009] [1009]
[2017.04.19 14:54:32] [0000m.00s.137ms] [0] Database GUARD OK: [526440]
[2017.04.19 14:54:32] [0000m.00s.137ms] [0] SingleFile: [0000-0000-0000-0000] SFI header version check [1009] [1009]
[2017.04.19 14:54:32] [0000m.00s.137ms] [0] Database GUARD OK: [526440]
[2017.04.19 14:54:32] [0000m.00s.137ms] [0] SingleFile: [0000-0000-0000-0000] SFI header version check [1009] [1009]
[2017.04.19 14:54:32] [0000m.00s.137ms] [0] Database GUARD OK: [526440]
[2017.04.19 14:54:32] [0000m.00s.137ms] [0] SingleFile: [0000-0000-0000-0000] SFI header version check [1009] [1009]
[2017.04.19 14:54:32] [0000m.00s.137ms] [0] Database GUARD OK: [526440]
[2017.04.19 14:54:32] [0000m.00s.137ms] [0] SingleFile: [0000-0000-0000-0000] SFI header version check [1009] [1009]
[2017.04.19 14:54:32] [0000m.00s.137ms] [0] Database GUARD OK: [526440]
[2017.04.19 14:54:32] [0000m.00s.137ms] [0] SingleFile: [6695-bf3d-64a7-8e43] SFI version check [1009] [1009]
[2017.04.19 14:54:32] [0000m.00s.152ms] [0] SingleFile: [6695-bf3d-64a7-8e43] Database SFI header has been read in [7ms 806us]
[2017.04.19 14:54:32] [0000m.00s.152ms] [0] iCDB Server PI: Server & plugin session [3319]
[2017.04.19 14:54:32] [0000m.00s.152ms] [0] iCDB Server PI: Opening database [C:\pd_repo\pd\_COWBOY\_Mentor\database]
[2017.04.19 14:54:32] [0000m.00s.152ms] [0] iCDB Server PI: Database [C:\pd_repo\pd\_COWBOY\_Mentor\database] opened
[2017.04.19 14:54:32] [0000m.00s.168ms] [0] iCDB Database: Checking existence of constraint definitions
[2017.04.19 14:54:32] [0000m.00s.168ms] [0] iCDB Database: Checking constraint definitions version
[2017.04.19 14:54:32] [0000m.00s.202ms] [1] iCDB Database: Constraint definitions version [ce_ee.cns=7.10.56] up to date
[2017.04.19 14:54:32] [0000m.00s.205ms] [0] iCDB Server PI: Initializing plugins
[2017.04.19 14:54:32] [0000m.00s.205ms] [0] iCDB Server PI: Plugins initialized
[2017.04.19 14:54:32] [0000m.00s.205ms] [0] S: iCDB database loaded
[2017.04.19 14:54:32] [0000m.00s.205ms] [0] S: Starting threads
[2017.04.19 14:54:32] [0000m.00s.205ms] [0] BT: Listening for broadcast messages on port [10000]
[2017.04.19 14:54:32] [0000m.00s.205ms] [1] CMT: There are no clients - waiting [10 seconds]
[2017.04.19 14:54:32] [0000m.00s.205ms] [0] IT: Session [3320] for host [PC-P50-JT] user [john.timothy] with process ID [11568] created
[2017.04.19 14:54:32] [0000m.00s.205ms] [1] SC[3320]: Registered sub-client [DxD] with ID [1] for session ID [3320] host [PC-P50-JT] user [john.timothy] process ID [11568]
[2017.04.19 14:54:32] [0000m.00s.205ms] [0] MWT: WindowProc: WM_NCCREATE
[2017.04.19 14:54:32] [0000m.00s.221ms] [0] IT: iCDB Server Monitor session [1] for host [PC-P50-JT] user [john.timothy] with process ID [2380] created
[2017.04.19 14:54:32] [0000m.00s.221ms] [1] DMT: There are [1] iCDB Server Monitor connected now
[2017.04.19 14:54:32] [0000m.00s.253ms] [1] SC[3320]: Registered sub-client [TransactionRollbackSubClient] with ID [2] for session ID [3320] host [PC-P50-JT] user [john.timothy] process ID [11568]
[2017.04.19 14:54:32] [0000m.00s.253ms] [1] SC[3320]: Registered sub-client [xprob] with ID [3] for session ID [3320] host [PC-P50-JT] user [john.timothy] process ID [11568]
[2017.04.19 14:54:32] [0000m.00s.322ms] [1] CMT: There are [1] clients now: 3320
[2017.04.19 14:54:34] [0000m.02s.203ms] [1] SC[3320]: Registered sub-client [SymbolEditor] with ID [4] for session ID [3320] host [PC-P50-JT] user [john.timothy] process ID [11568]
[2017.04.19 14:54:34] [0000m.02s.208ms] [1] SC[3320]: Registered sub-client [SelectionHolder] with ID [5] for session ID [3320] host [PC-P50-JT] user [john.timothy] process ID [11568]
[2017.04.19 14:54:34] [0000m.02s.225ms] [1] SC[3320]: Registered sub-client [EEVM_EEVM_401774020] with ID [6] for session ID [3320] host [PC-P50-JT] user [john.timothy] process ID [11568]
[2017.04.19 14:54:34] [0000m.02s.225ms] [1] SC[3320]: UnRegistered sub-client [EEVM_EEVM_401774020] with ID [6] for session ID [3320] host [PC-P50-JT] user [john.timothy] process ID [11568]
[2017.04.19 14:54:34] [0000m.02s.241ms] [1] SC[3320]: Registered sub-client [EEVM_EEVM_401774020] with ID [7] for session ID [3320] host [PC-P50-JT] user [john.timothy] process ID [11568]
[2017.04.19 14:54:34] [0000m.02s.241ms] [1] SC[3320]: UnRegistered sub-client [EEVM_EEVM_401774020] with ID [7] for session ID [3320] host [PC-P50-JT] user [john.timothy] process ID [11568]
[2017.04.19 14:54:34] [0000m.02s.256ms] [1] SC[3320]: Registered sub-client [EEVM_EEVM_401774764] with ID [8] for session ID [3320] host [PC-P50-JT] user [john.timothy] process ID [11568]
[2017.04.19 14:54:34] [0000m.02s.256ms] [1] SC[3320]: UnRegistered sub-client [EEVM_EEVM_401774764] with ID [8] for session ID [3320] host [PC-P50-JT] user [john.timothy] process ID [11568]
[2017.04.19 14:54:34] [0000m.02s.256ms] [1] SC[3320]: Registered sub-client [EEVM_EEVM_401774764] with ID [9] for session ID [3320] host [PC-P50-JT] user [john.timothy] process ID [11568]
[2017.04.19 14:54:34] [0000m.02s.288ms] [1] SC[3320]: UnRegistered sub-client [EEVM_EEVM_401774764] with ID [9] for session ID [3320] host [PC-P50-JT] user [john.timothy] process ID [11568]
[2017.04.19 14:54:34] [0000m.02s.372ms] [1] SC[3320]: Registered sub-client [SystemDesignDll] with ID [10] for session ID [3320] host [PC-P50-JT] user [john.timothy] process ID [11568]
[2017.04.19 14:54:34] [0000m.02s.404ms] [1] SC[3320]: UnRegistered sub-client [SystemDesignDll] with ID [10] for session ID [3320] host [PC-P50-JT] user [john.timothy] process ID [11568]
[2017.04.19 14:54:34] [0000m.02s.408ms] [1] SC[3320]: Registered sub-client [SystemDesignDll] with ID [11] for session ID [3320] host [PC-P50-JT] user [john.timothy] process ID [11568]
[2017.04.19 14:54:37] [0000m.05s.516ms] [1] SC[3320]: Registered sub-client [DesignSearcher2] with ID [12] for session ID [3320] host [PC-P50-JT] user [john.timothy] process ID [11568]
[2017.04.19 14:54:37] [0000m.05s.531ms] [1] SC[3320]: Registered sub-client [HdlProject] with ID [13] for session ID [3320] host [PC-P50-JT] user [john.timothy] process ID [11568]
[2017.04.19 14:54:37] [0000m.05s.531ms] [1] SC[3320]: Registered sub-client [Navigator] with ID [14] for session ID [3320] host [PC-P50-JT] user [john.timothy] process ID [11568]
[2017.04.19 14:54:37] [0000m.05s.547ms] [1] SC[3320]: Registered sub-client [OutputWindow] with ID [15] for session ID [3320] host [PC-P50-JT] user [john.timothy] process ID [11568]
[2017.04.19 14:54:37] [0000m.05s.547ms] [1] SC[3320]: Registered sub-client [PlaceDevice] with ID [16] for session ID [3320] host [PC-P50-JT] user [john.timothy] process ID [11568]
[2017.04.19 14:54:37] [0000m.05s.694ms] [1] SC[3320]: Registered sub-client [LocalSymbolsDataProvider] with ID [17] for session ID [3320] host [PC-P50-JT] user [john.timothy] process ID [11568]
[2017.04.19 14:54:37] [0000m.05s.710ms] [1] SC[3320]: Registered sub-client [FFSearch_Controller_0] with ID [18] for session ID [3320] host [PC-P50-JT] user [john.timothy] process ID [11568]
[2017.04.19 14:54:37] [0000m.05s.832ms] [1] SC[3320]: Registered sub-client [FFSearch_Controller_1] with ID [19] for session ID [3320] host [PC-P50-JT] user [john.timothy] process ID [11568]
[2017.04.19 14:54:38] [0000m.05s.964ms] [1] SC[3320]: Registered sub-client [FFSearch_Controller_2] with ID [20] for session ID [3320] host [PC-P50-JT] user [john.timothy] process ID [11568]
[2017.04.19 14:54:38] [0000m.06s.116ms] [1] SC[3320]: Registered sub-client [FFSearch_Controller_3] with ID [21] for session ID [3320] host [PC-P50-JT] user [john.timothy] process ID [11568]
[2017.04.19 14:54:38] [0000m.06s.249ms] [1] SC[3320]: Registered sub-client [FFSearch_Controller_4] with ID [22] for session ID [3320] host [PC-P50-JT] user [john.timothy] process ID [11568]
[2017.04.19 14:54:38] [0000m.06s.379ms] [1] SC[3320]: Registered sub-client [SAE] with ID [23] for session ID [3320] host [PC-P50-JT] user [john.timothy] process ID [11568]
[2017.04.19 14:54:38] [0000m.06s.379ms] [1] SC[3320]: Registered sub-client [CCZAddin] with ID [24] for session ID [3320] host [PC-P50-JT] user [john.timothy] process ID [11568]
[2017.04.19 14:54:38] [0000m.06s.379ms] [1] SC[3320]: Registered sub-client [DxThumbnails] with ID [25] for session ID [3320] host [PC-P50-JT] user [john.timothy] process ID [11568]
[2017.04.19 14:54:38] [0000m.06s.379ms] [1] SC[3320]: Registered sub-client [MyParts] with ID [26] for session ID [3320] host [PC-P50-JT] user [john.timothy] process ID [11568]
[2017.04.19 14:54:38] [0000m.06s.417ms] [1] SC[3320]: Registered sub-client [PinsList] with ID [27] for session ID [3320] host [PC-P50-JT] user [john.timothy] process ID [11568]
[2017.04.19 14:54:38] [0000m.06s.611ms] [1] SC[3320]: Registered sub-client [toolboxes] with ID [28] for session ID [3320] host [PC-P50-JT] user [john.timothy] process ID [11568]
[2017.04.19 14:54:38] [0000m.06s.649ms] [1] SC[3320]: Registered sub-client [ProjectIntegrationIcdbCacheDxD:558949576] with ID [29] for session ID [3320] host [PC-P50-JT] user [john.timothy] process ID [11568]
[2017.04.19 14:54:38] [0000m.06s.749ms] [1] SC[3320]: Registered sub-client [SheetConnectorsCacheDxD:1492635278] with ID [30] for session ID [3320] host [PC-P50-JT] user [john.timothy] process ID [11568]
[2017.04.19 14:54:38] [0000m.06s.781ms] [1] SC[3320]: Registered sub-client [NetsNamesCollectorDxD:1492635278] with ID [31] for session ID [3320] host [PC-P50-JT] user [john.timothy] process ID [11568]
[2017.04.19 14:54:38] [0000m.06s.796ms] [1] SC[3320]: Registered sub-client [PartReplaceUtils] with ID [32] for session ID [3320] host [PC-P50-JT] user [john.timothy] process ID [11568]
[2017.04.19 14:54:39] [0000m.07s.296ms] [1] SC[3320]: Registered sub-client [ObjectHolder_562388408] with ID [33] for session ID [3320] host [PC-P50-JT] user [john.timothy] process ID [11568]
[2017.04.19 14:54:39] [0000m.07s.296ms] [1] SC[3320]: Registered sub-client [BlockCacheDxD:564749432] with ID [34] for session ID [3320] host [PC-P50-JT] user [john.timothy] process ID [11568]
[2017.04.19 14:54:39] [0000m.07s.312ms] [1] SC[3320]: Registered sub-client [GlobalNetAliasUpdater_562390592] with ID [35] for session ID [3320] host [PC-P50-JT] user [john.timothy] process ID [11568]
[2017.04.19 14:54:39] [0000m.07s.315ms] [1] SC[3320]: Registered sub-client [IcdbNetProcessorSubClientDxD:562454960] with ID [36] for session ID [3320] host [PC-P50-JT] user [john.timothy] process ID [11568]
[2017.04.19 14:54:40] [0000m.08s.469ms] [1] SC[3320]: Registered sub-client [DxDbSearch] with ID [37] for session ID [3320] host [PC-P50-JT] user [john.timothy] process ID [11568]
[2017.04.19 14:55:09] [0000m.36s.912ms] [0] DFAMT: File server access time: 131 us
[2017.04.19 14:55:09] [0000m.37s.428ms] [1] SC[3320]: Registered sub-client [Dx2Exp_672303859] with ID [38] for session ID [3320] host [PC-P50-JT] user [john.timothy] process ID [11568]
[2017.04.19 14:55:09] [0000m.37s.428ms] [1] SC[3320]: UnRegistered sub-client [Dx2Exp_672303859] with ID [38] for session ID [3320] host [PC-P50-JT] user [john.timothy] process ID [11568]
[2017.04.19 14:55:22] [0000m.50s.522ms] [0] IT: Session [3321] for host [PC-P50-JT] user [john.timothy] with process ID [7628] created
[2017.04.19 14:55:22] [0000m.50s.522ms] [1] SC[3321]: Registered sub-client [Expedition PE_672316953] with ID [1] for session ID [3321] host [PC-P50-JT] user [john.timothy] process ID [7628]
[2017.04.19 14:55:22] [0000m.50s.575ms] [1] CMT: There are [2] clients now: 3320, 3321
[2017.04.19 14:55:22] [0000m.50s.575ms] [1] SC[3321]: Registered sub-client [EEVM_EEVM_270416076] with ID [2] for session ID [3321] host [PC-P50-JT] user [john.timothy] process ID [7628]
[2017.04.19 14:55:22] [0000m.50s.606ms] [1] SC[3321]: UnRegistered sub-client [EEVM_EEVM_270416076] with ID [2] for session ID [3321] host [PC-P50-JT] user [john.timothy] process ID [7628]
[2017.04.19 14:55:22] [0000m.50s.606ms] [1] SC[3321]: Registered sub-client [EEVM_EEVM_270416076] with ID [3] for session ID [3321] host [PC-P50-JT] user [john.timothy] process ID [7628]
[2017.04.19 14:55:22] [0000m.50s.622ms] [1] SC[3321]: UnRegistered sub-client [EEVM_EEVM_270416076] with ID [3] for session ID [3321] host [PC-P50-JT] user [john.timothy] process ID [7628]
[2017.04.19 14:55:22] [0000m.50s.860ms] [1] SC[3321]: Registered sub-client [JobPrefsDBPI_672317296] with ID [4] for session ID [3321] host [PC-P50-JT] user [john.timothy] process ID [7628]
[2017.04.19 14:55:22] [0000m.50s.875ms] [1] SC[3321]: UnRegistered sub-client [JobPrefsDBPI_672317296] with ID [4] for session ID [3321] host [PC-P50-JT] user [john.timothy] process ID [7628]
[2017.04.19 14:55:26] [0000m.54s.762ms] [1] SC[3321]: Registered sub-client [ExpeditionCrossProber] with ID [5] for session ID [3321] host [PC-P50-JT] user [john.timothy] process ID [7628]
[2017.04.19 14:57:35] [0003m.03s.185ms] [1] SC[3321]: UnRegistered sub-client [ExpeditionCrossProber] with ID [5] for session ID [3321] host [PC-P50-JT] user [john.timothy] process ID [7628]
[2017.04.19 14:57:36] [0003m.04s.418ms] [1] SC[3320]: UnRegistered sub-client [SystemDesignDll] with ID [11] for session ID [3320] host [PC-P50-JT] user [john.timothy] process ID [11568]
[2017.04.19 14:57:36] [0003m.04s.567ms] [1] SC[3320]: UnRegistered sub-client [DesignSearcher2] with ID [12] for session ID [3320] host [PC-P50-JT] user [john.timothy] process ID [11568]
[2017.04.19 14:57:36] [0003m.04s.892ms] [1] SC[3320]: UnRegistered sub-client [GlobalNetAliasUpdater_562390592] with ID [35] for session ID [3320] host [PC-P50-JT] user [john.timothy] process ID [11568]
[2017.04.19 14:57:36] [0003m.04s.892ms] [1] SC[3320]: UnRegistered sub-client [BlockCacheDxD:564749432] with ID [34] for session ID [3320] host [PC-P50-JT] user [john.timothy] process ID [11568]
[2017.04.19 14:57:36] [0003m.04s.892ms] [1] SC[3320]: UnRegistered sub-client [ObjectHolder_562388408] with ID [33] for session ID [3320] host [PC-P50-JT] user [john.timothy] process ID [11568]
[2017.04.19 14:57:36] [0003m.04s.893ms] [1] SC[3320]: UnRegistered sub-client [IcdbNetProcessorSubClientDxD:562454960] with ID [36] for session ID [3320] host [PC-P50-JT] user [john.timothy] process ID [11568]
[2017.04.19 14:57:37] [0003m.04s.999ms] [1] SC[3320]: UnRegistered sub-client [Navigator] with ID [14] for session ID [3320] host [PC-P50-JT] user [john.timothy] process ID [11568]
[2017.04.19 14:57:37] [0003m.05s.008ms] [1] SC[3320]: UnRegistered sub-client [LocalSymbolsDataProvider] with ID [17] for session ID [3320] host [PC-P50-JT] user [john.timothy] process ID [11568]
[2017.04.19 14:57:37] [0003m.05s.011ms] [1] SC[3320]: UnRegistered sub-client [FFSearch_Controller_0] with ID [18] for session ID [3320] host [PC-P50-JT] user [john.timothy] process ID [11568]
[2017.04.19 14:57:37] [0003m.05s.012ms] [1] SC[3320]: UnRegistered sub-client [FFSearch_Controller_1] with ID [19] for session ID [3320] host [PC-P50-JT] user [john.timothy] process ID [11568]
[2017.04.19 14:57:37] [0003m.05s.013ms] [1] SC[3320]: UnRegistered sub-client [FFSearch_Controller_2] with ID [20] for session ID [3320] host [PC-P50-JT] user [john.timothy] process ID [11568]
[2017.04.19 14:57:37] [0003m.05s.014ms] [1] SC[3320]: UnRegistered sub-client [FFSearch_Controller_3] with ID [21] for session ID [3320] host [PC-P50-JT] user [john.timothy] process ID [11568]
[2017.04.19 14:57:37] [0003m.05s.015ms] [1] SC[3320]: UnRegistered sub-client [FFSearch_Controller_4] with ID [22] for session ID [3320] host [PC-P50-JT] user [john.timothy] process ID [11568]
[2017.04.19 14:57:37] [0003m.05s.788ms] [1] SC[3320]: UnRegistered sub-client [MyParts] with ID [26] for session ID [3320] host [PC-P50-JT] user [john.timothy] process ID [11568]
[2017.04.19 14:57:37] [0003m.05s.788ms] [1] SC[3320]: UnRegistered sub-client [toolboxes] with ID [28] for session ID [3320] host [PC-P50-JT] user [john.timothy] process ID [11568]
[2017.04.19 14:57:37] [0003m.05s.872ms] [1] SC[3321]: UnRegistered sub-client [Expedition PE_672316953] with ID [1] for session ID [3321] host [PC-P50-JT] user [john.timothy] process ID [7628]
[2017.04.19 14:57:38] [0003m.05s.966ms] [1] CMT: Removed client [3321]
[2017.04.19 14:57:38] [0003m.05s.966ms] [1] CMT: There are [1] clients now: 3320
[2017.04.19 14:57:39] [0003m.07s.551ms] [1] SC[3320]: UnRegistered sub-client [SelectionHolder] with ID [5] for session ID [3320] host [PC-P50-JT] user [john.timothy] process ID [11568]
[2017.04.19 14:57:39] [0003m.07s.551ms] [1] SC[3320]: UnRegistered sub-client [PartReplaceUtils] with ID [32] for session ID [3320] host [PC-P50-JT] user [john.timothy] process ID [11568]
[2017.04.19 14:57:40] [0003m.08s.523ms] [1] SC[3320]: UnRegistered sub-client [ProjectIntegrationIcdbCacheDxD:558949576] with ID [29] for session ID [3320] host [PC-P50-JT] user [john.timothy] process ID [11568]
[2017.04.19 14:57:40] [0003m.08s.523ms] [1] SC[3320]: UnRegistered sub-client [SheetConnectorsCacheDxD:1492635278] with ID [30] for session ID [3320] host [PC-P50-JT] user [john.timothy] process ID [11568]
[2017.04.19 14:57:40] [0003m.08s.523ms] [1] SC[3320]: UnRegistered sub-client [NetsNamesCollectorDxD:1492635278] with ID [31] for session ID [3320] host [PC-P50-JT] user [john.timothy] process ID [11568]
[2017.04.19 14:57:40] [0003m.08s.523ms] [1] SC[3320]: UnRegistered sub-client [TransactionRollbackSubClient] with ID [2] for session ID [3320] host [PC-P50-JT] user [john.timothy] process ID [11568]
[2017.04.19 14:57:40] [0003m.08s.523ms] [1] SC[3320]: UnRegistered sub-client [DxD] with ID [1] for session ID [3320] host [PC-P50-JT] user [john.timothy] process ID [11568]
[2017.04.19 14:57:40] [0003m.08s.553ms] [1] SC[3320]: UnRegistered sub-client [xprob] with ID [3] for session ID [3320] host [PC-P50-JT] user [john.timothy] process ID [11568]
[2017.04.19 14:57:40] [0003m.08s.553ms] [1] SC[3320]: UnRegistered sub-client [SymbolEditor] with ID [4] for session ID [3320] host [PC-P50-JT] user [john.timothy] process ID [11568]
[2017.04.19 14:57:40] [0003m.08s.575ms] [1] SC[3320]: UnRegistered sub-client [OutputWindow] with ID [15] for session ID [3320] host [PC-P50-JT] user [john.timothy] process ID [11568]
[2017.04.19 14:57:40] [0003m.08s.575ms] [1] SC[3320]: UnRegistered sub-client [DxDbSearch] with ID [37] for session ID [3320] host [PC-P50-JT] user [john.timothy] process ID [11568]
[2017.04.19 14:57:40] [0003m.08s.622ms] [1] SC[3320]: UnRegistered sub-client [SAE] with ID [23] for session ID [3320] host [PC-P50-JT] user [john.timothy] process ID [11568]
[2017.04.19 14:57:40] [0003m.08s.622ms] [1] SC[3320]: UnRegistered sub-client [CCZAddin] with ID [24] for session ID [3320] host [PC-P50-JT] user [john.timothy] process ID [11568]
[2017.04.19 14:57:40] [0003m.08s.638ms] [1] SC[3320]: UnRegistered sub-client [DxThumbnails] with ID [25] for session ID [3320] host [PC-P50-JT] user [john.timothy] process ID [11568]
[2017.04.19 14:57:42] [0003m.10s.508ms] [1] SC[3320]: UnRegistered sub-client [PinsList] with ID [27] for session ID [3320] host [PC-P50-JT] user [john.timothy] process ID [11568]
[2017.04.19 14:57:42] [0003m.10s.540ms] [1] SC[3320]: UnRegistered sub-client [PlaceDevice] with ID [16] for session ID [3320] host [PC-P50-JT] user [john.timothy] process ID [11568]
[2017.04.19 14:57:42] [0003m.10s.555ms] [1] SC[3320]: UnRegistered sub-client [HdlProject] with ID [13] for session ID [3320] host [PC-P50-JT] user [john.timothy] process ID [11568]
[2017.04.19 14:57:42] [0003m.10s.656ms] [1] CMT: Removed client [3320]
[2017.04.19 14:57:42] [0003m.10s.656ms] [1] CMT: There are no clients left - waiting [1 seconds]
[2017.04.19 14:57:42] [0003m.10s.772ms] [1] SDL: The last connected iCDB Server Monitor [1] is waiting for server close
[2017.04.19 14:57:44] [0003m.12s.010ms] [0] CMT: Starting server auto-close
[2017.04.19 14:57:44] [0003m.12s.026ms] [0] S: Closing server
[2017.04.19 14:57:44] [0003m.12s.173ms] [0] iCDB Server PI: Closing plugins
[2017.04.19 14:57:44] [0003m.12s.173ms] [0] iCDB Server PI: Plugins closed
[2017.04.19 14:57:44] [0003m.12s.173ms] [0] iCDB Server PI: Unloading database
[2017.04.19 14:57:44] [0003m.12s.173ms] [0] iCDB Server PI: Saving storage
[2017.04.19 14:57:44] [0003m.12s.174ms] [0] iCDB Server PI: Closing database
[2017.04.19 14:57:44] [0003m.12s.174ms] [1] Hole: zero line at 526396 of size 8 bytes.
[2017.04.19 14:57:44] [0003m.12s.179ms] [1] iCDB Server PI: Stats: Database defragmentation: max[1] avg[1] holes[12%] data[97%]
[2017.04.19 14:57:44] [0003m.12s.179ms] [1] iCDB Server PI: Stats: Database file size [526440 (514.1 kB)]
[2017.04.19 14:57:44] [0003m.12s.179ms] [1] Hole: zero line at 526396 of size 8 bytes.
[2017.04.19 14:57:44] [0003m.12s.194ms] [0] iCDB Server PI: Database closed
[2017.04.19 14:57:44] [0003m.12s.194ms] [1] iCDB Server PI: Stats: Total iCDB execution time: [10253] ticks
[2017.04.19 14:57:44] [0003m.12s.194ms] [1] iCDB Server PI: Stats: Total iCDB execution time: [3738] microseconds
[2017.04.19 14:57:44] [0003m.12s.194ms] [1] iCDB Server PI: Stats: Total iCDB commands count: [12]
[2017.04.19 14:57:44] [0003m.12s.194ms] [1] iCDB Server PI: Stats: Average iCDB speed:        [3209] commands per second
[2017.04.19 14:57:44] [0003m.12s.194ms] [0] Single file [C:\pd_repo\pd\_COWBOY\_Mentor\database\icdb.dat] closed with size [526440 (514.1 kB)]
[2017.04.19 14:57:44] [0003m.12s.273ms] [1] SD[1]: Removing the last connected iCDB Server Monitor [1]
[2017.04.19 14:57:44] [0003m.12s.442ms] [0] MWT: Destroy the shutdown block reason.
[2017.04.19 14:57:44] [0003m.12s.442ms] [0] MWT: STOP
[2017.04.19 14:57:44] [0003m.12s.442ms] [0] S: STOP
