.FILETYPE PLANES_CLASS
.VERSION "01.00"
.CREATOR "Mentor Graphics"
.DATE "March 2006"
.DESIGN_UNITS IN

.NEGATIVE_FILL_DISTANCE 0
.NEGATIVE_CLEARANCE_PADS ANTIPAD
.USE_THERMAL_DEFINITION YES
.ENABLE_TIE_BRIDGING NO

.SMD_TIE_PROPERTIES
..TIE_LEG_WIDTH .005
..THERMAL_CLEARANCE .006
..TIE_LEG_TYPE FOUR
..TIE_LEG_ORIENTATION P0

.THRU_TIE_PROPERTIES
..TIE_LEG_WIDTH .005
..THERMAL_CLEARANCE .006
..TIE_LEG_TYPE FOUR
..TIE_LEG_ORIENTATION P0

.VIA_TIE_PROPERTIES
..TIE_LEG_WIDTH .005
..THERMAL_CLEARANCE .006
..TIE_LEG_TYPE BURIED
..TIE_LEG_ORIENTATION P0

.CONTOUR_MHOLE_CLEARANCE .02

.OTHER_MINIMUM_CLEARANCE 0

.DISCARD_ALL_UNTIED_AREAS YES
..DISCARD_TIED_TO_SINGLE_PAD NO

.DISCARD_BY_AREA NO
..AREA_X 0
..AREA_Y 0

.HATCH_WIDTH .006

.HATCH_DISTANCE .006

.HATCH_PATTERN HORIZONTAL

.FILL_NONSQUARE_HATCH_AREAS YES

.RESTRICT_TO_ORTHO_PATTERN NO
..SNAP_TO_HATCH_GRID NO

.MINIMUM_PAD_GAP_DISTANCE 0
