
                                Autosave Log File
                                -----------------

                         12:45 AM Monday, March 20, 2017
              Job Name: C:\pd_repo\pd\_COWBOY\_Mentor\PCB\Main.pcb


                               Autosave log closed
                               -------------------

                         12:52 AM Monday, March 20, 2017
              Job Name: C:\pd_repo\pd\_COWBOY\_Mentor\PCB\Main.pcb

