=======================================================================
PADS Professional Layout - Version 2015.0.678.963
=======================================================================

RELOAD CELLS

Job Directory:  C:\Users\john.timothy\Desktop\LHBT120Main\PCB\


Design Units:(mm)

Replace Cell Log:   repCellLog46.txt

Tue May 10 17:27:53 2016

Reference Designator            Cell Name                         New Cell Name
===============================================================================


---------------  RELOAD CELLS  Tue May 10 17:27:53 2016  ---------------




---------------    Tue May 10 17:27:53 2016  ---------------


