=======================================================================
PADS Professional Layout - Version 2015.0.678.963
=======================================================================

RELOAD CELLS

Job Directory:  C:\Users\branden.sheffield\Documents\HeshBT\Mentor\LHBT120Main\PCB\


Design Units:(mm)

Replace Cell Log:   repCellLog56.txt

Fri Jun 10 11:06:15 2016

Reference Designator            Cell Name                         New Cell Name
===============================================================================


---------------  RELOAD CELLS  Fri Jun 10 11:06:15 2016  ---------------




---------------    Fri Jun 10 11:06:15 2016  ---------------




---------------  RELOAD CELLS  Fri Jun 10 12:53:47 2016  ---------------




---------------    Fri Jun 10 12:53:47 2016  ---------------


