=======================================================================
PADS Professional Layout - Version 2015.0.678.963
=======================================================================

RELOAD CELLS

Job Directory:  C:\Users\branden.sheffield\Documents\Crusher3.0\Mentor\CrusherMain\PCB\


Design Units:(mm)

Replace Cell Log:   repCellLog10.txt

Tue Sep 22 12:27:57 2015

Reference Designator            Cell Name                         New Cell Name
===============================================================================


---------------  RELOAD CELLS  Tue Sep 22 12:27:57 2015  ---------------




---------------    Tue Sep 22 12:27:57 2015  ---------------




---------------    Tue Sep 22 12:28:12 2015  ---------------


