=======================================================================
PADS Professional Layout - Version 2015.0.678.963
=======================================================================

RELOAD CELLS

Job Directory:  C:\Users\branden.sheffield\Documents\Crusher3.0\Mentor\CrusherMain\PCB\


Design Units:(mm)

Replace Cell Log:   repCellLog23.txt

Wed Dec 09 15:22:40 2015

Reference Designator            Cell Name                         New Cell Name
===============================================================================


---------------  RELOAD CELLS  Wed Dec 09 15:22:40 2015  ---------------




---------------    Wed Dec 09 15:22:40 2015  ---------------




---------------  RELOAD CELLS  Wed Dec 09 18:37:51 2015  ---------------




---------------  RELOAD CELLS TMP  Wed Dec 09 18:37:51 2015  ---------------




---------------    Wed Dec 09 18:37:52 2015  ---------------




---------------    Wed Dec 09 18:37:52 2015  ---------------




---------------    Wed Dec 09 18:37:52 2015  ---------------




---------------    Wed Dec 09 18:37:52 2015  ---------------




---------------    Wed Dec 09 18:37:52 2015  ---------------




---------------    Wed Dec 09 18:37:52 2015  ---------------




---------------    Wed Dec 09 18:37:52 2015  ---------------




---------------    Wed Dec 09 18:37:52 2015  ---------------




---------------    Wed Dec 09 18:37:52 2015  ---------------




---------------    Wed Dec 09 18:37:52 2015  ---------------




---------------    Wed Dec 09 18:37:52 2015  ---------------




---------------    Wed Dec 09 18:37:52 2015  ---------------




---------------    Wed Dec 09 18:37:52 2015  ---------------




---------------    Wed Dec 09 18:37:52 2015  ---------------




---------------    Wed Dec 09 18:37:52 2015  ---------------




---------------    Wed Dec 09 18:37:52 2015  ---------------




---------------    Wed Dec 09 18:37:52 2015  ---------------




---------------    Wed Dec 09 18:37:52 2015  ---------------




---------------    Wed Dec 09 18:37:52 2015  ---------------




---------------    Wed Dec 09 18:37:52 2015  ---------------




---------------    Wed Dec 09 18:37:52 2015  ---------------




---------------    Wed Dec 09 18:37:52 2015  ---------------




---------------    Wed Dec 09 18:37:52 2015  ---------------




---------------    Wed Dec 09 18:37:52 2015  ---------------




---------------    Wed Dec 09 18:37:52 2015  ---------------




---------------    Wed Dec 09 18:37:52 2015  ---------------




---------------    Wed Dec 09 18:37:52 2015  ---------------




---------------    Wed Dec 09 18:37:52 2015  ---------------




---------------    Wed Dec 09 18:37:52 2015  ---------------




---------------    Wed Dec 09 18:37:52 2015  ---------------




---------------    Wed Dec 09 18:37:52 2015  ---------------




---------------    Wed Dec 09 18:37:52 2015  ---------------




---------------    Wed Dec 09 18:37:52 2015  ---------------




---------------    Wed Dec 09 18:37:52 2015  ---------------




---------------    Wed Dec 09 18:37:52 2015  ---------------




---------------    Wed Dec 09 18:37:52 2015  ---------------




---------------    Wed Dec 09 18:37:52 2015  ---------------




---------------    Wed Dec 09 18:37:52 2015  ---------------




---------------    Wed Dec 09 18:37:52 2015  ---------------




---------------    Wed Dec 09 18:37:52 2015  ---------------




---------------    Wed Dec 09 18:37:52 2015  ---------------




---------------    Wed Dec 09 18:37:52 2015  ---------------




---------------    Wed Dec 09 18:37:52 2015  ---------------




---------------    Wed Dec 09 18:37:52 2015  ---------------




---------------    Wed Dec 09 18:37:52 2015  ---------------




---------------    Wed Dec 09 18:37:52 2015  ---------------




---------------    Wed Dec 09 18:37:52 2015  ---------------




---------------    Wed Dec 09 18:37:52 2015  ---------------




---------------    Wed Dec 09 18:37:52 2015  ---------------




---------------    Wed Dec 09 18:37:52 2015  ---------------




---------------    Wed Dec 09 18:37:52 2015  ---------------


C13                             0402                              0402                            
R56                             0201                              0201                            
R7                              0201                              0201                            
R60                             DETAS,Slide,Pot,V0534             DETAS,Slide,Pot,V0534           
R10                             0201                              0201                            
R61                             0201                              0201                            
C14                             0402                              0402                            
R62                             0201                              0201                            
R63                             0201                              0201                            
R64                             0201                              0201                            
R65                             0201                              0201                            
R11                             0402                              0402                            
R66                             0402                              0402                            
C15                             0402                              0402                            
R67                             0402                              0402                            
U11                             transistor_3904                   transistor_3904                 
R70                             0402                              0402                            
R68                             0402                              0402                            
R12                             0402                              0402                            
C16                             0402                              0402                            
R71                             0402                              0402                            
R69                             0402                              0402                            
R13                             0402                              0402                            
C17                             0402                              0402                            
R72                             0402                              0402                            
R14                             0402                              0402                            
R73                             0402                              0402                            
C8                              0201                              0201                            
C18                             0402                              0402                            
C20                             0402                              0402                            
R74                             0402                              0402                            
R15                             0402                              0402                            
R75                             0402                              0402                            
C19                             0402                              0402                            
C21                             0402                              0402                            
R76                             0402                              0402                            
C22                             0402                              0402                            
R77                             0402                              0402                            
C23                             0402                              0402                            
R80                             0402                              0402                            
R8                              0201                              0201                            
R78                             0402                              0402                            
C24                             0402                              0402                            
R81                             0402                              0402                            
R79                             0402                              0402                            
C25                             0402                              0402                            
C26                             0201                              0201                            
R82                             0402                              0402                            
C27                             0201                              0201                            
R83                             0402                              0402                            
C28                             0201                              0201                            
C9                              0402                              0402                            
R84                             0402                              0402                            
C29                             0603                              0603                            
C32                             0402                              0402                            
C33                             0402                              0402                            
R9                              0201                              0201                            
C34                             0402                              0402                            
C35                             0402                              0402                            
C38                             0402                              0402                            
C40                             0402                              0402                            
C39                             0402                              0402                            
C41                             0402                              0402                            
R38                             0402                              0402                            
C44                             0201                              0201                            
R39                             0402                              0402                            
R41                             0201                              0201                            
C45                             0402                              0402                            
C1                              0402                              0402                            
R42                             0201                              0201                            
L1                              0603                              0603                            
C46                             0402                              0402                            
R43                             0201                              0201                            
R1                              0402                              0402                            
C47                             0402                              0402                            
R44                             0201                              0201                            
C48                             0402                              0402                            
R45                             0201                              0201                            
C51                             0402                              0402                            
C2                              0402                              0402                            
R46                             0201                              0201                            
C52                             0402                              0402                            
L2                              0603                              0603                            
R47                             0201                              0201                            
R2                              0201                              0201                            
C53                             0402                              0402                            
R48                             0201                              0201                            
R50                             0201                              0201                            
C3                              0402                              0402                            
C54                             0402                              0402                            
R51                             0201                              0201                            
L3                              0603                              0603                            
R49                             0201                              0201                            
R3                              0201                              0201                            
C55                             0402                              0402                            
R52                             0201                              0201                            
C56                             0402                              0402                            
C4                              0402                              0402                            
R53                             0201                              0201                            
L4                              0603                              0603                            
C57                             0201                              0201                            
R4                              0201                              0201                            
R54                             0201                              0201                            
C5                              0201                              0201                            
C58                             0603                              0603                            
L5                              0603                              0603                            
R55                             0201                              0201                            
R5                              0201                              0201                            
C59                             0201                              0201                            
C6                              0201                              0201                            
L6                              0603                              0603                            
R6                              0201                              0201                            
C10                             0201                              0201                            
C7                              0402                              0402                            
C11                             0201                              0201                            
C12                             0402                              0402                            


---------------    Wed Dec 09 18:37:52 2015  ---------------




---------------    Wed Dec 09 18:37:52 2015  ---------------




---------------  RELOAD CELLS  Wed Dec 09 18:42:34 2015  ---------------




---------------    Wed Dec 09 18:42:34 2015  ---------------


