=======================================================================
PADS Professional Layout - Version 2015.0.678.963
=======================================================================

RELOAD CELLS

Job Directory:  C:\Users\branden.sheffield\Documents\Crusher3.0\Mentor\CrusherMain\PCB\


Design Units:(mm)

Replace Cell Log:   repCellLog07.txt

Sun Sep 20 21:38:21 2015

Reference Designator            Cell Name                         New Cell Name
===============================================================================


---------------  RELOAD CELLS  Sun Sep 20 21:38:21 2015  ---------------




---------------    Sun Sep 20 21:38:21 2015  ---------------




---------------    Sun Sep 20 21:38:55 2015  ---------------




---------------    Sun Sep 20 21:39:47 2015  ---------------




---------------    Sun Sep 20 21:42:25 2015  ---------------




---------------    Sun Sep 20 21:43:18 2015  ---------------




---------------    Sun Sep 20 21:43:18 2015  ---------------




---------------    Sun Sep 20 21:43:18 2015  ---------------




---------------    Sun Sep 20 21:43:18 2015  ---------------




---------------    Sun Sep 20 21:43:18 2015  ---------------




---------------    Sun Sep 20 21:43:18 2015  ---------------




---------------    Sun Sep 20 21:43:18 2015  ---------------


