=======================================================================
PADS Professional Layout - Version 2015.0.678.963
=======================================================================

RELOAD CELLS

Job Directory:  C:\Users\branden.sheffield\Documents\Crusher3.0\Mentor\CrusherMain\PCB\


Design Units:(th)

Replace Cell Log:   repCellLog00.txt

Thu Sep 10 18:25:04 2015

Reference Designator            Cell Name                         New Cell Name
===============================================================================


---------------  RELOAD CELLS  Thu Sep 10 18:25:04 2015  ---------------




---------------    Thu Sep 10 18:25:04 2015  ---------------




---------------    Thu Sep 10 18:25:19 2015  ---------------




---------------    Thu Sep 10 18:25:20 2015  ---------------




---------------    Thu Sep 10 18:25:28 2015  ---------------




---------------    Thu Sep 10 18:25:30 2015  ---------------




---------------    Thu Sep 10 18:25:39 2015  ---------------




---------------    Thu Sep 10 18:25:43 2015  ---------------




---------------    Thu Sep 10 18:25:45 2015  ---------------




---------------    Thu Sep 10 18:25:53 2015  ---------------




---------------    Thu Sep 10 18:25:59 2015  ---------------




---------------    Thu Sep 10 18:26:04 2015  ---------------




---------------    Thu Sep 10 18:26:16 2015  ---------------




---------------    Thu Sep 10 18:26:18 2015  ---------------




---------------    Thu Sep 10 18:26:18 2015  ---------------




---------------    Thu Sep 10 18:26:19 2015  ---------------




---------------    Thu Sep 10 18:26:29 2015  ---------------




---------------    Thu Sep 10 18:26:37 2015  ---------------




---------------    Thu Sep 10 18:26:47 2015  ---------------




---------------    Thu Sep 10 18:26:52 2015  ---------------




---------------    Thu Sep 10 18:27:00 2015  ---------------




---------------    Thu Sep 10 18:27:04 2015  ---------------




---------------    Thu Sep 10 18:27:06 2015  ---------------




---------------    Thu Sep 10 18:27:07 2015  ---------------




---------------    Thu Sep 10 18:27:10 2015  ---------------




---------------    Thu Sep 10 18:27:14 2015  ---------------




---------------    Thu Sep 10 18:27:15 2015  ---------------




---------------    Thu Sep 10 18:27:16 2015  ---------------




---------------    Thu Sep 10 18:27:17 2015  ---------------




---------------    Thu Sep 10 18:27:17 2015  ---------------




---------------    Thu Sep 10 18:27:18 2015  ---------------




---------------    Thu Sep 10 18:27:19 2015  ---------------




---------------    Thu Sep 10 18:27:19 2015  ---------------




---------------    Thu Sep 10 18:27:20 2015  ---------------




---------------    Thu Sep 10 18:27:21 2015  ---------------




---------------    Thu Sep 10 18:38:05 2015  ---------------




---------------    Thu Sep 10 18:38:22 2015  ---------------




---------------  RELOAD CELLS  Thu Sep 10 18:39:40 2015  ---------------




---------------    Thu Sep 10 18:39:40 2015  ---------------




---------------    Thu Sep 10 18:40:20 2015  ---------------




---------------  RELOAD CELLS  Thu Sep 10 18:41:17 2015  ---------------




---------------    Thu Sep 10 18:41:17 2015  ---------------




---------------    Thu Sep 10 18:41:23 2015  ---------------


