=======================================================================
PADS Professional Layout - Version 2015.0.678.963
=======================================================================

RELOAD CELLS

Job Directory:  C:\Users\branden.sheffield\Documents\HeshBT\Mentor\LHBT120Main\PCB\


Design Units:(mm)

Replace Cell Log:   repCellLog42.txt

Thu Apr 28 16:46:15 2016

Reference Designator            Cell Name                         New Cell Name
===============================================================================


---------------  RELOAD CELLS  Thu Apr 28 16:46:15 2016  ---------------




---------------    Thu Apr 28 16:46:15 2016  ---------------




---------------  RELOAD CELLS  Thu Apr 28 16:50:20 2016  ---------------




---------------    Thu Apr 28 16:50:20 2016  ---------------




---------------  RELOAD CELLS  Thu Apr 28 17:25:26 2016  ---------------




---------------    Thu Apr 28 17:25:26 2016  ---------------




---------------    Thu Apr 28 18:05:39 2016  ---------------




---------------    Thu Apr 28 18:05:39 2016  ---------------




---------------    Thu Apr 28 18:05:39 2016  ---------------




---------------    Thu Apr 28 18:05:39 2016  ---------------




---------------    Thu Apr 28 18:05:39 2016  ---------------




---------------  RELOAD CELLS  Thu Apr 28 18:46:29 2016  ---------------




---------------  RELOAD CELLS TMP  Thu Apr 28 18:46:29 2016  ---------------


SW1                             TS033W1-N35F-03                   TS033W1-N35F-03                 
SW2                             TS033W1-N35F-03                   TS033W1-N35F-03                 
SW3                             TS033W1-N35F-03                   TS033W1-N35F-03                 
CON1                            USB_micro_UR1-069AB50-NAZP        USB_micro_UR1-069AB50-NAZP      


---------------    Thu Apr 28 18:46:29 2016  ---------------




---------------    Thu Apr 28 18:46:29 2016  ---------------


