=======================================================================
PADS Professional Layout - Version 116.0.506.1217
=======================================================================

RELOAD CELLS

Job Directory:  C:\pd_repo\pd\_COWBOY\_Mentor\PCB\


Design Units:(mm)

Replace Cell Log:   repCellLog84.txt

Thu Dec 29 13:53:53 2016

Reference Designator            Cell Name                         New Cell Name
===============================================================================


---------------  RELOAD CELLS  Thu Dec 29 13:53:53 2016  ---------------




---------------    Thu Dec 29 13:53:53 2016  ---------------




---------------    Thu Dec 29 14:31:26 2016  ---------------


