
                       Update Local Cell And Padstack DBs
                       ----------------------------------

                      03:23 PM Thursday, December 29, 2016
              Job Name: C:\pd_repo\pd\_COWBOY\_Mentor\PCB\Main.pcb


     Version:  99.01.00

The Local Cell And Padstack DBs have been updated with no errors or warnings.
Please proceed with your component Design.