[2017.04.21 09:23:02] [0000m.00s.031ms] [0] WELCOME
[2017.04.21 09:23:02] [0000m.00s.031ms] [1] iCDB Server ver.2.200, jmoSXI5tfcQi0m1NxN3JKg, build:5060443 created 2016-08-17 14:30:24, sources stamp:jmoSXI5tfcQi0m1NxN3JKg
[2017.04.21 09:23:02] [0000m.00s.031ms] [1] Copyright 2016 Mentor Graphics Corporation.  All Rights Reserved.
[2017.04.21 09:23:02] [0000m.00s.031ms] [1] Base flow version [VX.2]
[2017.04.21 09:23:02] [0000m.00s.031ms] [1] Install Id [1409847], Flow Id [PADS Professional VX.2], Full Flow Name [PADS Professional VX.2], Exact Access Date [2016/05/01]
[2017.04.21 09:23:02] [0000m.00s.031ms] [1] Machine [PC-P50-JT]  User [john.timothy]  PID [11196]
[2017.04.21 09:23:02] [0000m.00s.031ms] [1] Operating system [Microsoft Enterprise Edition, 64-bit (build 9200)]
[2017.04.21 09:23:02] [0000m.00s.031ms] [1] Current working dir [C:\pd_repo\pd\_COWBOY\_Mentor]
[2017.04.21 09:23:02] [0000m.00s.031ms] [1] PATH [C:\MentorGraphics\PADSProVX.2\SDD_HOME\common\win32\bin;C:\MentorGraphics\PADSProVX.2\SDD_HOME\common\win32\lib;C:\MentorGraphics\PADSProVX.2\MGC_HOME.ixn\bin;C:\MentorGraphics\PADSProVX.2\MGC_HOME.ixn\lib;C:\MentorGraphics\PADSProVX.2\SDD_HOME\wv\win32\bin;C:\Program Files (x86)\CSR\BlueSuite 2.5.8\DFU Tools;C:\Program Files (x86)\NVIDIA Corporation\PhysX\Common;C:\WINDOWS\system32;C:\WINDOWS;C:\WINDOWS\System32\Wbem;C:\WINDOWS\System32\WindowsPowerShell\v1.0\;C:\Program Files\TortoiseSVN\bin;C:\Program Files (x86)\Windows Kits\8.1\Windows Performance Toolkit\;C:\Program Files (x86)\Skype\Phone\;C:\Users\john.timothy\AppData\Local\Microsoft\WindowsApps;]
[2017.04.21 09:23:02] [0000m.00s.031ms] [1] SDD_HOME [C:\MentorGraphics\PADSProVX.2\SDD_HOME] on file system [NTFS]
[2017.04.21 09:23:02] [0000m.00s.031ms] [1] SDD_PLATFORM [win32]
[2017.04.21 09:23:02] [0000m.00s.031ms] [1] WDIR [C:\WDIR\PADSProVX.2;C:\MentorGraphics\PADSProVX.2\SDD_HOME\standard;]
[2017.04.21 09:23:02] [0000m.00s.031ms] [1] Local iCDB working dir [C:\WDIR\PADSProVX.2\iCDB] on file system [NTFS]
[2017.04.21 09:23:02] [0000m.00s.031ms] [2] S: Loading config files
[2017.04.21 09:23:02] [0000m.00s.031ms] [1] Config file [C:\pd_repo\pd\_COWBOY\_Mentor\database\cdbsvr\Server.cfg] not found
[2017.04.21 09:23:02] [0000m.00s.031ms] [3] S: Config loaded
[2017.04.21 09:23:02] [0000m.00s.046ms] [0] S: Project path [C:\pd_repo\pd\_COWBOY\_Mentor\database] on file system [NTFS]
[2017.04.21 09:23:02] [0000m.00s.046ms] [0] S: Project file (.prj) path [C:\pd_repo\pd\_COWBOY\_Mentor\LHBT120Main.prj] on file system [NTFS]
[2017.04.21 09:23:02] [0000m.00s.046ms] [1] S: WARNING: Database auto-repair support DISABLED
[2017.04.21 09:23:02] [0000m.00s.046ms] [0] S: Multi-user mode (config)
[2017.04.21 09:23:02] [0000m.00s.046ms] [0] S: Event polling mode autodetection
[2017.04.21 09:23:02] [0000m.00s.046ms] [0] S: Started up automatically by iCDB Client: PC-P50-JT:john.timothy:12468
[2017.04.21 09:23:02] [0000m.00s.046ms] [0] S: Auto close mode
[2017.04.21 09:23:02] [0000m.00s.046ms] [0] S: Database ID [51da-db0e-ed84-b988-ce9a-6781-f9a6-7850-5620-7cad-8c6c-5c6a]
[2017.04.21 09:23:02] [0000m.00s.046ms] [0] PathTranslator: BEGIN dumping
[2017.04.21 09:23:02] [0000m.00s.046ms] [0] PathTranslator: Local -> global path prefix list
[2017.04.21 09:23:02] [0000m.00s.046ms] [0] PathTranslator: [R:\] -> [\\underground.skullcandy.com@SSL\DavWWWRoot\departments\pd\ACE\]
[2017.04.21 09:23:02] [0000m.00s.046ms] [0] PathTranslator: [Z:\] -> [\\izombie\shares\pd\]
[2017.04.21 09:23:02] [0000m.00s.046ms] [0] PathTranslator: Global -> local path prefix list
[2017.04.21 09:23:02] [0000m.00s.046ms] [0] PathTranslator: [\\underground.skullcandy.com@SSL\DavWWWRoot\departments\pd\ACE\] -> [R:\]
[2017.04.21 09:23:02] [0000m.00s.046ms] [0] PathTranslator: [\\izombie\shares\pd\] -> [Z:\]
[2017.04.21 09:23:02] [0000m.00s.046ms] [0] PathTranslator: END dumping
[2017.04.21 09:23:02] [0000m.00s.046ms] [0] S: START
[2017.04.21 09:23:02] [0000m.00s.046ms] [0] S: Server startup lock file created
[2017.04.21 09:23:02] [0000m.00s.046ms] [0] S: Listening for client connections on port [10001]
[2017.04.21 09:23:02] [0000m.00s.046ms] [0] S: Server network ID [PC-P50-JT:10.205.10.242,PC-P50-JT,PC-P50-JT.skullcandy.local:10001]
[2017.04.21 09:23:02] [0000m.00s.046ms] [0] S: Server GUID [834a-316d-1f0c-85ef-6d32-af8b-d32a-f850-3030-5c4e-7c39-b89a]
[2017.04.21 09:23:02] [0000m.00s.046ms] [0] S: Project GUID [51da-db0e-ed84-b988-ce9a-6781-f9a6-7850-5620-7cad-8c6c-5c6a]
[2017.04.21 09:23:02] [0000m.00s.046ms] [0] S: Wrote data to server address file
[2017.04.21 09:23:02] [0000m.00s.046ms] [0] S: Server startup lock file removed
[2017.04.21 09:23:02] [0000m.00s.046ms] [1] ProjectBackupManager: Setting project file (.prj) path: [C:\pd_repo\pd\_COWBOY\_Mentor\LHBT120Main.prj]
[2017.04.21 09:23:02] [0000m.00s.285ms] [0] S: Plugins loaded: [PIM] [ENetGen70] 
[2017.04.21 09:23:02] [0000m.00s.285ms] [0] S: Local disc access time: 26 us
[2017.04.21 09:23:02] [0000m.00s.285ms] [0] S: File server access time: 28 us
[2017.04.21 09:23:02] [0000m.00s.301ms] [0] Single file [C:\pd_repo\pd\_COWBOY\_Mentor\database\icdb.dat] size [526440 (514.1 kB)]
[2017.04.21 09:23:02] [0000m.00s.301ms] [1] Single file [C:\pd_repo\pd\_COWBOY\_Mentor\database\icdb.dat] opened in read-write mode
[2017.04.21 09:23:02] [0000m.00s.301ms] [0] SingleFile: [0000-0000-0000-0000] SFI header version check [1009] [1009]
[2017.04.21 09:23:02] [0000m.00s.301ms] [0] Database GUARD OK: [526440]
[2017.04.21 09:23:02] [0000m.00s.301ms] [0] SingleFile: [0000-0000-0000-0000] SFI header version check [1009] [1009]
[2017.04.21 09:23:02] [0000m.00s.301ms] [0] Database GUARD OK: [526440]
[2017.04.21 09:23:02] [0000m.00s.301ms] [0] SingleFile: [0000-0000-0000-0000] SFI header version check [1009] [1009]
[2017.04.21 09:23:02] [0000m.00s.301ms] [0] Database GUARD OK: [526440]
[2017.04.21 09:23:02] [0000m.00s.301ms] [0] SingleFile: [0000-0000-0000-0000] SFI header version check [1009] [1009]
[2017.04.21 09:23:02] [0000m.00s.301ms] [0] Database GUARD OK: [526440]
[2017.04.21 09:23:02] [0000m.00s.301ms] [0] SingleFile: [0000-0000-0000-0000] SFI header version check [1009] [1009]
[2017.04.21 09:23:02] [0000m.00s.301ms] [0] Database GUARD OK: [526440]
[2017.04.21 09:23:02] [0000m.00s.301ms] [0] SingleFile: [6695-bf3d-64a7-8e43] SFI version check [1009] [1009]
[2017.04.21 09:23:02] [0000m.00s.301ms] [0] SingleFile: [6695-bf3d-64a7-8e43] Database SFI header has been read in [5ms 714us]
[2017.04.21 09:23:02] [0000m.00s.316ms] [0] iCDB Server PI: Server & plugin session [3322]
[2017.04.21 09:23:02] [0000m.00s.316ms] [0] iCDB Server PI: Opening database [C:\pd_repo\pd\_COWBOY\_Mentor\database]
[2017.04.21 09:23:02] [0000m.00s.316ms] [0] iCDB Server PI: Database [C:\pd_repo\pd\_COWBOY\_Mentor\database] opened
[2017.04.21 09:23:03] [0000m.00s.348ms] [0] iCDB Database: Checking existence of constraint definitions
[2017.04.21 09:23:03] [0000m.00s.348ms] [0] iCDB Database: Checking constraint definitions version
[2017.04.21 09:23:03] [0000m.00s.382ms] [1] iCDB Database: Constraint definitions version [ce_ee.cns=7.10.56] up to date
[2017.04.21 09:23:03] [0000m.00s.385ms] [0] iCDB Server PI: Initializing plugins
[2017.04.21 09:23:03] [0000m.00s.385ms] [0] iCDB Server PI: Plugins initialized
[2017.04.21 09:23:03] [0000m.00s.385ms] [0] S: iCDB database loaded
[2017.04.21 09:23:03] [0000m.00s.385ms] [0] S: Starting threads
[2017.04.21 09:23:03] [0000m.00s.385ms] [0] BT: Listening for broadcast messages on port [10000]
[2017.04.21 09:23:03] [0000m.00s.385ms] [1] CMT: There are no clients - waiting [10 seconds]
[2017.04.21 09:23:03] [0000m.00s.385ms] [0] IT: Session [3323] for host [PC-P50-JT] user [john.timothy] with process ID [12468] created
[2017.04.21 09:23:03] [0000m.00s.385ms] [1] SC[3323]: Registered sub-client [DxD] with ID [1] for session ID [3323] host [PC-P50-JT] user [john.timothy] process ID [12468]
[2017.04.21 09:23:03] [0000m.00s.385ms] [0] MWT: WindowProc: WM_NCCREATE
[2017.04.21 09:23:03] [0000m.00s.401ms] [0] IT: iCDB Server Monitor session [1] for host [PC-P50-JT] user [john.timothy] with process ID [2380] created
[2017.04.21 09:23:03] [0000m.00s.401ms] [1] DMT: There are [1] iCDB Server Monitor connected now
[2017.04.21 09:23:03] [0000m.00s.432ms] [1] SC[3323]: Registered sub-client [TransactionRollbackSubClient] with ID [2] for session ID [3323] host [PC-P50-JT] user [john.timothy] process ID [12468]
[2017.04.21 09:23:03] [0000m.00s.448ms] [1] SC[3323]: Registered sub-client [xprob] with ID [3] for session ID [3323] host [PC-P50-JT] user [john.timothy] process ID [12468]
[2017.04.21 09:23:03] [0000m.00s.501ms] [1] CMT: There are [1] clients now: 3323
[2017.04.21 09:23:05] [0000m.02s.386ms] [1] SC[3323]: Registered sub-client [SymbolEditor] with ID [4] for session ID [3323] host [PC-P50-JT] user [john.timothy] process ID [12468]
[2017.04.21 09:23:05] [0000m.02s.386ms] [1] SC[3323]: Registered sub-client [SelectionHolder] with ID [5] for session ID [3323] host [PC-P50-JT] user [john.timothy] process ID [12468]
[2017.04.21 09:23:05] [0000m.02s.419ms] [1] SC[3323]: Registered sub-client [EEVM_EEVM_536432132] with ID [6] for session ID [3323] host [PC-P50-JT] user [john.timothy] process ID [12468]
[2017.04.21 09:23:05] [0000m.02s.419ms] [1] SC[3323]: UnRegistered sub-client [EEVM_EEVM_536432132] with ID [6] for session ID [3323] host [PC-P50-JT] user [john.timothy] process ID [12468]
[2017.04.21 09:23:05] [0000m.02s.419ms] [1] SC[3323]: Registered sub-client [EEVM_EEVM_536432132] with ID [7] for session ID [3323] host [PC-P50-JT] user [john.timothy] process ID [12468]
[2017.04.21 09:23:05] [0000m.02s.434ms] [1] SC[3323]: UnRegistered sub-client [EEVM_EEVM_536432132] with ID [7] for session ID [3323] host [PC-P50-JT] user [john.timothy] process ID [12468]
[2017.04.21 09:23:05] [0000m.02s.434ms] [1] SC[3323]: Registered sub-client [EEVM_EEVM_536434116] with ID [8] for session ID [3323] host [PC-P50-JT] user [john.timothy] process ID [12468]
[2017.04.21 09:23:05] [0000m.02s.434ms] [1] SC[3323]: UnRegistered sub-client [EEVM_EEVM_536434116] with ID [8] for session ID [3323] host [PC-P50-JT] user [john.timothy] process ID [12468]
[2017.04.21 09:23:05] [0000m.02s.434ms] [1] SC[3323]: Registered sub-client [EEVM_EEVM_536434116] with ID [9] for session ID [3323] host [PC-P50-JT] user [john.timothy] process ID [12468]
[2017.04.21 09:23:05] [0000m.02s.466ms] [1] SC[3323]: UnRegistered sub-client [EEVM_EEVM_536434116] with ID [9] for session ID [3323] host [PC-P50-JT] user [john.timothy] process ID [12468]
[2017.04.21 09:23:05] [0000m.02s.586ms] [1] SC[3323]: Registered sub-client [SystemDesignDll] with ID [10] for session ID [3323] host [PC-P50-JT] user [john.timothy] process ID [12468]
[2017.04.21 09:23:05] [0000m.02s.614ms] [1] SC[3323]: UnRegistered sub-client [SystemDesignDll] with ID [10] for session ID [3323] host [PC-P50-JT] user [john.timothy] process ID [12468]
[2017.04.21 09:23:05] [0000m.02s.614ms] [1] SC[3323]: Registered sub-client [SystemDesignDll] with ID [11] for session ID [3323] host [PC-P50-JT] user [john.timothy] process ID [12468]
[2017.04.21 09:23:09] [0000m.06s.354ms] [1] SC[3323]: Registered sub-client [DesignSearcher2] with ID [12] for session ID [3323] host [PC-P50-JT] user [john.timothy] process ID [12468]
[2017.04.21 09:23:09] [0000m.06s.369ms] [1] SC[3323]: Registered sub-client [HdlProject] with ID [13] for session ID [3323] host [PC-P50-JT] user [john.timothy] process ID [12468]
[2017.04.21 09:23:09] [0000m.06s.385ms] [1] SC[3323]: Registered sub-client [Navigator] with ID [14] for session ID [3323] host [PC-P50-JT] user [john.timothy] process ID [12468]
[2017.04.21 09:23:09] [0000m.06s.391ms] [1] SC[3323]: Registered sub-client [OutputWindow] with ID [15] for session ID [3323] host [PC-P50-JT] user [john.timothy] process ID [12468]
[2017.04.21 09:23:09] [0000m.06s.391ms] [1] SC[3323]: Registered sub-client [PlaceDevice] with ID [16] for session ID [3323] host [PC-P50-JT] user [john.timothy] process ID [12468]
[2017.04.21 09:23:09] [0000m.06s.522ms] [1] SC[3323]: Registered sub-client [LocalSymbolsDataProvider] with ID [17] for session ID [3323] host [PC-P50-JT] user [john.timothy] process ID [12468]
[2017.04.21 09:23:09] [0000m.06s.553ms] [1] SC[3323]: Registered sub-client [FFSearch_Controller_0] with ID [18] for session ID [3323] host [PC-P50-JT] user [john.timothy] process ID [12468]
[2017.04.21 09:23:09] [0000m.06s.707ms] [1] SC[3323]: Registered sub-client [FFSearch_Controller_1] with ID [19] for session ID [3323] host [PC-P50-JT] user [john.timothy] process ID [12468]
[2017.04.21 09:23:09] [0000m.06s.869ms] [1] SC[3323]: Registered sub-client [FFSearch_Controller_2] with ID [20] for session ID [3323] host [PC-P50-JT] user [john.timothy] process ID [12468]
[2017.04.21 09:23:09] [0000m.07s.023ms] [1] SC[3323]: Registered sub-client [FFSearch_Controller_3] with ID [21] for session ID [3323] host [PC-P50-JT] user [john.timothy] process ID [12468]
[2017.04.21 09:23:09] [0000m.07s.191ms] [1] SC[3323]: Registered sub-client [FFSearch_Controller_4] with ID [22] for session ID [3323] host [PC-P50-JT] user [john.timothy] process ID [12468]
[2017.04.21 09:23:10] [0000m.07s.370ms] [1] SC[3323]: Registered sub-client [SAE] with ID [23] for session ID [3323] host [PC-P50-JT] user [john.timothy] process ID [12468]
[2017.04.21 09:23:10] [0000m.07s.370ms] [1] SC[3323]: Registered sub-client [CCZAddin] with ID [24] for session ID [3323] host [PC-P50-JT] user [john.timothy] process ID [12468]
[2017.04.21 09:23:10] [0000m.07s.386ms] [1] SC[3323]: Registered sub-client [DxThumbnails] with ID [25] for session ID [3323] host [PC-P50-JT] user [john.timothy] process ID [12468]
[2017.04.21 09:23:10] [0000m.07s.389ms] [1] SC[3323]: Registered sub-client [MyParts] with ID [26] for session ID [3323] host [PC-P50-JT] user [john.timothy] process ID [12468]
[2017.04.21 09:23:10] [0000m.07s.407ms] [1] SC[3323]: Registered sub-client [PinsList] with ID [27] for session ID [3323] host [PC-P50-JT] user [john.timothy] process ID [12468]
[2017.04.21 09:23:10] [0000m.07s.592ms] [1] SC[3323]: Registered sub-client [toolboxes] with ID [28] for session ID [3323] host [PC-P50-JT] user [john.timothy] process ID [12468]
[2017.04.21 09:23:10] [0000m.07s.648ms] [1] SC[3323]: Registered sub-client [ProjectIntegrationIcdbCacheDxD:536596184] with ID [29] for session ID [3323] host [PC-P50-JT] user [john.timothy] process ID [12468]
[2017.04.21 09:23:10] [0000m.07s.792ms] [1] SC[3323]: Registered sub-client [SheetConnectorsCacheDxD:1492788190] with ID [30] for session ID [3323] host [PC-P50-JT] user [john.timothy] process ID [12468]
[2017.04.21 09:23:10] [0000m.07s.808ms] [1] SC[3323]: Registered sub-client [NetsNamesCollectorDxD:1492788190] with ID [31] for session ID [3323] host [PC-P50-JT] user [john.timothy] process ID [12468]
[2017.04.21 09:23:10] [0000m.07s.839ms] [1] SC[3323]: Registered sub-client [PartReplaceUtils] with ID [32] for session ID [3323] host [PC-P50-JT] user [john.timothy] process ID [12468]
[2017.04.21 09:23:11] [0000m.08s.423ms] [1] SC[3323]: Registered sub-client [ObjectHolder_543492288] with ID [33] for session ID [3323] host [PC-P50-JT] user [john.timothy] process ID [12468]
[2017.04.21 09:23:11] [0000m.08s.423ms] [1] SC[3323]: Registered sub-client [BlockCacheDxD:543435928] with ID [34] for session ID [3323] host [PC-P50-JT] user [john.timothy] process ID [12468]
[2017.04.21 09:23:11] [0000m.08s.423ms] [1] SC[3323]: Registered sub-client [GlobalNetAliasUpdater_543493224] with ID [35] for session ID [3323] host [PC-P50-JT] user [john.timothy] process ID [12468]
[2017.04.21 09:23:11] [0000m.08s.439ms] [1] SC[3323]: Registered sub-client [IcdbNetProcessorSubClientDxD:542319176] with ID [36] for session ID [3323] host [PC-P50-JT] user [john.timothy] process ID [12468]
[2017.04.21 09:23:12] [0000m.09s.724ms] [1] SC[3323]: Registered sub-client [DxDbSearch] with ID [37] for session ID [3323] host [PC-P50-JT] user [john.timothy] process ID [12468]
[2017.04.21 09:23:47] [0000m.44s.886ms] [1] SC[3323]: Registered sub-client [Dx2Exp_825223781] with ID [38] for session ID [3323] host [PC-P50-JT] user [john.timothy] process ID [12468]
[2017.04.21 09:23:47] [0000m.44s.886ms] [1] SC[3323]: UnRegistered sub-client [Dx2Exp_825223781] with ID [38] for session ID [3323] host [PC-P50-JT] user [john.timothy] process ID [12468]
[2017.04.21 09:24:00] [0000m.58s.127ms] [0] IT: Session [3324] for host [PC-P50-JT] user [john.timothy] with process ID [13708] created
[2017.04.21 09:24:00] [0000m.58s.127ms] [1] SC[3324]: Registered sub-client [Expedition PE_825236984] with ID [1] for session ID [3324] host [PC-P50-JT] user [john.timothy] process ID [13708]
[2017.04.21 09:24:00] [0000m.58s.181ms] [1] SC[3324]: Registered sub-client [EEVM_EEVM_417648436] with ID [2] for session ID [3324] host [PC-P50-JT] user [john.timothy] process ID [13708]
[2017.04.21 09:24:00] [0000m.58s.196ms] [1] SC[3324]: UnRegistered sub-client [EEVM_EEVM_417648436] with ID [2] for session ID [3324] host [PC-P50-JT] user [john.timothy] process ID [13708]
[2017.04.21 09:24:00] [0000m.58s.196ms] [1] SC[3324]: Registered sub-client [EEVM_EEVM_417648436] with ID [3] for session ID [3324] host [PC-P50-JT] user [john.timothy] process ID [13708]
[2017.04.21 09:24:00] [0000m.58s.212ms] [1] CMT: There are [2] clients now: 3323, 3324
[2017.04.21 09:24:00] [0000m.58s.212ms] [1] SC[3324]: UnRegistered sub-client [EEVM_EEVM_417648436] with ID [3] for session ID [3324] host [PC-P50-JT] user [john.timothy] process ID [13708]
[2017.04.21 09:24:01] [0000m.58s.493ms] [1] SC[3324]: Registered sub-client [JobPrefsDBPI_825237390] with ID [4] for session ID [3324] host [PC-P50-JT] user [john.timothy] process ID [13708]
[2017.04.21 09:24:01] [0000m.58s.493ms] [1] SC[3324]: UnRegistered sub-client [JobPrefsDBPI_825237390] with ID [4] for session ID [3324] host [PC-P50-JT] user [john.timothy] process ID [13708]
[2017.04.21 09:24:05] [0001m.02s.423ms] [1] SC[3324]: Registered sub-client [ExpeditionCrossProber] with ID [5] for session ID [3324] host [PC-P50-JT] user [john.timothy] process ID [13708]
[2017.04.21 09:24:29] [0001m.27s.092ms] [0] DFAMT: File server access time: 59 us
[2017.04.21 11:13:36] [0110m.34s.165ms] [1] SC[3324]: UnRegistered sub-client [ExpeditionCrossProber] with ID [5] for session ID [3324] host [PC-P50-JT] user [john.timothy] process ID [13708]
[2017.04.21 11:13:37] [0110m.34s.697ms] [1] SC[3324]: UnRegistered sub-client [Expedition PE_825236984] with ID [1] for session ID [3324] host [PC-P50-JT] user [john.timothy] process ID [13708]
[2017.04.21 11:13:37] [0110m.34s.811ms] [1] CMT: Removed client [3324]
[2017.04.21 11:13:37] [0110m.34s.811ms] [1] CMT: There are [1] clients now: 3323
[2017.04.21 11:13:38] [0110m.35s.581ms] [1] SC[3323]: UnRegistered sub-client [SystemDesignDll] with ID [11] for session ID [3323] host [PC-P50-JT] user [john.timothy] process ID [12468]
[2017.04.21 11:13:38] [0110m.35s.681ms] [1] SC[3323]: UnRegistered sub-client [DesignSearcher2] with ID [12] for session ID [3323] host [PC-P50-JT] user [john.timothy] process ID [12468]
[2017.04.21 11:13:38] [0110m.35s.759ms] [1] SC[3323]: UnRegistered sub-client [GlobalNetAliasUpdater_543493224] with ID [35] for session ID [3323] host [PC-P50-JT] user [john.timothy] process ID [12468]
[2017.04.21 11:13:38] [0110m.35s.759ms] [1] SC[3323]: UnRegistered sub-client [BlockCacheDxD:543435928] with ID [34] for session ID [3323] host [PC-P50-JT] user [john.timothy] process ID [12468]
[2017.04.21 11:13:38] [0110m.35s.759ms] [1] SC[3323]: UnRegistered sub-client [ObjectHolder_543492288] with ID [33] for session ID [3323] host [PC-P50-JT] user [john.timothy] process ID [12468]
[2017.04.21 11:13:38] [0110m.35s.759ms] [1] SC[3323]: UnRegistered sub-client [IcdbNetProcessorSubClientDxD:542319176] with ID [36] for session ID [3323] host [PC-P50-JT] user [john.timothy] process ID [12468]
[2017.04.21 11:13:38] [0110m.35s.834ms] [1] SC[3323]: UnRegistered sub-client [Navigator] with ID [14] for session ID [3323] host [PC-P50-JT] user [john.timothy] process ID [12468]
[2017.04.21 11:13:38] [0110m.35s.834ms] [1] SC[3323]: UnRegistered sub-client [LocalSymbolsDataProvider] with ID [17] for session ID [3323] host [PC-P50-JT] user [john.timothy] process ID [12468]
[2017.04.21 11:13:38] [0110m.35s.834ms] [1] SC[3323]: UnRegistered sub-client [FFSearch_Controller_0] with ID [18] for session ID [3323] host [PC-P50-JT] user [john.timothy] process ID [12468]
[2017.04.21 11:13:38] [0110m.35s.850ms] [1] SC[3323]: UnRegistered sub-client [FFSearch_Controller_1] with ID [19] for session ID [3323] host [PC-P50-JT] user [john.timothy] process ID [12468]
[2017.04.21 11:13:38] [0110m.35s.850ms] [1] SC[3323]: UnRegistered sub-client [FFSearch_Controller_2] with ID [20] for session ID [3323] host [PC-P50-JT] user [john.timothy] process ID [12468]
[2017.04.21 11:13:38] [0110m.35s.850ms] [1] SC[3323]: UnRegistered sub-client [FFSearch_Controller_3] with ID [21] for session ID [3323] host [PC-P50-JT] user [john.timothy] process ID [12468]
[2017.04.21 11:13:38] [0110m.35s.850ms] [1] SC[3323]: UnRegistered sub-client [FFSearch_Controller_4] with ID [22] for session ID [3323] host [PC-P50-JT] user [john.timothy] process ID [12468]
[2017.04.21 11:13:39] [0110m.36s.498ms] [1] SC[3323]: UnRegistered sub-client [MyParts] with ID [26] for session ID [3323] host [PC-P50-JT] user [john.timothy] process ID [12468]
[2017.04.21 11:13:39] [0110m.36s.498ms] [1] SC[3323]: UnRegistered sub-client [toolboxes] with ID [28] for session ID [3323] host [PC-P50-JT] user [john.timothy] process ID [12468]
[2017.04.21 11:13:40] [0110m.37s.468ms] [1] SC[3323]: UnRegistered sub-client [SelectionHolder] with ID [5] for session ID [3323] host [PC-P50-JT] user [john.timothy] process ID [12468]
[2017.04.21 11:13:40] [0110m.37s.468ms] [1] SC[3323]: UnRegistered sub-client [PartReplaceUtils] with ID [32] for session ID [3323] host [PC-P50-JT] user [john.timothy] process ID [12468]
[2017.04.21 11:13:41] [0110m.38s.916ms] [1] SC[3323]: UnRegistered sub-client [ProjectIntegrationIcdbCacheDxD:536596184] with ID [29] for session ID [3323] host [PC-P50-JT] user [john.timothy] process ID [12468]
[2017.04.21 11:13:41] [0110m.38s.917ms] [1] SC[3323]: UnRegistered sub-client [SheetConnectorsCacheDxD:1492788190] with ID [30] for session ID [3323] host [PC-P50-JT] user [john.timothy] process ID [12468]
[2017.04.21 11:13:41] [0110m.38s.917ms] [1] SC[3323]: UnRegistered sub-client [NetsNamesCollectorDxD:1492788190] with ID [31] for session ID [3323] host [PC-P50-JT] user [john.timothy] process ID [12468]
[2017.04.21 11:13:41] [0110m.38s.918ms] [1] SC[3323]: UnRegistered sub-client [TransactionRollbackSubClient] with ID [2] for session ID [3323] host [PC-P50-JT] user [john.timothy] process ID [12468]
[2017.04.21 11:13:41] [0110m.38s.918ms] [1] SC[3323]: UnRegistered sub-client [DxD] with ID [1] for session ID [3323] host [PC-P50-JT] user [john.timothy] process ID [12468]
[2017.04.21 11:13:41] [0110m.38s.922ms] [1] SC[3323]: UnRegistered sub-client [xprob] with ID [3] for session ID [3323] host [PC-P50-JT] user [john.timothy] process ID [12468]
[2017.04.21 11:13:41] [0110m.38s.922ms] [1] SC[3323]: UnRegistered sub-client [SymbolEditor] with ID [4] for session ID [3323] host [PC-P50-JT] user [john.timothy] process ID [12468]
[2017.04.21 11:13:41] [0110m.38s.937ms] [1] SC[3323]: UnRegistered sub-client [OutputWindow] with ID [15] for session ID [3323] host [PC-P50-JT] user [john.timothy] process ID [12468]
[2017.04.21 11:13:41] [0110m.38s.937ms] [1] SC[3323]: UnRegistered sub-client [DxDbSearch] with ID [37] for session ID [3323] host [PC-P50-JT] user [john.timothy] process ID [12468]
[2017.04.21 11:13:41] [0110m.38s.984ms] [1] SC[3323]: UnRegistered sub-client [SAE] with ID [23] for session ID [3323] host [PC-P50-JT] user [john.timothy] process ID [12468]
[2017.04.21 11:13:41] [0110m.39s.000ms] [1] SC[3323]: UnRegistered sub-client [CCZAddin] with ID [24] for session ID [3323] host [PC-P50-JT] user [john.timothy] process ID [12468]
[2017.04.21 11:13:41] [0110m.39s.000ms] [1] SC[3323]: UnRegistered sub-client [DxThumbnails] with ID [25] for session ID [3323] host [PC-P50-JT] user [john.timothy] process ID [12468]
[2017.04.21 11:13:43] [0110m.40s.586ms] [1] SC[3323]: UnRegistered sub-client [PinsList] with ID [27] for session ID [3323] host [PC-P50-JT] user [john.timothy] process ID [12468]
[2017.04.21 11:13:43] [0110m.40s.624ms] [1] SC[3323]: UnRegistered sub-client [PlaceDevice] with ID [16] for session ID [3323] host [PC-P50-JT] user [john.timothy] process ID [12468]
[2017.04.21 11:13:43] [0110m.40s.655ms] [1] SC[3323]: UnRegistered sub-client [HdlProject] with ID [13] for session ID [3323] host [PC-P50-JT] user [john.timothy] process ID [12468]
[2017.04.21 11:13:43] [0110m.40s.771ms] [1] CMT: Removed client [3323]
[2017.04.21 11:13:43] [0110m.40s.771ms] [1] CMT: There are no clients left - waiting [1 seconds]
[2017.04.21 11:13:43] [0110m.40s.940ms] [1] SDL: The last connected iCDB Server Monitor [1] is waiting for server close
[2017.04.21 11:13:45] [0110m.42s.374ms] [0] CMT: Starting server auto-close
[2017.04.21 11:13:45] [0110m.42s.405ms] [0] S: Closing server
[2017.04.21 11:13:45] [0110m.42s.526ms] [0] iCDB Server PI: Closing plugins
[2017.04.21 11:13:45] [0110m.42s.526ms] [0] iCDB Server PI: Plugins closed
[2017.04.21 11:13:45] [0110m.42s.527ms] [0] iCDB Server PI: Unloading database
[2017.04.21 11:13:45] [0110m.42s.527ms] [0] iCDB Server PI: Saving storage
[2017.04.21 11:13:45] [0110m.42s.527ms] [0] iCDB Server PI: Closing database
[2017.04.21 11:13:45] [0110m.42s.527ms] [1] Hole: zero line at 526396 of size 16 bytes.
[2017.04.21 11:13:45] [0110m.42s.527ms] [1] iCDB Server PI: Stats: Database defragmentation: max[1] avg[1] holes[12%] data[97%]
[2017.04.21 11:13:45] [0110m.42s.527ms] [1] iCDB Server PI: Stats: Database file size [526440 (514.1 kB)]
[2017.04.21 11:13:45] [0110m.42s.527ms] [1] Hole: zero line at 526396 of size 16 bytes.
[2017.04.21 11:13:45] [0110m.42s.543ms] [0] iCDB Server PI: Database closed
[2017.04.21 11:13:45] [0110m.42s.543ms] [1] iCDB Server PI: Stats: Total iCDB execution time: [17204] ticks
[2017.04.21 11:13:45] [0110m.42s.543ms] [1] iCDB Server PI: Stats: Total iCDB execution time: [6273] microseconds
[2017.04.21 11:13:45] [0110m.42s.543ms] [1] iCDB Server PI: Stats: Total iCDB commands count: [14]
[2017.04.21 11:13:45] [0110m.42s.543ms] [1] iCDB Server PI: Stats: Average iCDB speed:        [2231] commands per second
[2017.04.21 11:13:45] [0110m.42s.558ms] [0] Single file [C:\pd_repo\pd\_COWBOY\_Mentor\database\icdb.dat] closed with size [526440 (514.1 kB)]
[2017.04.21 11:13:45] [0110m.42s.574ms] [1] SD[1]: Removing the last connected iCDB Server Monitor [1]
[2017.04.21 11:13:45] [0110m.42s.723ms] [0] MWT: Destroy the shutdown block reason.
[2017.04.21 11:13:45] [0110m.42s.727ms] [0] MWT: STOP
[2017.04.21 11:13:45] [0110m.42s.727ms] [0] S: STOP
