[2017.03.13 16:53:16] [0000m.00s.031ms] [0] WELCOME
[2017.03.13 16:53:16] [0000m.00s.031ms] [1] iCDB Server ver.2.200, jmoSXI5tfcQi0m1NxN3JKg, build:5060443 created 2016-08-17 14:30:24, sources stamp:jmoSXI5tfcQi0m1NxN3JKg
[2017.03.13 16:53:16] [0000m.00s.031ms] [1] Copyright 2016 Mentor Graphics Corporation.  All Rights Reserved.
[2017.03.13 16:53:16] [0000m.00s.031ms] [1] Base flow version [VX.2]
[2017.03.13 16:53:16] [0000m.00s.031ms] [1] Install Id [1409847], Flow Id [PADS Professional VX.2], Full Flow Name [PADS Professional VX.2], Exact Access Date [2016/05/01]
[2017.03.13 16:53:16] [0000m.00s.031ms] [1] Machine [PC-P50-JT]  User [john.timothy]  PID [9108]
[2017.03.13 16:53:16] [0000m.00s.031ms] [1] Operating system [Microsoft Enterprise Edition, 64-bit (build 9200)]
[2017.03.13 16:53:16] [0000m.00s.031ms] [1] Current working dir [C:\pd_repo\pd\_COWBOY\_Mentor]
[2017.03.13 16:53:16] [0000m.00s.031ms] [1] PATH [C:\MentorGraphics\PADSProVX.2\SDD_HOME\common\win32\bin;C:\MentorGraphics\PADSProVX.2\SDD_HOME\common\win32\lib;C:\MentorGraphics\PADSProVX.2\MGC_HOME.ixn\bin;C:\MentorGraphics\PADSProVX.2\MGC_HOME.ixn\lib;C:\MentorGraphics\PADSProVX.2\SDD_HOME\wv\win32\bin;C:\Program Files (x86)\CSR\BlueSuite 2.5.8\DFU Tools;C:\Program Files (x86)\NVIDIA Corporation\PhysX\Common;C:\WINDOWS\system32;C:\WINDOWS;C:\WINDOWS\System32\Wbem;C:\WINDOWS\System32\WindowsPowerShell\v1.0\;C:\Program Files (x86)\Skype\Phone\;C:\Program Files\TortoiseSVN\bin;C:\Program Files (x86)\Windows Kits\8.1\Windows Performance Toolkit\;C:\Users\john.timothy\AppData\Local\Microsoft\WindowsApps;]
[2017.03.13 16:53:16] [0000m.00s.031ms] [1] SDD_HOME [C:\MentorGraphics\PADSProVX.2\SDD_HOME] on file system [NTFS]
[2017.03.13 16:53:16] [0000m.00s.031ms] [1] SDD_PLATFORM [win32]
[2017.03.13 16:53:16] [0000m.00s.031ms] [1] WDIR [C:\WDIR\PADSProVX.2;C:\MentorGraphics\PADSProVX.2\SDD_HOME\standard;]
[2017.03.13 16:53:16] [0000m.00s.031ms] [1] Local iCDB working dir [C:\WDIR\PADSProVX.2\iCDB] on file system [NTFS]
[2017.03.13 16:53:16] [0000m.00s.031ms] [2] S: Loading config files
[2017.03.13 16:53:16] [0000m.00s.052ms] [1] Config file [C:\pd_repo\pd\_COWBOY\_Mentor\database\cdbsvr\Server.cfg] not found
[2017.03.13 16:53:16] [0000m.00s.052ms] [3] S: Config loaded
[2017.03.13 16:53:16] [0000m.00s.052ms] [0] S: Project path [C:\pd_repo\pd\_COWBOY\_Mentor\database] on file system [NTFS]
[2017.03.13 16:53:16] [0000m.00s.052ms] [0] S: Project file (.prj) path [C:\pd_repo\pd\_COWBOY\_Mentor\LHBT120Main.prj] on file system [NTFS]
[2017.03.13 16:53:16] [0000m.00s.052ms] [1] S: WARNING: Database auto-repair support DISABLED
[2017.03.13 16:53:16] [0000m.00s.052ms] [0] S: Multi-user mode (config)
[2017.03.13 16:53:16] [0000m.00s.052ms] [0] S: Event polling mode autodetection
[2017.03.13 16:53:16] [0000m.00s.052ms] [0] S: Started up automatically by iCDB Client: PC-P50-JT:john.timothy:2884
[2017.03.13 16:53:16] [0000m.00s.052ms] [0] S: Auto close mode
[2017.03.13 16:53:16] [0000m.00s.052ms] [0] S: Database ID [51da-db0e-ed84-b988-ce9a-6781-f9a6-7850-5620-7cad-8c6c-5c6a]
[2017.03.13 16:53:16] [0000m.00s.052ms] [0] PathTranslator: BEGIN dumping
[2017.03.13 16:53:16] [0000m.00s.052ms] [0] PathTranslator: Local -> global path prefix list
[2017.03.13 16:53:16] [0000m.00s.068ms] [0] PathTranslator: [R:\] -> [\\underground.skullcandy.com@SSL\DavWWWRoot\departments\pd\ACE\]
[2017.03.13 16:53:16] [0000m.00s.068ms] [0] PathTranslator: [Z:\] -> [\\izombie\shares\pd\]
[2017.03.13 16:53:16] [0000m.00s.068ms] [0] PathTranslator: Global -> local path prefix list
[2017.03.13 16:53:16] [0000m.00s.068ms] [0] PathTranslator: [\\underground.skullcandy.com@SSL\DavWWWRoot\departments\pd\ACE\] -> [R:\]
[2017.03.13 16:53:16] [0000m.00s.068ms] [0] PathTranslator: [\\izombie\shares\pd\] -> [Z:\]
[2017.03.13 16:53:16] [0000m.00s.068ms] [0] PathTranslator: END dumping
[2017.03.13 16:53:16] [0000m.00s.068ms] [0] S: START
[2017.03.13 16:53:16] [0000m.00s.068ms] [0] S: Server startup lock file created
[2017.03.13 16:53:16] [0000m.00s.068ms] [0] S: Listening for client connections on port [10001]
[2017.03.13 16:53:16] [0000m.00s.068ms] [0] S: Server network ID [PC-P50-JT:192.168.201.248,PC-P50-JT,PC-P50-JT.skullcandy.local:10001]
[2017.03.13 16:53:16] [0000m.00s.068ms] [0] S: Server GUID [71c4-f559-b9d0-f3c2-cd22-7c81-e227-c850-9810-8cad-8c8c-dc6a]
[2017.03.13 16:53:16] [0000m.00s.068ms] [0] S: Project GUID [51da-db0e-ed84-b988-ce9a-6781-f9a6-7850-5620-7cad-8c6c-5c6a]
[2017.03.13 16:53:16] [0000m.00s.068ms] [0] S: Wrote data to server address file
[2017.03.13 16:53:16] [0000m.00s.068ms] [0] S: Server startup lock file removed
[2017.03.13 16:53:16] [0000m.00s.068ms] [1] ProjectBackupManager: Setting project file (.prj) path: [C:\pd_repo\pd\_COWBOY\_Mentor\LHBT120Main.prj]
[2017.03.13 16:53:17] [0000m.00s.352ms] [0] S: Plugins loaded: [PIM] [ENetGen70] 
[2017.03.13 16:53:17] [0000m.00s.352ms] [0] S: Local disc access time: 33 us
[2017.03.13 16:53:17] [0000m.00s.352ms] [0] S: File server access time: 35 us
[2017.03.13 16:53:17] [0000m.00s.369ms] [0] Single file [C:\pd_repo\pd\_COWBOY\_Mentor\database\icdb.dat] size [378352 (369.5 kB)]
[2017.03.13 16:53:17] [0000m.00s.369ms] [1] Single file [C:\pd_repo\pd\_COWBOY\_Mentor\database\icdb.dat] opened in read-write mode
[2017.03.13 16:53:17] [0000m.00s.369ms] [0] SingleFile: [0000-0000-0000-0000] SFI header version check [1009] [1009]
[2017.03.13 16:53:17] [0000m.00s.369ms] [0] Database GUARD OK: [378352]
[2017.03.13 16:53:17] [0000m.00s.369ms] [0] SingleFile: [0000-0000-0000-0000] SFI header version check [1009] [1009]
[2017.03.13 16:53:17] [0000m.00s.369ms] [0] Database GUARD OK: [378352]
[2017.03.13 16:53:17] [0000m.00s.369ms] [0] SingleFile: [0000-0000-0000-0000] SFI header version check [1009] [1009]
[2017.03.13 16:53:17] [0000m.00s.369ms] [0] Database GUARD OK: [378352]
[2017.03.13 16:53:17] [0000m.00s.369ms] [0] SingleFile: [0000-0000-0000-0000] SFI header version check [1009] [1009]
[2017.03.13 16:53:17] [0000m.00s.369ms] [0] Database GUARD OK: [378352]
[2017.03.13 16:53:17] [0000m.00s.384ms] [0] SingleFile: [0000-0000-0000-0000] SFI header version check [1009] [1009]
[2017.03.13 16:53:17] [0000m.00s.384ms] [0] Database GUARD OK: [378352]
[2017.03.13 16:53:17] [0000m.00s.384ms] [0] SingleFile: [6695-bf3d-64a7-8e43] SFI version check [1009] [1009]
[2017.03.13 16:53:17] [0000m.00s.384ms] [0] SingleFile: [6695-bf3d-64a7-8e43] Database SFI header has been read in [5ms 990us]
[2017.03.13 16:53:17] [0000m.00s.384ms] [0] iCDB Server PI: Server & plugin session [3089]
[2017.03.13 16:53:17] [0000m.00s.384ms] [0] iCDB Server PI: Opening database [C:\pd_repo\pd\_COWBOY\_Mentor\database]
[2017.03.13 16:53:17] [0000m.00s.384ms] [0] iCDB Server PI: Database [C:\pd_repo\pd\_COWBOY\_Mentor\database] opened
[2017.03.13 16:53:17] [0000m.00s.431ms] [0] iCDB Database: Checking existence of constraint definitions
[2017.03.13 16:53:17] [0000m.00s.431ms] [0] iCDB Database: Checking constraint definitions version
[2017.03.13 16:53:17] [0000m.00s.469ms] [1] iCDB Database: Constraint definitions version [ce_ee.cns=7.10.56] up to date
[2017.03.13 16:53:17] [0000m.00s.484ms] [0] iCDB Server PI: Initializing plugins
[2017.03.13 16:53:17] [0000m.00s.484ms] [0] iCDB Server PI: Plugins initialized
[2017.03.13 16:53:17] [0000m.00s.484ms] [0] S: iCDB database loaded
[2017.03.13 16:53:17] [0000m.00s.484ms] [0] S: Starting threads
[2017.03.13 16:53:17] [0000m.00s.484ms] [0] BT: Listening for broadcast messages on port [10000]
[2017.03.13 16:53:17] [0000m.00s.484ms] [1] CMT: There are no clients - waiting [10 seconds]
[2017.03.13 16:53:17] [0000m.00s.484ms] [0] IT: Session [3090] for host [PC-P50-JT] user [john.timothy] with process ID [2884] created
[2017.03.13 16:53:17] [0000m.00s.484ms] [0] MWT: WindowProc: WM_NCCREATE
[2017.03.13 16:53:17] [0000m.00s.484ms] [1] SC[3090]: Registered sub-client [DxD] with ID [1] for session ID [3090] host [PC-P50-JT] user [john.timothy] process ID [2884]
[2017.03.13 16:53:17] [0000m.00s.500ms] [0] IT: iCDB Server Monitor session [1] for host [PC-P50-JT] user [john.timothy] with process ID [7216] created
[2017.03.13 16:53:17] [0000m.00s.500ms] [1] DMT: There are [1] iCDB Server Monitor connected now
[2017.03.13 16:53:17] [0000m.00s.553ms] [1] SC[3090]: Registered sub-client [TransactionRollbackSubClient] with ID [2] for session ID [3090] host [PC-P50-JT] user [john.timothy] process ID [2884]
[2017.03.13 16:53:17] [0000m.00s.553ms] [1] SC[3090]: Registered sub-client [xprob] with ID [3] for session ID [3090] host [PC-P50-JT] user [john.timothy] process ID [2884]
[2017.03.13 16:53:17] [0000m.00s.600ms] [1] CMT: There are [1] clients now: 3090
[2017.03.13 16:53:19] [0000m.02s.387ms] [1] SC[3090]: Registered sub-client [SymbolEditor] with ID [4] for session ID [3090] host [PC-P50-JT] user [john.timothy] process ID [2884]
[2017.03.13 16:53:19] [0000m.02s.387ms] [1] SC[3090]: Registered sub-client [SelectionHolder] with ID [5] for session ID [3090] host [PC-P50-JT] user [john.timothy] process ID [2884]
[2017.03.13 16:53:19] [0000m.02s.402ms] [1] SC[3090]: Registered sub-client [EEVM_EEVM_443740876] with ID [6] for session ID [3090] host [PC-P50-JT] user [john.timothy] process ID [2884]
[2017.03.13 16:53:19] [0000m.02s.402ms] [1] SC[3090]: UnRegistered sub-client [EEVM_EEVM_443740876] with ID [6] for session ID [3090] host [PC-P50-JT] user [john.timothy] process ID [2884]
[2017.03.13 16:53:19] [0000m.02s.418ms] [1] SC[3090]: Registered sub-client [EEVM_EEVM_443740876] with ID [7] for session ID [3090] host [PC-P50-JT] user [john.timothy] process ID [2884]
[2017.03.13 16:53:19] [0000m.02s.434ms] [1] SC[3090]: UnRegistered sub-client [EEVM_EEVM_443740876] with ID [7] for session ID [3090] host [PC-P50-JT] user [john.timothy] process ID [2884]
[2017.03.13 16:53:19] [0000m.02s.434ms] [1] SC[3090]: Registered sub-client [EEVM_EEVM_443739388] with ID [8] for session ID [3090] host [PC-P50-JT] user [john.timothy] process ID [2884]
[2017.03.13 16:53:19] [0000m.02s.434ms] [1] SC[3090]: UnRegistered sub-client [EEVM_EEVM_443739388] with ID [8] for session ID [3090] host [PC-P50-JT] user [john.timothy] process ID [2884]
[2017.03.13 16:53:19] [0000m.02s.434ms] [1] SC[3090]: Registered sub-client [EEVM_EEVM_443739388] with ID [9] for session ID [3090] host [PC-P50-JT] user [john.timothy] process ID [2884]
[2017.03.13 16:53:19] [0000m.02s.455ms] [1] SC[3090]: UnRegistered sub-client [EEVM_EEVM_443739388] with ID [9] for session ID [3090] host [PC-P50-JT] user [john.timothy] process ID [2884]
[2017.03.13 16:53:19] [0000m.02s.753ms] [1] SC[3090]: Registered sub-client [SystemDesignDll] with ID [10] for session ID [3090] host [PC-P50-JT] user [john.timothy] process ID [2884]
[2017.03.13 16:53:19] [0000m.02s.771ms] [1] SC[3090]: UnRegistered sub-client [SystemDesignDll] with ID [10] for session ID [3090] host [PC-P50-JT] user [john.timothy] process ID [2884]
[2017.03.13 16:53:19] [0000m.02s.787ms] [1] SC[3090]: Registered sub-client [SystemDesignDll] with ID [11] for session ID [3090] host [PC-P50-JT] user [john.timothy] process ID [2884]
[2017.03.13 16:53:22] [0000m.05s.690ms] [1] SC[3090]: Registered sub-client [DesignSearcher2] with ID [12] for session ID [3090] host [PC-P50-JT] user [john.timothy] process ID [2884]
[2017.03.13 16:53:22] [0000m.05s.706ms] [1] SC[3090]: Registered sub-client [HdlProject] with ID [13] for session ID [3090] host [PC-P50-JT] user [john.timothy] process ID [2884]
[2017.03.13 16:53:22] [0000m.05s.706ms] [1] SC[3090]: Registered sub-client [Navigator] with ID [14] for session ID [3090] host [PC-P50-JT] user [john.timothy] process ID [2884]
[2017.03.13 16:53:22] [0000m.05s.721ms] [1] SC[3090]: Registered sub-client [OutputWindow] with ID [15] for session ID [3090] host [PC-P50-JT] user [john.timothy] process ID [2884]
[2017.03.13 16:53:22] [0000m.05s.721ms] [1] SC[3090]: Registered sub-client [PlaceDevice] with ID [16] for session ID [3090] host [PC-P50-JT] user [john.timothy] process ID [2884]
[2017.03.13 16:53:22] [0000m.05s.875ms] [1] SC[3090]: Registered sub-client [LocalSymbolsDataProvider] with ID [17] for session ID [3090] host [PC-P50-JT] user [john.timothy] process ID [2884]
[2017.03.13 16:53:22] [0000m.05s.891ms] [1] SC[3090]: Registered sub-client [FFSearch_Controller_0] with ID [18] for session ID [3090] host [PC-P50-JT] user [john.timothy] process ID [2884]
[2017.03.13 16:53:22] [0000m.05s.991ms] [1] SC[3090]: Registered sub-client [FFSearch_Controller_1] with ID [19] for session ID [3090] host [PC-P50-JT] user [john.timothy] process ID [2884]
[2017.03.13 16:53:22] [0000m.06s.075ms] [1] SC[3090]: Registered sub-client [FFSearch_Controller_2] with ID [20] for session ID [3090] host [PC-P50-JT] user [john.timothy] process ID [2884]
[2017.03.13 16:53:22] [0000m.06s.160ms] [1] SC[3090]: Registered sub-client [FFSearch_Controller_3] with ID [21] for session ID [3090] host [PC-P50-JT] user [john.timothy] process ID [2884]
[2017.03.13 16:53:23] [0000m.06s.260ms] [1] SC[3090]: Registered sub-client [FFSearch_Controller_4] with ID [22] for session ID [3090] host [PC-P50-JT] user [john.timothy] process ID [2884]
[2017.03.13 16:53:23] [0000m.06s.360ms] [1] SC[3090]: Registered sub-client [SAE] with ID [23] for session ID [3090] host [PC-P50-JT] user [john.timothy] process ID [2884]
[2017.03.13 16:53:23] [0000m.06s.360ms] [1] SC[3090]: Registered sub-client [CCZAddin] with ID [24] for session ID [3090] host [PC-P50-JT] user [john.timothy] process ID [2884]
[2017.03.13 16:53:23] [0000m.06s.360ms] [1] SC[3090]: Registered sub-client [DxThumbnails] with ID [25] for session ID [3090] host [PC-P50-JT] user [john.timothy] process ID [2884]
[2017.03.13 16:53:23] [0000m.06s.360ms] [1] SC[3090]: Registered sub-client [MyParts] with ID [26] for session ID [3090] host [PC-P50-JT] user [john.timothy] process ID [2884]
[2017.03.13 16:53:23] [0000m.06s.391ms] [1] SC[3090]: Registered sub-client [PinsList] with ID [27] for session ID [3090] host [PC-P50-JT] user [john.timothy] process ID [2884]
[2017.03.13 16:53:23] [0000m.06s.556ms] [1] SC[3090]: Registered sub-client [toolboxes] with ID [28] for session ID [3090] host [PC-P50-JT] user [john.timothy] process ID [2884]
[2017.03.13 16:53:23] [0000m.06s.591ms] [1] SC[3090]: Registered sub-client [ProjectIntegrationIcdbCacheDxD:570501288] with ID [29] for session ID [3090] host [PC-P50-JT] user [john.timothy] process ID [2884]
[2017.03.13 16:53:23] [0000m.06s.676ms] [1] SC[3090]: Registered sub-client [SheetConnectorsCacheDxD:1489445603] with ID [30] for session ID [3090] host [PC-P50-JT] user [john.timothy] process ID [2884]
[2017.03.13 16:53:23] [0000m.06s.691ms] [1] SC[3090]: Registered sub-client [NetsNamesCollectorDxD:1489445603] with ID [31] for session ID [3090] host [PC-P50-JT] user [john.timothy] process ID [2884]
[2017.03.13 16:53:23] [0000m.06s.723ms] [1] SC[3090]: Registered sub-client [PartReplaceUtils] with ID [32] for session ID [3090] host [PC-P50-JT] user [john.timothy] process ID [2884]
[2017.03.13 16:53:25] [0000m.08s.338ms] [1] SC[3090]: Registered sub-client [ObjectHolder_575189632] with ID [33] for session ID [3090] host [PC-P50-JT] user [john.timothy] process ID [2884]
[2017.03.13 16:53:25] [0000m.08s.338ms] [1] SC[3090]: Registered sub-client [BlockCacheDxD:576193592] with ID [34] for session ID [3090] host [PC-P50-JT] user [john.timothy] process ID [2884]
[2017.03.13 16:53:25] [0000m.08s.338ms] [1] SC[3090]: Registered sub-client [GlobalNetAliasUpdater_575190360] with ID [35] for session ID [3090] host [PC-P50-JT] user [john.timothy] process ID [2884]
[2017.03.13 16:53:25] [0000m.08s.338ms] [1] SC[3090]: Registered sub-client [IcdbNetProcessorSubClientDxD:574016352] with ID [36] for session ID [3090] host [PC-P50-JT] user [john.timothy] process ID [2884]
[2017.03.13 16:53:27] [0000m.10s.692ms] [1] SC[3090]: Registered sub-client [DxDbSearch] with ID [37] for session ID [3090] host [PC-P50-JT] user [john.timothy] process ID [2884]
[2017.03.13 16:55:11] [0001m.54s.850ms] [0] DFAMT: File server access time: 80 us
[2017.03.13 16:55:28] [0002m.12s.007ms] [1] SC[3090]: Registered sub-client [Dx2Exp_510016406] with ID [38] for session ID [3090] host [PC-P50-JT] user [john.timothy] process ID [2884]
[2017.03.13 16:55:28] [0002m.12s.007ms] [1] SC[3090]: UnRegistered sub-client [Dx2Exp_510016406] with ID [38] for session ID [3090] host [PC-P50-JT] user [john.timothy] process ID [2884]
[2017.03.13 16:55:40] [0002m.23s.625ms] [0] IT: Session [3091] for host [PC-P50-JT] user [john.timothy] with process ID [4704] created
[2017.03.13 16:55:40] [0002m.23s.625ms] [1] SC[3091]: Registered sub-client [Expedition PE_510028000] with ID [1] for session ID [3091] host [PC-P50-JT] user [john.timothy] process ID [4704]
[2017.03.13 16:55:40] [0002m.23s.671ms] [1] SC[3091]: Registered sub-client [EEVM_EEVM_442005444] with ID [2] for session ID [3091] host [PC-P50-JT] user [john.timothy] process ID [4704]
[2017.03.13 16:55:40] [0002m.23s.706ms] [1] SC[3091]: UnRegistered sub-client [EEVM_EEVM_442005444] with ID [2] for session ID [3091] host [PC-P50-JT] user [john.timothy] process ID [4704]
[2017.03.13 16:55:40] [0002m.23s.709ms] [1] SC[3091]: Registered sub-client [EEVM_EEVM_442005444] with ID [3] for session ID [3091] host [PC-P50-JT] user [john.timothy] process ID [4704]
[2017.03.13 16:55:40] [0002m.23s.709ms] [1] SC[3091]: UnRegistered sub-client [EEVM_EEVM_442005444] with ID [3] for session ID [3091] host [PC-P50-JT] user [john.timothy] process ID [4704]
[2017.03.13 16:55:40] [0002m.23s.740ms] [1] CMT: There are [2] clients now: 3090, 3091
[2017.03.13 16:55:40] [0002m.23s.956ms] [1] SC[3091]: Registered sub-client [JobPrefsDBPI_510028343] with ID [4] for session ID [3091] host [PC-P50-JT] user [john.timothy] process ID [4704]
[2017.03.13 16:55:40] [0002m.23s.956ms] [1] SC[3091]: UnRegistered sub-client [JobPrefsDBPI_510028343] with ID [4] for session ID [3091] host [PC-P50-JT] user [john.timothy] process ID [4704]
[2017.03.13 16:55:44] [0002m.27s.771ms] [1] SC[3091]: Registered sub-client [ExpeditionCrossProber] with ID [5] for session ID [3091] host [PC-P50-JT] user [john.timothy] process ID [4704]
[2017.03.13 16:55:53] [0002m.37s.019ms] [1] PrjBackupMgr: Successfully created Project Backup [C:\pd_repo\pd\_COWBOY\_Mentor\ProjectBackup\backups\2017-03-13 16.55.52 - auto.zip] with GUID [cf27-77e8-81c4-b7f7-8732-7c8d-7327-c850-9f0f-7cad-8c8c-dc6a]
[2017.03.13 16:55:53] [0002m.37s.019ms] [0] PrjBackupMgr: Removing excessive backup:  BackupGUID[8513-259f-f025-689f-6be9-0c8b-be90-c850-1b11-7cad-7c4c-8c6a] CreationTime[Thursday, March 09, 2017 00:15:50] Type[Autosave] Creator[iCDB Server (2017-03-08 13.02.50-12044)] ApplicationName[iCDB Server (2017-03-08 13.02.50-12044)] UserName[john.timothy] MachineName[PC-P50-JT] Description[Autosave] FullFlowName[PADS Professional VX.2] FlowId[PADSProVX.2] GBSInstallId[1409847] GBSBuildId[5060443] IcdbVersion[3100] ReferenceLogFilePath[] BackupFilePath[C:\pd_repo\pd\_COWBOY\_Mentor\ProjectBackup\backups\2017-03-08 17.15.50 - auto.zip] BackupFileSize[5140984] Persistent[FALSE]
[2017.03.13 16:55:53] [0002m.37s.035ms] [0] PrjBackupMgr: Project Backup file [C:\pd_repo\pd\_COWBOY\_Mentor\ProjectBackup\backups\2017-03-08 17.15.50 - auto.zip] with GUID [8513-259f-f025-689f-6be9-0c8b-be90-c850-1b11-7cad-7c4c-8c6a] removed
[2017.03.13 16:55:53] [0002m.37s.035ms] [0] PrjBackupEngine: Successfully created backup:  BackupGUID[cf27-77e8-81c4-b7f7-8732-7c8d-7327-c850-9f0f-7cad-8c8c-dc6a] CreationTime[Monday, March 13, 2017 22:55:52] Type[Autosave] Creator[iCDB Server (2017-03-13 16.53.16-9108)] ApplicationName[iCDB Server (2017-03-13 16.53.16-9108)] UserName[john.timothy] MachineName[PC-P50-JT] Description[Autosave] FullFlowName[PADS Professional VX.2] FlowId[PADSProVX.2] GBSInstallId[1409847] GBSBuildId[5060443] IcdbVersion[3100] ReferenceLogFilePath[] BackupFilePath[C:\pd_repo\pd\_COWBOY\_Mentor\ProjectBackup\backups\2017-03-13 16.55.52 - auto.zip] BackupFileSize[5211437] Persistent[FALSE]
[2017.03.13 17:35:43] [0042m.26s.829ms] [1] SC[3091]: UnRegistered sub-client [ExpeditionCrossProber] with ID [5] for session ID [3091] host [PC-P50-JT] user [john.timothy] process ID [4704]
[2017.03.13 17:35:45] [0042m.29s.006ms] [1] SC[3091]: UnRegistered sub-client [Expedition PE_510028000] with ID [1] for session ID [3091] host [PC-P50-JT] user [john.timothy] process ID [4704]
[2017.03.13 17:35:45] [0042m.29s.075ms] [1] CMT: Removed client [3091]
[2017.03.13 17:35:45] [0042m.29s.075ms] [1] CMT: There are [1] clients now: 3090
[2017.03.13 17:35:46] [0042m.30s.207ms] [1] SC[3090]: UnRegistered sub-client [SystemDesignDll] with ID [11] for session ID [3090] host [PC-P50-JT] user [john.timothy] process ID [2884]
[2017.03.13 17:35:47] [0042m.30s.376ms] [1] SC[3090]: UnRegistered sub-client [DesignSearcher2] with ID [12] for session ID [3090] host [PC-P50-JT] user [john.timothy] process ID [2884]
[2017.03.13 17:35:47] [0042m.30s.506ms] [1] SC[3090]: UnRegistered sub-client [GlobalNetAliasUpdater_575190360] with ID [35] for session ID [3090] host [PC-P50-JT] user [john.timothy] process ID [2884]
[2017.03.13 17:35:47] [0042m.30s.506ms] [1] SC[3090]: UnRegistered sub-client [BlockCacheDxD:576193592] with ID [34] for session ID [3090] host [PC-P50-JT] user [john.timothy] process ID [2884]
[2017.03.13 17:35:47] [0042m.30s.507ms] [1] SC[3090]: UnRegistered sub-client [ObjectHolder_575189632] with ID [33] for session ID [3090] host [PC-P50-JT] user [john.timothy] process ID [2884]
[2017.03.13 17:35:47] [0042m.30s.507ms] [1] SC[3090]: UnRegistered sub-client [IcdbNetProcessorSubClientDxD:574016352] with ID [36] for session ID [3090] host [PC-P50-JT] user [john.timothy] process ID [2884]
[2017.03.13 17:35:47] [0042m.30s.625ms] [1] SC[3090]: UnRegistered sub-client [Navigator] with ID [14] for session ID [3090] host [PC-P50-JT] user [john.timothy] process ID [2884]
[2017.03.13 17:35:47] [0042m.30s.643ms] [1] SC[3090]: UnRegistered sub-client [LocalSymbolsDataProvider] with ID [17] for session ID [3090] host [PC-P50-JT] user [john.timothy] process ID [2884]
[2017.03.13 17:35:47] [0042m.30s.645ms] [1] SC[3090]: UnRegistered sub-client [FFSearch_Controller_0] with ID [18] for session ID [3090] host [PC-P50-JT] user [john.timothy] process ID [2884]
[2017.03.13 17:35:47] [0042m.30s.645ms] [1] SC[3090]: UnRegistered sub-client [FFSearch_Controller_1] with ID [19] for session ID [3090] host [PC-P50-JT] user [john.timothy] process ID [2884]
[2017.03.13 17:35:47] [0042m.30s.645ms] [1] SC[3090]: UnRegistered sub-client [FFSearch_Controller_2] with ID [20] for session ID [3090] host [PC-P50-JT] user [john.timothy] process ID [2884]
[2017.03.13 17:35:47] [0042m.30s.645ms] [1] SC[3090]: UnRegistered sub-client [FFSearch_Controller_3] with ID [21] for session ID [3090] host [PC-P50-JT] user [john.timothy] process ID [2884]
[2017.03.13 17:35:47] [0042m.30s.645ms] [1] SC[3090]: UnRegistered sub-client [FFSearch_Controller_4] with ID [22] for session ID [3090] host [PC-P50-JT] user [john.timothy] process ID [2884]
[2017.03.13 17:35:47] [0042m.30s.992ms] [1] SC[3090]: UnRegistered sub-client [MyParts] with ID [26] for session ID [3090] host [PC-P50-JT] user [john.timothy] process ID [2884]
[2017.03.13 17:35:47] [0042m.30s.992ms] [1] SC[3090]: UnRegistered sub-client [toolboxes] with ID [28] for session ID [3090] host [PC-P50-JT] user [john.timothy] process ID [2884]
[2017.03.13 17:35:48] [0042m.31s.846ms] [1] SC[3090]: UnRegistered sub-client [SelectionHolder] with ID [5] for session ID [3090] host [PC-P50-JT] user [john.timothy] process ID [2884]
[2017.03.13 17:35:48] [0042m.31s.846ms] [1] SC[3090]: UnRegistered sub-client [PartReplaceUtils] with ID [32] for session ID [3090] host [PC-P50-JT] user [john.timothy] process ID [2884]
[2017.03.13 17:35:49] [0042m.32s.341ms] [1] SC[3090]: UnRegistered sub-client [ProjectIntegrationIcdbCacheDxD:570501288] with ID [29] for session ID [3090] host [PC-P50-JT] user [john.timothy] process ID [2884]
[2017.03.13 17:35:49] [0042m.32s.342ms] [1] SC[3090]: UnRegistered sub-client [SheetConnectorsCacheDxD:1489445603] with ID [30] for session ID [3090] host [PC-P50-JT] user [john.timothy] process ID [2884]
[2017.03.13 17:35:49] [0042m.32s.343ms] [1] SC[3090]: UnRegistered sub-client [NetsNamesCollectorDxD:1489445603] with ID [31] for session ID [3090] host [PC-P50-JT] user [john.timothy] process ID [2884]
[2017.03.13 17:35:49] [0042m.32s.344ms] [1] SC[3090]: UnRegistered sub-client [TransactionRollbackSubClient] with ID [2] for session ID [3090] host [PC-P50-JT] user [john.timothy] process ID [2884]
[2017.03.13 17:35:49] [0042m.32s.345ms] [1] SC[3090]: UnRegistered sub-client [DxD] with ID [1] for session ID [3090] host [PC-P50-JT] user [john.timothy] process ID [2884]
[2017.03.13 17:35:49] [0042m.32s.378ms] [1] SC[3090]: UnRegistered sub-client [xprob] with ID [3] for session ID [3090] host [PC-P50-JT] user [john.timothy] process ID [2884]
[2017.03.13 17:35:49] [0042m.32s.378ms] [1] SC[3090]: UnRegistered sub-client [SymbolEditor] with ID [4] for session ID [3090] host [PC-P50-JT] user [john.timothy] process ID [2884]
[2017.03.13 17:35:49] [0042m.32s.409ms] [1] SC[3090]: UnRegistered sub-client [OutputWindow] with ID [15] for session ID [3090] host [PC-P50-JT] user [john.timothy] process ID [2884]
[2017.03.13 17:35:49] [0042m.32s.425ms] [1] SC[3090]: UnRegistered sub-client [DxDbSearch] with ID [37] for session ID [3090] host [PC-P50-JT] user [john.timothy] process ID [2884]
[2017.03.13 17:35:49] [0042m.32s.462ms] [1] SC[3090]: UnRegistered sub-client [SAE] with ID [23] for session ID [3090] host [PC-P50-JT] user [john.timothy] process ID [2884]
[2017.03.13 17:35:49] [0042m.32s.478ms] [1] SC[3090]: UnRegistered sub-client [CCZAddin] with ID [24] for session ID [3090] host [PC-P50-JT] user [john.timothy] process ID [2884]
[2017.03.13 17:35:49] [0042m.32s.478ms] [1] SC[3090]: UnRegistered sub-client [DxThumbnails] with ID [25] for session ID [3090] host [PC-P50-JT] user [john.timothy] process ID [2884]
[2017.03.13 17:35:51] [0042m.34s.759ms] [1] SC[3090]: UnRegistered sub-client [PinsList] with ID [27] for session ID [3090] host [PC-P50-JT] user [john.timothy] process ID [2884]
[2017.03.13 17:35:51] [0042m.34s.806ms] [1] SC[3090]: UnRegistered sub-client [PlaceDevice] with ID [16] for session ID [3090] host [PC-P50-JT] user [john.timothy] process ID [2884]
[2017.03.13 17:35:51] [0042m.34s.822ms] [1] SC[3090]: UnRegistered sub-client [HdlProject] with ID [13] for session ID [3090] host [PC-P50-JT] user [john.timothy] process ID [2884]
[2017.03.13 17:35:51] [0042m.34s.841ms] [1] CMT: Removed client [3090]
[2017.03.13 17:35:51] [0042m.34s.841ms] [1] CMT: There are no clients left - waiting [1 seconds]
[2017.03.13 17:35:52] [0042m.35s.267ms] [1] SDL: The last connected iCDB Server Monitor [1] is waiting for server close
[2017.03.13 17:35:53] [0042m.36s.283ms] [0] CMT: Starting server auto-close
[2017.03.13 17:35:53] [0042m.36s.367ms] [0] S: Closing server
[2017.03.13 17:35:53] [0042m.36s.546ms] [0] iCDB Server PI: Closing plugins
[2017.03.13 17:35:53] [0042m.36s.546ms] [0] iCDB Server PI: Plugins closed
[2017.03.13 17:35:53] [0042m.36s.546ms] [0] iCDB Server PI: Unloading database
[2017.03.13 17:35:53] [0042m.36s.547ms] [0] iCDB Server PI: Saving storage
[2017.03.13 17:35:53] [0042m.36s.547ms] [0] iCDB Server PI: Closing database
[2017.03.13 17:35:53] [0042m.36s.552ms] [1] iCDB Server PI: Stats: Database defragmentation: max[1] avg[1] holes[14%] data[98%]
[2017.03.13 17:35:53] [0042m.36s.552ms] [1] iCDB Server PI: Stats: Database file size [613376 (599.0 kB)]
[2017.03.13 17:35:53] [0042m.36s.568ms] [0] iCDB Server PI: Database closed
[2017.03.13 17:35:53] [0042m.36s.568ms] [1] iCDB Server PI: Stats: Total iCDB execution time: [34713] ticks
[2017.03.13 17:35:53] [0042m.36s.568ms] [1] iCDB Server PI: Stats: Total iCDB execution time: [12658] microseconds
[2017.03.13 17:35:53] [0042m.36s.568ms] [1] iCDB Server PI: Stats: Total iCDB commands count: [30]
[2017.03.13 17:35:53] [0042m.36s.568ms] [1] iCDB Server PI: Stats: Average iCDB speed:        [2369] commands per second
[2017.03.13 17:35:53] [0042m.36s.583ms] [0] Single file [C:\pd_repo\pd\_COWBOY\_Mentor\database\icdb.dat] closed with size [613376 (599.0 kB)]
[2017.03.13 17:35:53] [0042m.36s.684ms] [1] SD[1]: Removing the last connected iCDB Server Monitor [1]
[2017.03.13 17:35:53] [0042m.36s.884ms] [0] MWT: Destroy the shutdown block reason.
[2017.03.13 17:35:53] [0042m.36s.884ms] [0] MWT: STOP
[2017.03.13 17:35:53] [0042m.36s.884ms] [0] S: STOP
