
                                PLANES PROCESSOR
                                ----------------

                       11:49 PM Monday, February 22, 2016
Job Name: C:\Users\branden.sheffield\Documents\Crusher3.0\Mentor\CrusherMain\PCB\Main.pcb




    POSITIVE PLANE LAYER : 1

        Plane Shapes Found On This Layer : 7
        Plane Holes  Found On This Layer : 10


        PLANE NET : AGND

            Total Plane Shapes For This Net   : 1
            Use Route Border As Plane Shape   : NO
            Create Actual Plane Shapes        : NO
            Regenerate APS Connections Only   : NO
            Generate Plane Data               : YES
            Plane To Plane Clearance          : 0.15mm
            Plane To Other Metal Clearance    : 0.15mm
            Mounting Hole / Contour Clearance : 0.2mm
            Minimum Plane Gap Distance        : NA
            Use TieLeg Bridges If Needed      : NO
            Use Padstack Thermal Definition   : NO
            Default Via Tie Properties
                Number Tie Legs               : BURIED
            Default Thru Tie Properties
                Tie Leg Width                 : 0.13mm
                Thermal Clearance             : 0.15mm
                Number Tie Legs               : FOUR
                Tie Orientation               : PREFER 0
            Default SMD Tie Properties
                Tie Leg Width                 : 0.13mm
                Thermal Clearance             : 0.15mm
                Number Tie Legs               : FOUR
                Tie Orientation               : PREFER 0
            Eliminate Untied Areas            : Yes
            Eliminate Single Tied Areas       : No
            Orthogonal Data Only              : NO
            Discard Areas By Dimension        : NO
            Default Hatch Width               : 0.15mm
            Default Hatch Distance            : 0.15mm
            Default Hatch Pattern             : (x) Cross Hatch
            Default Metal Percentage          : 100.00

            Total Via  Pads Of This Net       : 27
            Total Thru Pads Of This Net       : 0
            Total SMD  Pads Of This Net       : 23

            Plane Created : Layer 1 - Net AGND

                Via Pads In This Plane           : 17
                Thru Pads In This Plane          : 0
                SMD Pads In This Plane           : 13
                     
                Pads To Be Buried In Plane       : 17
                    Unconnected To Plane         : 0
                        Connected To Trace       : 0
                Pads With 4/4 Tie Connections    : 8
                Pads With 3/4 Tie Connections    : 4
                Pads With 1/4 Tie Connections    : 1

                Pads With 3 Tie Legs : 4
                        Coordinates (mm) :
                            1) X=45.31       Y=42.54         Pin: C36-1  
                            2) X=48.71       Y=43.42         Pin: C37-1  
                            3) X=51.03       Y=38.95         Pin: C28-2  
                            4) X=54.15       Y=34.77         Pin: R12-2  

                Pads With 1 Tie Legs : 1
                        Coordinates (mm) :
                            1) X=50.78       Y=37.9          Pin: U5-B1  


        PLANE NET : GND

            Total Plane Shapes For This Net   : 4
            Use Route Border As Plane Shape   : NO
            Create Actual Plane Shapes        : NO
            Regenerate APS Connections Only   : NO
            Generate Plane Data               : YES
            Plane To Plane Clearance          : 0.15mm
            Plane To Other Metal Clearance    : 0.15mm
            Mounting Hole / Contour Clearance : 0.2mm
            Minimum Plane Gap Distance        : NA
            Use TieLeg Bridges If Needed      : NO
            Use Padstack Thermal Definition   : NO
            Default Via Tie Properties
                Number Tie Legs               : BURIED
            Default Thru Tie Properties
                Tie Leg Width                 : 0.13mm
                Thermal Clearance             : 0.15mm
                Number Tie Legs               : FOUR
                Tie Orientation               : PREFER 0
            Default SMD Tie Properties
                Tie Leg Width                 : 0.13mm
                Thermal Clearance             : 0.15mm
                Number Tie Legs               : FOUR
                Tie Orientation               : PREFER 0
            Eliminate Untied Areas            : Yes
            Eliminate Single Tied Areas       : No
            Orthogonal Data Only              : NO
            Discard Areas By Dimension        : NO
            Default Hatch Width               : 0.15mm
            Default Hatch Distance            : 0.15mm
            Default Hatch Pattern             : (x) Cross Hatch
            Default Metal Percentage          : 100.00

            Total Via  Pads Of This Net       : 91
            Total Thru Pads Of This Net       : 0
            Total SMD  Pads Of This Net       : 44

            Plane Created : Layer 1 - Net GND
                Hatch Width                      : 0.15mm
                Hatch Distance                   : 0.15mm
                Hatch Pattern                    : (x) Cross Hatch
                Metal Percentage                 : 100.00
                SMD Tie Properties
                    Number Tie Legs              : BURIED
                Thru Tie Properties
                    Number Tie Legs              : BURIED
                Via Tie Properties
                    Number Tie Legs              : BURIED

                Via Pads In This Plane           : 45
                Thru Pads In This Plane          : 0
                SMD Pads In This Plane           : 5
                     
                Pads To Be Buried In Plane       : 45
                    Unconnected To Plane         : 0
                        Connected To Trace       : 0
                Pads With 0/4 Tie Connections    : 5

                Total With 0 Tie Connections     : 5
                    Connected To Trace           : 3

                No tieleg connections were due to isolation from plane,
                or the tielegs would have violated clearance requirements,
                or no tielegs were assigned to be created,
                or the pad belongs to a Routed Plane Pin,
                or the pad was a TestPad on top of another connected pad,
                or the pad was contained in a Plane No Connect Area.
                The pads connected to traces are not guaranteed to be
                fully electrically connected.  Connectivity DRC will
                report if this net is not fully connected.

                Total Pads Not Connected : 2
                        Coordinates (mm) :
                            1) X=12.33       Y=36.4          Pin: C14-2  
                            2) X=13.24       Y=29.53         Pin: TP65-1  

            Plane Created : Layer 1 - Net GND

                Via Pads In This Plane           : 43
                Thru Pads In This Plane          : 0
                SMD Pads In This Plane           : 37
                     
                Pads To Be Buried In Plane       : 43
                    Unconnected To Plane         : 0
                        Connected To Trace       : 0
                Pads With 4/4 Tie Connections    : 20
                Pads With 3/4 Tie Connections    : 8
                Pads With 2/4 Tie Connections    : 4
                Pads With 1/4 Tie Connections    : 5

                Pads With 3 Tie Legs : 8
                        Coordinates (mm) :
                            1) X=7.4         Y=19.77         Pin: C47-2  
                            2) X=7.46        Y=24.79         Pin: C5-2  
                            3) X=7.47        Y=20.92         Pin: C10-2  
                            4) X=8.68        Y=17.48         Pin: C1-2  
                            5) X=11.1        Y=27.48         Pin: FL1-1  
                            6) X=12.4        Y=27.48         Pin: FL1-3  
                            7) X=12.79       Y=16.31         Pin: C4-2  
                            8) X=16.39       Y=17.43         Pin: C3-2  

                Pads With 2 Tie Legs : 4
                        Coordinates (mm) :
                            1) X=17.18       Y=19.45         Pin: C11-2  
                            2) X=40.16       Y=21.17         Pin: U2-3  
                            3) X=42.18       Y=16.96         Pin: C46-2  
                            4) X=43.83       Y=22.19         Pin: R11-2  

                Pads With 1 Tie Legs : 5
                        Coordinates (mm) :
                            1) X=10.53       Y=24.85         Pin: U1-A2  
                            2) X=10.84       Y=14.18         Pin: U8-D2  
                            3) X=12.53       Y=22.35         Pin: U1-F6  
                            4) X=13.53       Y=20.85         Pin: U1-J8  
                            5) X=14.03       Y=20.35         Pin: U1-K9  


    POSITIVE PLANE LAYER : 2

        Plane Shapes Found On This Layer : 3
        Plane Holes  Found On This Layer : 12


        PLANE NET : AGND

            Total Plane Shapes For This Net   : 1
            Use Route Border As Plane Shape   : NO
            Create Actual Plane Shapes        : NO
            Regenerate APS Connections Only   : NO
            Generate Plane Data               : YES
            Plane To Plane Clearance          : 0.15mm
            Plane To Other Metal Clearance    : 0.15mm
            Mounting Hole / Contour Clearance : 0.2mm
            Minimum Plane Gap Distance        : NA
            Use TieLeg Bridges If Needed      : NO
            Use Padstack Thermal Definition   : NO
            Default Via Tie Properties
                Number Tie Legs               : BURIED
            Default Thru Tie Properties
                Tie Leg Width                 : 0.13mm
                Thermal Clearance             : 0.15mm
                Number Tie Legs               : FOUR
                Tie Orientation               : PREFER 0
            Default SMD Tie Properties
                Tie Leg Width                 : 0.13mm
                Thermal Clearance             : 0.15mm
                Number Tie Legs               : FOUR
                Tie Orientation               : PREFER 0
            Eliminate Untied Areas            : Yes
            Eliminate Single Tied Areas       : No
            Orthogonal Data Only              : NO
            Discard Areas By Dimension        : NO
            Default Hatch Width               : 0.15mm
            Default Hatch Distance            : 0.15mm
            Default Hatch Pattern             : (x) Cross Hatch
            Default Metal Percentage          : 100.00

            Total Via  Pads Of This Net       : 27
            Total Thru Pads Of This Net       : 0
            Total SMD  Pads Of This Net       : 0

            Plane Created : Layer 2 - Net AGND

                Via Pads In This Plane           : 16
                Thru Pads In This Plane          : 0
                SMD Pads In This Plane           : 0
                     
                Pads To Be Buried In Plane       : 16
                    Unconnected To Plane         : 0
                        Connected To Trace       : 0


        PLANE NET : GND

            Total Plane Shapes For This Net   : 2
            Use Route Border As Plane Shape   : NO
            Create Actual Plane Shapes        : NO
            Regenerate APS Connections Only   : NO
            Generate Plane Data               : YES
            Plane To Plane Clearance          : 0.15mm
            Plane To Other Metal Clearance    : 0.15mm
            Mounting Hole / Contour Clearance : 0.2mm
            Minimum Plane Gap Distance        : NA
            Use TieLeg Bridges If Needed      : NO
            Use Padstack Thermal Definition   : NO
            Default Via Tie Properties
                Number Tie Legs               : BURIED
            Default Thru Tie Properties
                Tie Leg Width                 : 0.13mm
                Thermal Clearance             : 0.15mm
                Number Tie Legs               : FOUR
                Tie Orientation               : PREFER 0
            Default SMD Tie Properties
                Tie Leg Width                 : 0.13mm
                Thermal Clearance             : 0.15mm
                Number Tie Legs               : FOUR
                Tie Orientation               : PREFER 0
            Eliminate Untied Areas            : Yes
            Eliminate Single Tied Areas       : No
            Orthogonal Data Only              : NO
            Discard Areas By Dimension        : NO
            Default Hatch Width               : 0.15mm
            Default Hatch Distance            : 0.15mm
            Default Hatch Pattern             : (x) Cross Hatch
            Default Metal Percentage          : 100.00

            Total Via  Pads Of This Net       : 91
            Total Thru Pads Of This Net       : 0
            Total SMD  Pads Of This Net       : 0

            Plane Created : Layer 2 - Net GND

                Via Pads In This Plane           : 91
                Thru Pads In This Plane          : 0
                SMD Pads In This Plane           : 0
                     
                Pads To Be Buried In Plane       : 91
                    Unconnected To Plane         : 0
                        Connected To Trace       : 0


    POSITIVE PLANE LAYER : 3

        Plane Shapes Found On This Layer : 6
        Plane Holes  Found On This Layer : 2


        PLANE NET : GND

            Total Plane Shapes For This Net   : 1
            Use Route Border As Plane Shape   : NO
            Create Actual Plane Shapes        : NO
            Regenerate APS Connections Only   : NO
            Generate Plane Data               : YES
            Plane To Plane Clearance          : 0.15mm
            Plane To Other Metal Clearance    : 0.15mm
            Mounting Hole / Contour Clearance : 0.2mm
            Minimum Plane Gap Distance        : NA
            Use TieLeg Bridges If Needed      : NO
            Use Padstack Thermal Definition   : NO
            Default Via Tie Properties
                Number Tie Legs               : BURIED
            Default Thru Tie Properties
                Tie Leg Width                 : 0.13mm
                Thermal Clearance             : 0.15mm
                Number Tie Legs               : FOUR
                Tie Orientation               : PREFER 0
            Default SMD Tie Properties
                Tie Leg Width                 : 0.13mm
                Thermal Clearance             : 0.15mm
                Number Tie Legs               : FOUR
                Tie Orientation               : PREFER 0
            Eliminate Untied Areas            : Yes
            Eliminate Single Tied Areas       : No
            Orthogonal Data Only              : NO
            Discard Areas By Dimension        : NO
            Default Hatch Width               : 0.15mm
            Default Hatch Distance            : 0.15mm
            Default Hatch Pattern             : (x) Cross Hatch
            Default Metal Percentage          : 100.00

            Total Via  Pads Of This Net       : 91
            Total Thru Pads Of This Net       : 0
            Total SMD  Pads Of This Net       : 0

            Plane Created : Layer 3 - Net GND

                Via Pads In This Plane           : 46
                Thru Pads In This Plane          : 0
                SMD Pads In This Plane           : 0
                     
                Pads To Be Buried In Plane       : 46
                    Unconnected To Plane         : 0
                        Connected To Trace       : 0


        PLANE NET : VBAT

            Total Plane Shapes For This Net   : 2
            Use Route Border As Plane Shape   : NO
            Create Actual Plane Shapes        : NO
            Regenerate APS Connections Only   : NO
            Generate Plane Data               : YES
            Plane To Plane Clearance          : 0.15mm
            Plane To Other Metal Clearance    : 0.15mm
            Mounting Hole / Contour Clearance : 0.2mm
            Minimum Plane Gap Distance        : NA
            Use TieLeg Bridges If Needed      : NO
            Use Padstack Thermal Definition   : NO
            Default Via Tie Properties
                Number Tie Legs               : BURIED
            Default Thru Tie Properties
                Tie Leg Width                 : 0.13mm
                Thermal Clearance             : 0.15mm
                Number Tie Legs               : FOUR
                Tie Orientation               : PREFER 0
            Default SMD Tie Properties
                Tie Leg Width                 : 0.13mm
                Thermal Clearance             : 0.15mm
                Number Tie Legs               : FOUR
                Tie Orientation               : PREFER 0
            Eliminate Untied Areas            : Yes
            Eliminate Single Tied Areas       : No
            Orthogonal Data Only              : NO
            Discard Areas By Dimension        : NO
            Default Hatch Width               : 0.15mm
            Default Hatch Distance            : 0.15mm
            Default Hatch Pattern             : (x) Cross Hatch
            Default Metal Percentage          : 100.00

            Total Via  Pads Of This Net       : 13
            Total Thru Pads Of This Net       : 0
            Total SMD  Pads Of This Net       : 0

            Plane Created : Layer 3 - Net VBAT

                Via Pads In This Plane           : 12
                Thru Pads In This Plane          : 0
                SMD Pads In This Plane           : 0
                     
                Pads To Be Buried In Plane       : 12
                    Unconnected To Plane         : 0
                        Connected To Trace       : 0


        PLANE NET : 1V8

            Total Plane Shapes For This Net   : 2
            Use Route Border As Plane Shape   : NO
            Create Actual Plane Shapes        : NO
            Regenerate APS Connections Only   : NO
            Generate Plane Data               : YES
            Plane To Plane Clearance          : 0.15mm
            Plane To Other Metal Clearance    : 0.15mm
            Mounting Hole / Contour Clearance : 0.2mm
            Minimum Plane Gap Distance        : NA
            Use TieLeg Bridges If Needed      : NO
            Use Padstack Thermal Definition   : NO
            Default Via Tie Properties
                Number Tie Legs               : BURIED
            Default Thru Tie Properties
                Tie Leg Width                 : 0.13mm
                Thermal Clearance             : 0.15mm
                Number Tie Legs               : FOUR
                Tie Orientation               : PREFER 0
            Default SMD Tie Properties
                Tie Leg Width                 : 0.13mm
                Thermal Clearance             : 0.15mm
                Number Tie Legs               : FOUR
                Tie Orientation               : PREFER 0
            Eliminate Untied Areas            : Yes
            Eliminate Single Tied Areas       : No
            Orthogonal Data Only              : NO
            Discard Areas By Dimension        : NO
            Default Hatch Width               : 0.15mm
            Default Hatch Distance            : 0.15mm
            Default Hatch Pattern             : (x) Cross Hatch
            Default Metal Percentage          : 100.00

            Total Via  Pads Of This Net       : 13
            Total Thru Pads Of This Net       : 0
            Total SMD  Pads Of This Net       : 0

            Plane Created : Layer 3 - Net 1V8

                Via Pads In This Plane           : 10
                Thru Pads In This Plane          : 0
                SMD Pads In This Plane           : 0
                     
                Pads To Be Buried In Plane       : 10
                    Unconnected To Plane         : 0
                        Connected To Trace       : 0


        PLANE NET : 1V35

            Total Plane Shapes For This Net   : 1
            Use Route Border As Plane Shape   : NO
            Create Actual Plane Shapes        : NO
            Regenerate APS Connections Only   : NO
            Generate Plane Data               : YES
            Plane To Plane Clearance          : 0.15mm
            Plane To Other Metal Clearance    : 0.15mm
            Mounting Hole / Contour Clearance : 0.2mm
            Minimum Plane Gap Distance        : NA
            Use TieLeg Bridges If Needed      : NO
            Use Padstack Thermal Definition   : NO
            Default Via Tie Properties
                Number Tie Legs               : BURIED
            Default Thru Tie Properties
                Tie Leg Width                 : 0.13mm
                Thermal Clearance             : 0.15mm
                Number Tie Legs               : FOUR
                Tie Orientation               : PREFER 0
            Default SMD Tie Properties
                Tie Leg Width                 : 0.13mm
                Thermal Clearance             : 0.15mm
                Number Tie Legs               : FOUR
                Tie Orientation               : PREFER 0
            Eliminate Untied Areas            : Yes
            Eliminate Single Tied Areas       : No
            Orthogonal Data Only              : NO
            Discard Areas By Dimension        : NO
            Default Hatch Width               : 0.15mm
            Default Hatch Distance            : 0.15mm
            Default Hatch Pattern             : (x) Cross Hatch
            Default Metal Percentage          : 100.00

            Total Via  Pads Of This Net       : 7
            Total Thru Pads Of This Net       : 0
            Total SMD  Pads Of This Net       : 0

            Plane Created : Layer 3 - Net 1V35

                Via Pads In This Plane           : 6
                Thru Pads In This Plane          : 0
                SMD Pads In This Plane           : 0
                     
                Pads To Be Buried In Plane       : 6
                    Unconnected To Plane         : 0
                        Connected To Trace       : 0


    POSITIVE PLANE LAYER : 4

        Plane Shapes Found On This Layer : 11
        Plane Holes  Found On This Layer : 2


        PLANE NET : AGND

            Total Plane Shapes For This Net   : 1
            Use Route Border As Plane Shape   : NO
            Create Actual Plane Shapes        : NO
            Regenerate APS Connections Only   : NO
            Generate Plane Data               : YES
            Plane To Plane Clearance          : 0.15mm
            Plane To Other Metal Clearance    : 0.15mm
            Mounting Hole / Contour Clearance : 0.2mm
            Minimum Plane Gap Distance        : NA
            Use TieLeg Bridges If Needed      : NO
            Use Padstack Thermal Definition   : NO
            Default Via Tie Properties
                Number Tie Legs               : BURIED
            Default Thru Tie Properties
                Tie Leg Width                 : 0.13mm
                Thermal Clearance             : 0.15mm
                Number Tie Legs               : FOUR
                Tie Orientation               : PREFER 0
            Default SMD Tie Properties
                Tie Leg Width                 : 0.13mm
                Thermal Clearance             : 0.15mm
                Number Tie Legs               : FOUR
                Tie Orientation               : PREFER 0
            Eliminate Untied Areas            : Yes
            Eliminate Single Tied Areas       : No
            Orthogonal Data Only              : NO
            Discard Areas By Dimension        : NO
            Default Hatch Width               : 0.15mm
            Default Hatch Distance            : 0.15mm
            Default Hatch Pattern             : (x) Cross Hatch
            Default Metal Percentage          : 100.00

            Total Via  Pads Of This Net       : 27
            Total Thru Pads Of This Net       : 0
            Total SMD  Pads Of This Net       : 17

            Plane Created : Layer 4 - Net AGND

                Via Pads In This Plane           : 3
                Thru Pads In This Plane          : 0
                SMD Pads In This Plane           : 6
                     
                Pads To Be Buried In Plane       : 3
                    Unconnected To Plane         : 0
                        Connected To Trace       : 0
                Pads With 4/4 Tie Connections    : 4
                Pads With 3/4 Tie Connections    : 1
                Pads With 2/4 Tie Connections    : 1

                Pads With 3 Tie Legs : 1
                        Coordinates (mm) :
                            1) X=36.11       Y=13.33         Pin: R43-2  

                Pads With 2 Tie Legs : 1
                        Coordinates (mm) :
                            1) X=35          Y=13.14         Pin: R44-2  


        PLANE NET : GND

            Total Plane Shapes For This Net   : 3
            Use Route Border As Plane Shape   : NO
            Create Actual Plane Shapes        : NO
            Regenerate APS Connections Only   : NO
            Generate Plane Data               : YES
            Plane To Plane Clearance          : 0.15mm
            Plane To Other Metal Clearance    : 0.15mm
            Mounting Hole / Contour Clearance : 0.2mm
            Minimum Plane Gap Distance        : NA
            Use TieLeg Bridges If Needed      : NO
            Use Padstack Thermal Definition   : NO
            Default Via Tie Properties
                Number Tie Legs               : BURIED
            Default Thru Tie Properties
                Tie Leg Width                 : 0.13mm
                Thermal Clearance             : 0.15mm
                Number Tie Legs               : FOUR
                Tie Orientation               : PREFER 0
            Default SMD Tie Properties
                Tie Leg Width                 : 0.13mm
                Thermal Clearance             : 0.15mm
                Number Tie Legs               : FOUR
                Tie Orientation               : PREFER 0
            Eliminate Untied Areas            : Yes
            Eliminate Single Tied Areas       : No
            Orthogonal Data Only              : NO
            Discard Areas By Dimension        : NO
            Default Hatch Width               : 0.15mm
            Default Hatch Distance            : 0.15mm
            Default Hatch Pattern             : (x) Cross Hatch
            Default Metal Percentage          : 100.00

            Total Via  Pads Of This Net       : 91
            Total Thru Pads Of This Net       : 0
            Total SMD  Pads Of This Net       : 8

            Plane Created : Layer 4 - Net GND

                Via Pads In This Plane           : 63
                Thru Pads In This Plane          : 0
                SMD Pads In This Plane           : 3
                     
                Pads To Be Buried In Plane       : 63
                    Unconnected To Plane         : 0
                        Connected To Trace       : 0
                Pads With 4/4 Tie Connections    : 2
                Pads With 3/4 Tie Connections    : 1

                Pads With 3 Tie Legs : 1
                        Coordinates (mm) :
                            1) X=20.06       Y=12.75         Pin: C49-2  


        PLANE NET : VBAT

            Total Plane Shapes For This Net   : 2
            Use Route Border As Plane Shape   : NO
            Create Actual Plane Shapes        : NO
            Regenerate APS Connections Only   : NO
            Generate Plane Data               : YES
            Plane To Plane Clearance          : 0.15mm
            Plane To Other Metal Clearance    : 0.15mm
            Mounting Hole / Contour Clearance : 0.2mm
            Minimum Plane Gap Distance        : NA
            Use TieLeg Bridges If Needed      : NO
            Use Padstack Thermal Definition   : NO
            Default Via Tie Properties
                Number Tie Legs               : BURIED
            Default Thru Tie Properties
                Tie Leg Width                 : 0.13mm
                Thermal Clearance             : 0.15mm
                Number Tie Legs               : FOUR
                Tie Orientation               : PREFER 0
            Default SMD Tie Properties
                Tie Leg Width                 : 0.13mm
                Thermal Clearance             : 0.15mm
                Number Tie Legs               : FOUR
                Tie Orientation               : PREFER 0
            Eliminate Untied Areas            : Yes
            Eliminate Single Tied Areas       : No
            Orthogonal Data Only              : NO
            Discard Areas By Dimension        : NO
            Default Hatch Width               : 0.15mm
            Default Hatch Distance            : 0.15mm
            Default Hatch Pattern             : (x) Cross Hatch
            Default Metal Percentage          : 100.00

            Total Via  Pads Of This Net       : 13
            Total Thru Pads Of This Net       : 0
            Total SMD  Pads Of This Net       : 12

            Plane Created : Layer 4 - Net VBAT

                Via Pads In This Plane           : 7
                Thru Pads In This Plane          : 0
                SMD Pads In This Plane           : 7
                     
                Pads To Be Buried In Plane       : 7
                    Unconnected To Plane         : 0
                        Connected To Trace       : 0
                Pads With 4/4 Tie Connections    : 6
                Pads With 2/4 Tie Connections    : 1

                Pads With 2 Tie Legs : 1
                        Coordinates (mm) :
                            1) X=54.96       Y=27.09         Pin: R82-1  

            Plane Created : Layer 4 - Net VBAT
                Hatch Width                      : 0.15mm
                Hatch Distance                   : 0.15mm
                Hatch Pattern                    : (x) Cross Hatch
                Metal Percentage                 : 100.00
                SMD Tie Properties
                    Tie Legs Width               : 0.8mm
                    Thermal Clearance            : 0.15mm
                    Number Tie Legs              : FOUR
                    Tie Orientation              : PREFER 0
                Thru Tie Properties
                    Tie Legs Width               : 0.13mm
                    Thermal Clearance            : 0.15mm
                    Number Tie Legs              : FOUR
                    Tie Orientation              : PREFER 0
                Via Tie Properties
                    Number Tie Legs              : BURIED

                Via Pads In This Plane           : 2
                Thru Pads In This Plane          : 0
                SMD Pads In This Plane           : 2
                     
                Pads To Be Buried In Plane       : 2
                    Unconnected To Plane         : 0
                        Connected To Trace       : 0
                Pads With 4/4 Tie Connections    : 1
                Pads With 2/4 Tie Connections    : 1

                Pads With 2 Tie Legs : 1
                        Coordinates (mm) :
                            1) X=50.75       Y=53.23         Pin: R17-2  


        PLANE NET : VBUS

            Total Plane Shapes For This Net   : 2
            Use Route Border As Plane Shape   : NO
            Create Actual Plane Shapes        : NO
            Regenerate APS Connections Only   : NO
            Generate Plane Data               : YES
            Plane To Plane Clearance          : 0.15mm
            Plane To Other Metal Clearance    : 0.15mm
            Mounting Hole / Contour Clearance : 0.2mm
            Minimum Plane Gap Distance        : NA
            Use TieLeg Bridges If Needed      : NO
            Use Padstack Thermal Definition   : NO
            Default Via Tie Properties
                Number Tie Legs               : BURIED
            Default Thru Tie Properties
                Tie Leg Width                 : 0.13mm
                Thermal Clearance             : 0.15mm
                Number Tie Legs               : FOUR
                Tie Orientation               : PREFER 0
            Default SMD Tie Properties
                Tie Leg Width                 : 0.13mm
                Thermal Clearance             : 0.15mm
                Number Tie Legs               : FOUR
                Tie Orientation               : PREFER 0
            Eliminate Untied Areas            : Yes
            Eliminate Single Tied Areas       : No
            Orthogonal Data Only              : NO
            Discard Areas By Dimension        : NO
            Default Hatch Width               : 0.15mm
            Default Hatch Distance            : 0.15mm
            Default Hatch Pattern             : (x) Cross Hatch
            Default Metal Percentage          : 100.00

            Total Via  Pads Of This Net       : 4
            Total Thru Pads Of This Net       : 0
            Total SMD  Pads Of This Net       : 2

            Plane Created : Layer 4 - Net VBUS

                Via Pads In This Plane           : 2
                Thru Pads In This Plane          : 0
                SMD Pads In This Plane           : 1
                     
                Pads To Be Buried In Plane       : 2
                    Unconnected To Plane         : 0
                        Connected To Trace       : 0
                Pads With 3/4 Tie Connections    : 1

                Pads With 3 Tie Legs : 1
                        Coordinates (mm) :
                            1) X=22.28       Y=13.67         Pin: TP18-1  


        PLANE NET : 1V35

            Total Plane Shapes For This Net   : 1
            Use Route Border As Plane Shape   : NO
            Create Actual Plane Shapes        : NO
            Regenerate APS Connections Only   : NO
            Generate Plane Data               : YES
            Plane To Plane Clearance          : 0.15mm
            Plane To Other Metal Clearance    : 0.15mm
            Mounting Hole / Contour Clearance : 0.2mm
            Minimum Plane Gap Distance        : NA
            Use TieLeg Bridges If Needed      : NO
            Use Padstack Thermal Definition   : NO
            Default Via Tie Properties
                Number Tie Legs               : BURIED
            Default Thru Tie Properties
                Tie Leg Width                 : 0.13mm
                Thermal Clearance             : 0.15mm
                Number Tie Legs               : FOUR
                Tie Orientation               : PREFER 0
            Default SMD Tie Properties
                Tie Leg Width                 : 0.13mm
                Thermal Clearance             : 0.15mm
                Number Tie Legs               : FOUR
                Tie Orientation               : PREFER 0
            Eliminate Untied Areas            : Yes
            Eliminate Single Tied Areas       : No
            Orthogonal Data Only              : NO
            Discard Areas By Dimension        : NO
            Default Hatch Width               : 0.15mm
            Default Hatch Distance            : 0.15mm
            Default Hatch Pattern             : (x) Cross Hatch
            Default Metal Percentage          : 100.00

            Total Via  Pads Of This Net       : 7
            Total Thru Pads Of This Net       : 0
            Total SMD  Pads Of This Net       : 1

            Plane Created : Layer 4 - Net 1V35

                Via Pads In This Plane           : 5
                Thru Pads In This Plane          : 0
                SMD Pads In This Plane           : 1
                     
                Pads To Be Buried In Plane       : 5
                    Unconnected To Plane         : 0
                        Connected To Trace       : 0
                Pads With 1/4 Tie Connections    : 1

                Pads With 1 Tie Legs : 1
                        Coordinates (mm) :
                            1) X=8.11        Y=24.75         Pin: R1-1  


        PLANE NET : 3V3_USB

            Total Plane Shapes For This Net   : 1
            Use Route Border As Plane Shape   : NO
            Create Actual Plane Shapes        : NO
            Regenerate APS Connections Only   : NO
            Generate Plane Data               : YES
            Plane To Plane Clearance          : 0.15mm
            Plane To Other Metal Clearance    : 0.15mm
            Mounting Hole / Contour Clearance : 0.2mm
            Minimum Plane Gap Distance        : NA
            Use TieLeg Bridges If Needed      : NO
            Use Padstack Thermal Definition   : NO
            Default Via Tie Properties
                Number Tie Legs               : BURIED
            Default Thru Tie Properties
                Tie Leg Width                 : 0.13mm
                Thermal Clearance             : 0.15mm
                Number Tie Legs               : FOUR
                Tie Orientation               : PREFER 0
            Default SMD Tie Properties
                Tie Leg Width                 : 0.13mm
                Thermal Clearance             : 0.15mm
                Number Tie Legs               : FOUR
                Tie Orientation               : PREFER 0
            Eliminate Untied Areas            : Yes
            Eliminate Single Tied Areas       : No
            Orthogonal Data Only              : NO
            Discard Areas By Dimension        : NO
            Default Hatch Width               : 0.15mm
            Default Hatch Distance            : 0.15mm
            Default Hatch Pattern             : (x) Cross Hatch
            Default Metal Percentage          : 100.00

            Total Via  Pads Of This Net       : 3
            Total Thru Pads Of This Net       : 0
            Total SMD  Pads Of This Net       : 0

            Plane Created : Layer 4 - Net 3V3_USB

                Via Pads In This Plane           : 2
                Thru Pads In This Plane          : 0
                SMD Pads In This Plane           : 0
                     
                Pads To Be Buried In Plane       : 2
                    Unconnected To Plane         : 0
                        Connected To Trace       : 0


        PLANE NET : $1N307

            Total Plane Shapes For This Net   : 1
            Use Route Border As Plane Shape   : NO
            Create Actual Plane Shapes        : NO
            Regenerate APS Connections Only   : NO
            Generate Plane Data               : YES
            Plane To Plane Clearance          : 0.15mm
            Plane To Other Metal Clearance    : 0.15mm
            Mounting Hole / Contour Clearance : 0.2mm
            Minimum Plane Gap Distance        : NA
            Use TieLeg Bridges If Needed      : NO
            Use Padstack Thermal Definition   : NO
            Default Via Tie Properties
                Number Tie Legs               : BURIED
            Default Thru Tie Properties
                Tie Leg Width                 : 0.13mm
                Thermal Clearance             : 0.15mm
                Number Tie Legs               : FOUR
                Tie Orientation               : PREFER 0
            Default SMD Tie Properties
                Tie Leg Width                 : 0.13mm
                Thermal Clearance             : 0.15mm
                Number Tie Legs               : FOUR
                Tie Orientation               : PREFER 0
            Eliminate Untied Areas            : Yes
            Eliminate Single Tied Areas       : No
            Orthogonal Data Only              : NO
            Discard Areas By Dimension        : NO
            Default Hatch Width               : 0.15mm
            Default Hatch Distance            : 0.15mm
            Default Hatch Pattern             : (x) Cross Hatch
            Default Metal Percentage          : 100.00

            Total Via  Pads Of This Net       : 2
            Total Thru Pads Of This Net       : 0
            Total SMD  Pads Of This Net       : 2

            Plane Created : Layer 4 - Net $1N307
                Hatch Width                      : 0.15mm
                Hatch Distance                   : 0.15mm
                Hatch Pattern                    : (x) Cross Hatch
                Metal Percentage                 : 100.00
                SMD Tie Properties
                    Number Tie Legs              : BURIED
                Thru Tie Properties
                    Tie Legs Width               : 0.13mm
                    Thermal Clearance            : 0.15mm
                    Number Tie Legs              : FOUR
                    Tie Orientation              : PREFER 0
                Via Tie Properties
                    Number Tie Legs              : BURIED

                Via Pads In This Plane           : 1
                Thru Pads In This Plane          : 0
                SMD Pads In This Plane           : 2
                     
                Pads To Be Buried In Plane       : 1
                    Unconnected To Plane         : 0
                        Connected To Trace       : 0
                Pads With 0/4 Tie Connections    : 2

                Total With 0 Tie Connections     : 2
                    Connected To Trace           : 2

                No tieleg connections were due to isolation from plane,
                or the tielegs would have violated clearance requirements,
                or no tielegs were assigned to be created,
                or the pad belongs to a Routed Plane Pin,
                or the pad was a TestPad on top of another connected pad,
                or the pad was contained in a Plane No Connect Area.
                The pads connected to traces are not guaranteed to be
                fully electrically connected.  Connectivity DRC will
                report if this net is not fully connected.