=======================================================================
PADS Professional Layout - Version 116.0.506.1217
=======================================================================

RELOAD CELLS

Job Directory:  C:\pd_repo\pd\_COWBOY\_Mentor\PCB\


Design Units:(mm)

Replace Cell Log:   repCellLog78.txt

Fri Dec 02 16:24:57 2016

Reference Designator            Cell Name                         New Cell Name
===============================================================================


---------------  RELOAD CELLS  Fri Dec 02 16:24:57 2016  ---------------




---------------    Fri Dec 02 16:24:57 2016  ---------------




---------------    Fri Dec 02 16:27:22 2016  ---------------




---------------    Fri Dec 02 16:40:41 2016  ---------------


