=======================================================================
PADS Professional Layout - Version 2015.0.678.963
=======================================================================

RELOAD CELLS

Job Directory:  C:\Users\branden.sheffield\Documents\Crusher3.0\Mentor\CrusherMain\PCB\


Design Units:(mm)

Replace Cell Log:   repCellLog33.txt

Sun Feb 07 00:40:46 2016

Reference Designator            Cell Name                         New Cell Name
===============================================================================


---------------  RELOAD CELLS  Sun Feb 07 00:40:46 2016  ---------------




---------------    Sun Feb 07 00:40:46 2016  ---------------


