=======================================================================
PADS Professional Layout - Version 2015.0.678.963
=======================================================================

RELOAD CELLS

Job Directory:  C:\Users\branden.sheffield\Documents\Crusher3.0\Mentor\CrusherMain\PCB\


Design Units:(mm)

Replace Cell Log:   repCellLog21.txt

Fri Nov 06 10:55:05 2015

Reference Designator            Cell Name                         New Cell Name
===============================================================================


---------------  RELOAD CELLS  Fri Nov 06 10:55:05 2015  ---------------




---------------  RELOAD CELLS TMP  Fri Nov 06 10:55:05 2015  ---------------


ANT1                            BT_invF_small_flipped             BT_invF_small_flipped           


---------------    Fri Nov 06 10:55:05 2015  ---------------




---------------    Fri Nov 06 10:55:05 2015  ---------------




---------------  RELOAD CELLS  Fri Nov 06 12:54:35 2015  ---------------




---------------    Fri Nov 06 12:54:35 2015  ---------------




---------------  RELOAD CELLS  Fri Nov 06 12:56:39 2015  ---------------




---------------    Fri Nov 06 12:56:39 2015  ---------------




---------------  RELOAD CELLS  Fri Nov 06 12:59:33 2015  ---------------




---------------    Fri Nov 06 12:59:33 2015  ---------------




---------------  RELOAD CELLS  Fri Nov 06 13:00:15 2015  ---------------




---------------    Fri Nov 06 13:00:15 2015  ---------------




---------------  RELOAD CELLS  Fri Nov 06 13:15:59 2015  ---------------




---------------    Fri Nov 06 13:15:59 2015  ---------------


