=======================================================================
PADS Professional Layout - Version 2015.0.678.963
=======================================================================

RELOAD CELLS

Job Directory:  C:\Users\john.timothy\Desktop\LHBT120Main\PCB\


Design Units:(mm)

Replace Cell Log:   repCellLog51.txt

Thu May 12 12:15:03 2016

Reference Designator            Cell Name                         New Cell Name
===============================================================================


---------------  RELOAD CELLS  Thu May 12 12:15:03 2016  ---------------




---------------  RELOAD CELLS TMP  Thu May 12 12:15:03 2016  ---------------


R48                             0201                              0201                            
D1                              C19HE1WT                          C19HE1WT                        


---------------    Thu May 12 12:15:03 2016  ---------------




---------------    Thu May 12 12:15:03 2016  ---------------




---------------    Thu May 12 12:17:31 2016  ---------------


