[2016.12.15 10:29:28] [0000m.10s.236ms] [0] WELCOME
[2016.12.15 10:29:28] [0000m.10s.236ms] [1] iCDB Database ver.2.200, jmoSXI5tfcQi0m1NxN3JKg, build:5060443 created 2016-08-17 14:30:24, sources stamp:jmoSXI5tfcQi0m1NxN3JKg
[2016.12.15 10:29:28] [0000m.10s.236ms] [1] Copyright 2016 Mentor Graphics Corporation.  All Rights Reserved.
[2016.12.15 10:29:28] [0000m.10s.236ms] [1] Base flow version [VX.2]
[2016.12.15 10:29:28] [0000m.10s.236ms] [1] Install Id [1409847], Flow Id [PADS Professional VX.2], Full Flow Name [PADS Professional VX.2], Exact Access Date [2016/05/01]
[2016.12.15 10:29:28] [0000m.10s.236ms] [1] Machine [PC-P50-JT]  User [john.timothy]  PID [5840]
[2016.12.15 10:29:28] [0000m.10s.236ms] [1] Operating system [Microsoft Enterprise Edition, 64-bit (build 9200)]
[2016.12.15 10:29:28] [0000m.10s.236ms] [1] Current working dir [C:\pd_repo\pd\_COWBOY\_Mentor]
[2016.12.15 10:29:28] [0000m.10s.236ms] [1] PATH [C:\MentorGraphics\PADSProVX.2\SDD_HOME\common\win32\bin;C:\MentorGraphics\PADSProVX.2\SDD_HOME\common\win32\lib;C:\MentorGraphics\PADSProVX.2\MGC_HOME.ixn\bin;C:\MentorGraphics\PADSProVX.2\MGC_HOME.ixn\lib;C:\MentorGraphics\PADSProVX.2\SDD_HOME\wv\win32\bin;C:\Program Files (x86)\CSR\BlueSuite 2.5.8\DFU Tools;C:\Program Files (x86)\NVIDIA Corporation\PhysX\Common;C:\WINDOWS\system32;C:\WINDOWS;C:\WINDOWS\System32\Wbem;C:\WINDOWS\System32\WindowsPowerShell\v1.0\;C:\Program Files (x86)\Skype\Phone\;C:\Program Files\TortoiseSVN\bin;C:\Program Files (x86)\Windows Kits\8.1\Windows Performance Toolkit\;C:\Users\john.timothy\AppData\Local\Microsoft\WindowsApps;]
[2016.12.15 10:29:28] [0000m.10s.236ms] [1] SDD_HOME [C:\MentorGraphics\PADSProVX.2\SDD_HOME] on file system [NTFS]
[2016.12.15 10:29:28] [0000m.10s.236ms] [1] SDD_PLATFORM [win32]
[2016.12.15 10:29:28] [0000m.10s.236ms] [1] WDIR [C:\WDIR\PADSProVX.2;C:\MentorGraphics\PADSProVX.2\SDD_HOME\standard;]
[2016.12.15 10:29:28] [0000m.10s.236ms] [1] Local iCDB working dir [C:\WDIR\PADSProVX.2\iCDB] on file system [NTFS]
[2016.12.15 10:29:28] [0000m.10s.236ms] [3] WARNING: Database [C:\pd_repo\pd\_COWBOY\_Mentor\database\icdb.dat] was manually copied
[2016.12.15 10:29:28] [0000m.10s.236ms] [3] File change time:        [2016-12-13 17.22.34]
[2016.12.15 10:29:28] [0000m.10s.236ms] [3] File modification time:  [2016-12-14 17.21.00]
[2016.12.15 10:29:28] [0000m.10s.236ms] [3] Last change time:        [2016-12-14 17.15.00]
[2016.12.15 10:29:28] [0000m.10s.236ms] [3] Last database open information:
[2016.12.15 10:29:28] [0000m.10s.236ms] [3] Time:             [2016-12-14 17.15.00]
[2016.12.15 10:29:28] [0000m.10s.236ms] [3] Location:         [C:\pd_repo\pd\_COWBOY\_Mentor\database\icdb.dat]
[2016.12.15 10:29:28] [0000m.10s.236ms] [3] Machine:          [PC-P50-JT]
[2016.12.15 10:29:28] [0000m.10s.236ms] [3] User:             [john.timothy]
[2016.12.15 10:29:28] [0000m.10s.236ms] [3] PID:              [17428]
[2016.12.15 10:29:28] [0000m.10s.236ms] [3] Application:      [iCDB Server]
[2016.12.15 10:29:28] [0000m.10s.236ms] [3] Operating system: [Microsoft Enterprise Edition, 64-bit (build 9200)]
[2016.12.15 10:29:28] [0000m.10s.236ms] [3] WARNING: Regenerating database GUID
[2016.12.15 10:29:28] [0000m.10s.236ms] [3] Previous database GUID [fc2e-8583-0384-888d-44eb-b289-4ebb-2850-7906-c264-a27f-6cdd]
[2016.12.15 10:29:28] [0000m.10s.236ms] [3] Current database GUID  [7eea-b33f-d571-68ce-8f2d-258d-f2d2-5850-1910-7cad-7c4c-cc6a]
[2016.12.15 10:29:28] [0000m.10s.236ms] [0] .
