[2016.04.01 14:31:05] [0000m.38s.943ms] [0] WELCOME
[2016.04.01 14:31:05] [0000m.38s.953ms] [1] iCDB Database ver.2.101, 3UDjJHMiCHg78unffLJcEw, build:673008 created 2015-03-11 13:21:12, sources stamp:3UDjJHMiCHg78unffLJcEw
[2016.04.01 14:31:05] [0000m.38s.953ms] [1] Copyright 2015 Mentor Graphics Corporation. All Rights Reserved.
[2016.04.01 14:31:05] [0000m.38s.953ms] [1] Base flow version [VX.1.1]
[2016.04.01 14:31:05] [0000m.38s.953ms] [1] GBS Install Id [43430], Flow Id [PADS-Pro VX.1.1], Full Flow Name [PADS Professional VX.1.1], Exact Access Date [Feb 1 2015]
[2016.04.01 14:31:05] [0000m.38s.953ms] [1] Machine [PC-ENG2LJDFJKDS]  User [branden.sheffield]  PID [6288]
[2016.04.01 14:31:05] [0000m.38s.953ms] [1] Operating system [Microsoft Windows 7 Enterprise Edition, 64-bit Service Pack 1 (build 7601)]
[2016.04.01 14:31:05] [0000m.38s.953ms] [1] Current working dir [C:\Users\branden.sheffield\Documents\HeshBT\Mentor\LHBT120Main]
[2016.04.01 14:31:05] [0000m.38s.953ms] [1] PATH [C:\MentorGraphics\PADSProVX.1.1\SDD_HOME\common\win32\bin;C:\MentorGraphics\PADSProVX.1.1\SDD_HOME\common\win32\lib;C:\MentorGraphics\PADSProVX.1.1\MGC_HOME.ixn\bin;C:\MentorGraphics\PADSProVX.1.1\MGC_HOME.ixn\lib;C:\MentorGraphics\PADSProVX.1.1\SDD_HOME\wv\win32\bin;C:\Program Files (x86)\CSR\BlueSuite 2.5.8\DFU Tools;C:\ProgramData\Oracle\Java\javapath;C:\Program Files (x86)\NVIDIA Corporation\PhysX\Common;C:\Windows\system32;C:\Windows;C:\Windows\System32\Wbem;C:\Windows\System32\WindowsPowerShell\v1.0\;C:\Program Files (x86)\MATLAB\MATLAB Compiler Runtime\v716\runtime\win32;C:\Program Files (x86)\Skype\Phone\]
[2016.04.01 14:31:05] [0000m.38s.953ms] [1] SDD_HOME [C:\MentorGraphics\PADSProVX.1.1\SDD_HOME] on file system [NTFS]
[2016.04.01 14:31:05] [0000m.38s.953ms] [1] SDD_PLATFORM [win32]
[2016.04.01 14:31:05] [0000m.38s.953ms] [1] WDIR [C:\WDIR\PADSProVX.1.1;C:\MentorGraphics\PADSProVX.1.1\SDD_HOME\standard;]
[2016.04.01 14:31:05] [0000m.38s.953ms] [1] Local iCDB working dir [C:\WDIR\PADSProVX.1.1\iCDB] on file system [NTFS]
[2016.04.01 14:31:05] [0000m.38s.953ms] [3] WARNING: Database [C:\Users\branden.sheffield\Documents\HeshBT\Mentor\LHBT120Main\database\icdb.dat] was manually copied
[2016.04.01 14:31:05] [0000m.38s.953ms] [3] File change time:        [2016-04-01 14.05.06]
[2016.04.01 14:31:05] [0000m.38s.953ms] [3] File modification time:  [2016-04-01 10.35.04]
[2016.04.01 14:31:05] [0000m.38s.953ms] [3] Last change time:        [2016-04-01 10.35.04]
[2016.04.01 14:31:05] [0000m.38s.953ms] [3] Last database open information:
[2016.04.01 14:31:05] [0000m.38s.953ms] [3] Time:             [2016-04-01 10.32.38]
[2016.04.01 14:31:05] [0000m.38s.953ms] [3] Location:         [Z:\PRODUCTS\2017\17H01 - Hesh 3\Electrical\LHBT120Main\database\icdb.dat]
[2016.04.01 14:31:05] [0000m.38s.953ms] [3] Machine:          [DESKTOP-7CVSN2U]
[2016.04.01 14:31:05] [0000m.38s.953ms] [3] User:             [john.timothy]
[2016.04.01 14:31:05] [0000m.38s.953ms] [3] PID:              [4296]
[2016.04.01 14:31:05] [0000m.38s.953ms] [3] Application:      [iCDB Server]
[2016.04.01 14:31:05] [0000m.38s.953ms] [3] Operating system: [Microsoft Enterprise Edition, 64-bit (build 9200)]
[2016.04.01 14:31:05] [0000m.38s.953ms] [3] WARNING: Regenerating database GUID
[2016.04.01 14:31:05] [0000m.38s.953ms] [3] Previous database GUID [8517-6eb8-18c6-0338-b92a-ef60-a2ae-f650-4fc9-eab5-b6c1-648b]
[2016.04.01 14:31:05] [0000m.38s.953ms] [3] Current database GUID  [c613-b6fd-bbc2-66e7-98ad-ef6e-8ade-f650-b3b7-d2a5-d626-049c]
[2016.04.01 14:31:05] [0000m.38s.953ms] [0] .
