[2016.08.19 13:39:42] [0000m.21s.650ms] [0] WELCOME
[2016.08.19 13:39:42] [0000m.21s.650ms] [1] iCDB Database ver.2.101, 3UDjJHMiCHg78unffLJcEw, build:673008 created 2015-03-11 13:21:12, sources stamp:3UDjJHMiCHg78unffLJcEw
[2016.08.19 13:39:42] [0000m.21s.650ms] [1] Copyright 2015 Mentor Graphics Corporation. All Rights Reserved.
[2016.08.19 13:39:42] [0000m.21s.650ms] [1] Base flow version [VX.1.1]
[2016.08.19 13:39:42] [0000m.21s.650ms] [1] GBS Install Id [43430], Flow Id [PADS-Pro VX.1.1], Full Flow Name [PADS Professional VX.1.1], Exact Access Date [Feb 1 2015]
[2016.08.19 13:39:42] [0000m.21s.650ms] [1] Machine [DESKTOP-7CVSN2U]  User [john.timothy]  PID [1880]
[2016.08.19 13:39:42] [0000m.21s.650ms] [1] Operating system [Microsoft Enterprise Edition, 64-bit (build 9200)]
[2016.08.19 13:39:42] [0000m.21s.650ms] [1] Current working dir [C:\pd_repo\pd\LHBT120Main]
[2016.08.19 13:39:42] [0000m.21s.650ms] [1] PATH [C:\MentorGraphics\PADSProVX.1.1\SDD_HOME\common\win32\bin;C:\MentorGraphics\PADSProVX.1.1\SDD_HOME\common\win32\lib;C:\MentorGraphics\PADSProVX.1.1\MGC_HOME.ixn\bin;C:\MentorGraphics\PADSProVX.1.1\MGC_HOME.ixn\lib;C:\MentorGraphics\PADSProVX.1.1\SDD_HOME\wv\win32\bin;C:\Program Files (x86)\NVIDIA Corporation\PhysX\Common;C:\Program Files (x86)\CSR\BlueSuite 2.5.8\DFU Tools;C:\Program Files (x86)\Intel\iCLS Client\;C:\Program Files\Intel\iCLS Client\;C:\WINDOWS\system32;C:\WINDOWS;C:\WINDOWS\System32\Wbem;C:\WINDOWS\System32\WindowsPowerShell\v1.0\;C:\Program Files\Intel\Intel(R) Management Engine Components\DAL;C:\Program Files (x86)\Intel\Intel(R) Management Engine Components\DAL;C:\Program Files\Intel\Intel(R) Management Engine Components\IPT;C:\Program Files (x86)\Intel\Intel(R) Management Engine Components\IPT;C:\Program Files (x86)\ATI Technologies\ATI.ACE\Core-Static;C:\Program Files (x86)\MATLAB\MATLAB Compiler Runtime\v716\runtime\win32;C:\Program Files (x86)\Skype\Phone\;C:\Program Files (x86)\Windows Kits\8.1\Windows Performance Toolkit\;C:\Program Files\TortoiseSVN\bin]
[2016.08.19 13:39:42] [0000m.21s.651ms] [1] SDD_HOME [C:\MentorGraphics\PADSProVX.1.1\SDD_HOME] on file system [NTFS]
[2016.08.19 13:39:42] [0000m.21s.651ms] [1] SDD_PLATFORM [win32]
[2016.08.19 13:39:42] [0000m.21s.651ms] [1] WDIR [C:\WDIR\PADSProVX.1.1;C:\MentorGraphics\PADSProVX.1.1\SDD_HOME\standard;]
[2016.08.19 13:39:42] [0000m.21s.651ms] [1] Local iCDB working dir [C:\WDIR\PADSProVX.1.1\iCDB] on file system [NTFS]
[2016.08.19 13:39:42] [0000m.21s.651ms] [3] WARNING: Database [C:\pd_repo\pd\LHBT120Main\database\icdb.dat] was manually copied
[2016.08.19 13:39:42] [0000m.21s.651ms] [3] File change time:        [2016-08-02 10.26.49]
[2016.08.19 13:39:42] [0000m.21s.651ms] [3] File modification time:  [2016-06-14 21.50.30]
[2016.08.19 13:39:42] [0000m.21s.651ms] [3] Last change time:        [2016-06-14 21.50.30]
[2016.08.19 13:39:42] [0000m.21s.651ms] [3] Last database open information:
[2016.08.19 13:39:42] [0000m.21s.651ms] [3] Time:             [2016-06-13 08.01.06]
[2016.08.19 13:39:42] [0000m.21s.651ms] [3] Location:         [C:\Users\branden.sheffield\Documents\HeshBT\Mentor\LHBT120Main\database\icdb.dat]
[2016.08.19 13:39:42] [0000m.21s.651ms] [3] Machine:          [PC-ENG2LJDFJKDS]
[2016.08.19 13:39:42] [0000m.21s.651ms] [3] User:             [branden.sheffield]
[2016.08.19 13:39:42] [0000m.21s.651ms] [3] PID:              [4692]
[2016.08.19 13:39:42] [0000m.21s.651ms] [3] Application:      [iCDB Server]
[2016.08.19 13:39:42] [0000m.21s.651ms] [3] Operating system: [Microsoft Windows 7 Enterprise Edition, 64-bit Service Pack 1 (build 7601)]
[2016.08.19 13:39:42] [0000m.21s.651ms] [3] WARNING: Regenerating database GUID
[2016.08.19 13:39:42] [0000m.21s.651ms] [3] Previous database GUID [4d9f-af28-ec64-57d9-c4ae-a571-5aea-5750-f3e7-d2a5-c636-349c]
[2016.08.19 13:39:42] [0000m.21s.651ms] [3] Current database GUID  [8b3a-f0c6-62ad-bdc1-e706-7b73-8067-b750-8b53-4492-b381-e0a8]
[2016.08.19 13:39:42] [0000m.21s.651ms] [0] .
