[2017.03.20 00:29:41] [0084m.59s.871ms] [1] SC[3114]: Registered sub-client [3DView_19294156] with ID [6] for session ID [3114] host [PC-P50-JT] user [john.timothy] process ID [5428]
[2017.03.20 00:29:41] [0084m.59s.887ms] [1] SC[3114]: UnRegistered sub-client [3DView_19294156] with ID [6] for session ID [3114] host [PC-P50-JT] user [john.timothy] process ID [5428]
[2017.03.20 00:42:48] [0098m.07s.048ms] [1] SC[3114]: UnRegistered sub-client [ExpeditionCrossProber] with ID [5] for session ID [3114] host [PC-P50-JT] user [john.timothy] process ID [5428]
[2017.03.20 00:42:50] [0098m.09s.294ms] [1] SC[3114]: UnRegistered sub-client [Expedition PE_14969578] with ID [1] for session ID [3114] host [PC-P50-JT] user [john.timothy] process ID [5428]
[2017.03.20 00:42:50] [0098m.09s.389ms] [1] CMT: Removed client [3114]
[2017.03.20 00:42:50] [0098m.09s.389ms] [1] CMT: There are [1] clients now: 3113
[2017.03.20 00:44:22] [0099m.41s.214ms] [1] SC[3113]: Registered sub-client [Dx2Exp_20175500] with ID [39] for session ID [3113] host [PC-P50-JT] user [john.timothy] process ID [8640]
[2017.03.20 00:44:22] [0099m.41s.214ms] [1] SC[3113]: UnRegistered sub-client [Dx2Exp_20175500] with ID [39] for session ID [3113] host [PC-P50-JT] user [john.timothy] process ID [8640]
[2017.03.20 00:45:00] [0100m.18s.815ms] [0] IT: Session [3115] for host [PC-P50-JT] user [john.timothy] with process ID [10692] created
[2017.03.20 00:45:00] [0100m.18s.815ms] [1] SC[3115]: Registered sub-client [Expedition PE_20213093] with ID [1] for session ID [3115] host [PC-P50-JT] user [john.timothy] process ID [10692]
[2017.03.20 00:45:00] [0100m.18s.862ms] [1] CMT: There are [2] clients now: 3113, 3115
[2017.03.20 00:45:00] [0100m.18s.862ms] [1] SC[3115]: Registered sub-client [EEVM_EEVM_383582196] with ID [2] for session ID [3115] host [PC-P50-JT] user [john.timothy] process ID [10692]
[2017.03.20 00:45:00] [0100m.18s.893ms] [1] SC[3115]: UnRegistered sub-client [EEVM_EEVM_383582196] with ID [2] for session ID [3115] host [PC-P50-JT] user [john.timothy] process ID [10692]
[2017.03.20 00:45:00] [0100m.18s.893ms] [1] SC[3115]: Registered sub-client [EEVM_EEVM_383582196] with ID [3] for session ID [3115] host [PC-P50-JT] user [john.timothy] process ID [10692]
[2017.03.20 00:45:00] [0100m.18s.908ms] [1] SC[3115]: UnRegistered sub-client [EEVM_EEVM_383582196] with ID [3] for session ID [3115] host [PC-P50-JT] user [john.timothy] process ID [10692]
[2017.03.20 00:45:00] [0100m.19s.127ms] [1] SC[3115]: Registered sub-client [JobPrefsDBPI_20213406] with ID [4] for session ID [3115] host [PC-P50-JT] user [john.timothy] process ID [10692]
[2017.03.20 00:45:00] [0100m.19s.127ms] [1] SC[3115]: UnRegistered sub-client [JobPrefsDBPI_20213406] with ID [4] for session ID [3115] host [PC-P50-JT] user [john.timothy] process ID [10692]
[2017.03.20 00:45:05] [0100m.24s.201ms] [1] SC[3115]: Registered sub-client [ExpeditionCrossProber] with ID [5] for session ID [3115] host [PC-P50-JT] user [john.timothy] process ID [10692]
[2017.03.20 00:52:04] [0107m.23s.234ms] [1] SC[3115]: UnRegistered sub-client [ExpeditionCrossProber] with ID [5] for session ID [3115] host [PC-P50-JT] user [john.timothy] process ID [10692]
[2017.03.20 00:52:06] [0107m.25s.417ms] [1] SC[3115]: UnRegistered sub-client [Expedition PE_20213093] with ID [1] for session ID [3115] host [PC-P50-JT] user [john.timothy] process ID [10692]
[2017.03.20 00:52:06] [0107m.25s.464ms] [1] CMT: Removed client [3115]
[2017.03.20 00:52:06] [0107m.25s.464ms] [1] CMT: There are [1] clients now: 3113
[2017.03.20 00:52:06] [0107m.25s.620ms] [1] SC[3113]: UnRegistered sub-client [SystemDesignDll] with ID [11] for session ID [3113] host [PC-P50-JT] user [john.timothy] process ID [8640]
[2017.03.20 00:52:07] [0107m.25s.901ms] [1] SC[3113]: UnRegistered sub-client [DesignSearcher2] with ID [12] for session ID [3113] host [PC-P50-JT] user [john.timothy] process ID [8640]
[2017.03.20 00:52:07] [0107m.26s.011ms] [1] SC[3113]: UnRegistered sub-client [GlobalNetAliasUpdater_515795048] with ID [35] for session ID [3113] host [PC-P50-JT] user [john.timothy] process ID [8640]
[2017.03.20 00:52:07] [0107m.26s.011ms] [1] SC[3113]: UnRegistered sub-client [BlockCacheDxD:522359440] with ID [34] for session ID [3113] host [PC-P50-JT] user [john.timothy] process ID [8640]
[2017.03.20 00:52:07] [0107m.26s.011ms] [1] SC[3113]: UnRegistered sub-client [ObjectHolder_515793696] with ID [33] for session ID [3113] host [PC-P50-JT] user [john.timothy] process ID [8640]
[2017.03.20 00:52:07] [0107m.26s.011ms] [1] SC[3113]: UnRegistered sub-client [IcdbNetProcessorSubClientDxD:521825248] with ID [36] for session ID [3113] host [PC-P50-JT] user [john.timothy] process ID [8640]
[2017.03.20 00:52:07] [0107m.26s.089ms] [1] SC[3113]: UnRegistered sub-client [Navigator] with ID [14] for session ID [3113] host [PC-P50-JT] user [john.timothy] process ID [8640]
[2017.03.20 00:52:07] [0107m.26s.089ms] [1] SC[3113]: UnRegistered sub-client [LocalSymbolsDataProvider] with ID [17] for session ID [3113] host [PC-P50-JT] user [john.timothy] process ID [8640]
[2017.03.20 00:52:07] [0107m.26s.089ms] [1] SC[3113]: UnRegistered sub-client [FFSearch_Controller_0] with ID [18] for session ID [3113] host [PC-P50-JT] user [john.timothy] process ID [8640]
[2017.03.20 00:52:07] [0107m.26s.105ms] [1] SC[3113]: UnRegistered sub-client [FFSearch_Controller_1] with ID [19] for session ID [3113] host [PC-P50-JT] user [john.timothy] process ID [8640]
[2017.03.20 00:52:07] [0107m.26s.105ms] [1] SC[3113]: UnRegistered sub-client [FFSearch_Controller_2] with ID [20] for session ID [3113] host [PC-P50-JT] user [john.timothy] process ID [8640]
[2017.03.20 00:52:07] [0107m.26s.105ms] [1] SC[3113]: UnRegistered sub-client [FFSearch_Controller_3] with ID [21] for session ID [3113] host [PC-P50-JT] user [john.timothy] process ID [8640]
[2017.03.20 00:52:07] [0107m.26s.105ms] [1] SC[3113]: UnRegistered sub-client [FFSearch_Controller_4] with ID [22] for session ID [3113] host [PC-P50-JT] user [john.timothy] process ID [8640]
[2017.03.20 00:52:08] [0107m.26s.667ms] [1] SC[3113]: UnRegistered sub-client [MyParts] with ID [26] for session ID [3113] host [PC-P50-JT] user [john.timothy] process ID [8640]
[2017.03.20 00:52:08] [0107m.26s.667ms] [1] SC[3113]: UnRegistered sub-client [toolboxes] with ID [28] for session ID [3113] host [PC-P50-JT] user [john.timothy] process ID [8640]
[2017.03.20 00:52:09] [0107m.28s.183ms] [1] SC[3113]: UnRegistered sub-client [SelectionHolder] with ID [5] for session ID [3113] host [PC-P50-JT] user [john.timothy] process ID [8640]
[2017.03.20 00:52:09] [0107m.28s.183ms] [1] SC[3113]: UnRegistered sub-client [PartReplaceUtils] with ID [32] for session ID [3113] host [PC-P50-JT] user [john.timothy] process ID [8640]
[2017.03.20 00:52:10] [0107m.29s.308ms] [1] SC[3113]: UnRegistered sub-client [ProjectIntegrationIcdbCacheDxD:273296432] with ID [29] for session ID [3113] host [PC-P50-JT] user [john.timothy] process ID [8640]
[2017.03.20 00:52:10] [0107m.29s.308ms] [1] SC[3113]: UnRegistered sub-client [SheetConnectorsCacheDxD:1489986304] with ID [30] for session ID [3113] host [PC-P50-JT] user [john.timothy] process ID [8640]
[2017.03.20 00:52:10] [0107m.29s.308ms] [1] SC[3113]: UnRegistered sub-client [NetsNamesCollectorDxD:1489986304] with ID [31] for session ID [3113] host [PC-P50-JT] user [john.timothy] process ID [8640]
[2017.03.20 00:52:10] [0107m.29s.308ms] [1] SC[3113]: UnRegistered sub-client [TransactionRollbackSubClient] with ID [2] for session ID [3113] host [PC-P50-JT] user [john.timothy] process ID [8640]
[2017.03.20 00:52:10] [0107m.29s.308ms] [1] SC[3113]: UnRegistered sub-client [DxD] with ID [1] for session ID [3113] host [PC-P50-JT] user [john.timothy] process ID [8640]
[2017.03.20 00:52:10] [0107m.29s.324ms] [1] SC[3113]: UnRegistered sub-client [xprob] with ID [3] for session ID [3113] host [PC-P50-JT] user [john.timothy] process ID [8640]
[2017.03.20 00:52:10] [0107m.29s.324ms] [1] SC[3113]: UnRegistered sub-client [SymbolEditor] with ID [4] for session ID [3113] host [PC-P50-JT] user [john.timothy] process ID [8640]
[2017.03.20 00:52:10] [0107m.29s.339ms] [1] SC[3113]: UnRegistered sub-client [OutputWindow] with ID [15] for session ID [3113] host [PC-P50-JT] user [john.timothy] process ID [8640]
[2017.03.20 00:52:10] [0107m.29s.355ms] [1] SC[3113]: UnRegistered sub-client [DxDbSearch] with ID [37] for session ID [3113] host [PC-P50-JT] user [john.timothy] process ID [8640]
[2017.03.20 00:52:10] [0107m.29s.386ms] [1] SC[3113]: UnRegistered sub-client [SAE] with ID [23] for session ID [3113] host [PC-P50-JT] user [john.timothy] process ID [8640]
[2017.03.20 00:52:10] [0107m.29s.402ms] [1] SC[3113]: UnRegistered sub-client [CCZAddin] with ID [24] for session ID [3113] host [PC-P50-JT] user [john.timothy] process ID [8640]
[2017.03.20 00:52:10] [0107m.29s.402ms] [1] SC[3113]: UnRegistered sub-client [DxThumbnails] with ID [25] for session ID [3113] host [PC-P50-JT] user [john.timothy] process ID [8640]
[2017.03.20 00:52:12] [0107m.31s.102ms] [1] SC[3113]: UnRegistered sub-client [PinsList] with ID [27] for session ID [3113] host [PC-P50-JT] user [john.timothy] process ID [8640]
[2017.03.20 00:52:12] [0107m.31s.134ms] [1] SC[3113]: UnRegistered sub-client [PlaceDevice] with ID [16] for session ID [3113] host [PC-P50-JT] user [john.timothy] process ID [8640]
[2017.03.20 00:52:12] [0107m.31s.149ms] [1] SC[3113]: UnRegistered sub-client [HdlProject] with ID [13] for session ID [3113] host [PC-P50-JT] user [john.timothy] process ID [8640]
[2017.03.20 00:52:12] [0107m.31s.165ms] [1] CMT: Removed client [3113]
[2017.03.20 00:52:12] [0107m.31s.165ms] [1] CMT: There are no clients left - waiting [1 seconds]
[2017.03.20 00:52:12] [0107m.31s.540ms] [1] SDL: The last connected iCDB Server Monitor [1] is waiting for server close
[2017.03.20 00:52:14] [0107m.32s.697ms] [0] CMT: Starting server auto-close
[2017.03.20 00:52:14] [0107m.32s.806ms] [0] S: Closing server
[2017.03.20 00:52:14] [0107m.32s.962ms] [0] iCDB Server PI: Closing plugins
[2017.03.20 00:52:14] [0107m.32s.962ms] [0] iCDB Server PI: Plugins closed
[2017.03.20 00:52:14] [0107m.32s.962ms] [0] iCDB Server PI: Unloading database
[2017.03.20 00:52:14] [0107m.32s.962ms] [0] iCDB Server PI: Saving storage
[2017.03.20 00:52:14] [0107m.32s.962ms] [0] iCDB Server PI: Closing database
[2017.03.20 00:52:14] [0107m.32s.962ms] [1] Hole: zero line at 613308 of size 16 bytes.
[2017.03.20 00:52:14] [0107m.32s.962ms] [1] iCDB Server PI: Stats: Database defragmentation: max[1] avg[1] holes[13%] data[98%]
[2017.03.20 00:52:14] [0107m.32s.962ms] [1] iCDB Server PI: Stats: Database file size [613376 (599.0 kB)]
[2017.03.20 00:52:14] [0107m.32s.962ms] [1] Hole: zero line at 613308 of size 16 bytes.
[2017.03.20 00:52:14] [0107m.32s.978ms] [0] iCDB Server PI: Database closed
[2017.03.20 00:52:14] [0107m.32s.978ms] [1] iCDB Server PI: Stats: Total iCDB execution time: [1149] ticks
[2017.03.20 00:52:14] [0107m.32s.978ms] [1] iCDB Server PI: Stats: Total iCDB execution time: [419] microseconds
[2017.03.20 00:52:14] [0107m.32s.978ms] [1] iCDB Server PI: Stats: Total iCDB commands count: [13]
[2017.03.20 00:52:14] [0107m.32s.978ms] [1] iCDB Server PI: Stats: Average iCDB speed:        [31025] commands per second
[2017.03.20 00:52:14] [0107m.32s.978ms] [0] Single file [C:\pd_repo\pd\_COWBOY\_Mentor\database\icdb.dat] closed with size [613376 (599.0 kB)]
[2017.03.20 00:52:14] [0107m.33s.025ms] [1] SD[1]: Removing the last connected iCDB Server Monitor [1]
[2017.03.20 00:52:14] [0107m.33s.244ms] [0] MWT: Destroy the shutdown block reason.
[2017.03.20 00:52:14] [0107m.33s.244ms] [0] MWT: STOP
[2017.03.20 00:52:14] [0107m.33s.244ms] [0] S: STOP
