
                                   DrillImport
                                   -----------

                       01:48 AM Sunday, February 07, 2016
Job Name: C:\Users\branden.sheffield\Documents\Crusher3.0\Mentor\CrusherMain\PCB\Main.pcb

    Drill Preferences File "C:\Users\branden.sheffield\Documents\Crusher3.0\Mentor\CrusherMain\PCB\Config\DrillPreferences.hkp" loaded successfully.
    
