
                                PLANES PROCESSOR
                                ----------------

                     04:31 PM Wednesday, September 23, 2015
Job Name: C:\Users\branden.sheffield\Documents\Crusher3.0\Mentor\CrusherMain\PCB\Main.pcb

