=======================================================================
PADS Professional Layout - Version 116.0.506.1217
=======================================================================

RELOAD CELLS

Job Directory:  C:\pd_repo\pd\_COWBOY\_Mentor\PCB\


Design Units:(mm)

Replace Cell Log:   repCellLog69.txt

Wed Nov 16 20:03:19 2016

Reference Designator            Cell Name                         New Cell Name
===============================================================================


---------------  RELOAD CELLS  Wed Nov 16 20:03:19 2016  ---------------




---------------  RELOAD CELLS TMP  Wed Nov 16 20:03:19 2016  ---------------


D17                             SOD-323                           SOD-323                         
D18                             SOD-323                           SOD-323                         


---------------    Wed Nov 16 20:03:19 2016  ---------------




---------------    Wed Nov 16 20:03:19 2016  ---------------


