=======================================================================
PADS Professional Layout - Version 116.0.506.1217
=======================================================================

RELOAD CELLS

Job Directory:  C:\pd_repo\pd\_COWBOY\_Mentor\PCB\


Design Units:(mm)

Replace Cell Log:   repCellLog95.txt

Mon Mar 20 23:41:37 2017

Reference Designator            Cell Name                         New Cell Name
===============================================================================


---------------  RELOAD CELLS  Mon Mar 20 23:41:37 2017  ---------------




---------------    Mon Mar 20 23:41:37 2017  ---------------


