=======================================================================
PADS Professional Layout - Version 116.0.506.1217
=======================================================================

RELOAD CELLS

Job Directory:  C:\pd_repo\pd\_COWBOY\_Mentor\PCB\


Design Units:(mm)

Replace Cell Log:   repCellLog93.txt

Thu Mar 09 19:32:18 2017

Reference Designator            Cell Name                         New Cell Name
===============================================================================


---------------  RELOAD CELLS  Thu Mar 09 19:32:18 2017  ---------------




---------------    Thu Mar 09 19:32:18 2017  ---------------


