=======================================================================
PADS Professional Layout - Version 2015.0.678.963
=======================================================================

RELOAD CELLS

Job Directory:  C:\Users\john.timothy\Desktop\LHBT120Main\PCB\


Design Units:(mm)

Replace Cell Log:   repCellLog52.txt

Thu May 12 14:21:06 2016

Reference Designator            Cell Name                         New Cell Name
===============================================================================


---------------  RELOAD CELLS  Thu May 12 14:21:06 2016  ---------------




---------------    Thu May 12 14:21:06 2016  ---------------


