=======================================================================
PADS Professional Layout - Version 116.0.506.1217
=======================================================================

RELOAD CELLS

Job Directory:  C:\pd_repo\pd\_COWBOY\_Mentor\PCB\


Design Units:(mm)

Replace Cell Log:   repCellLog86.txt

Wed Jan 04 19:20:54 2017

Reference Designator            Cell Name                         New Cell Name
===============================================================================


---------------  RELOAD CELLS  Wed Jan 04 19:20:54 2017  ---------------




---------------    Wed Jan 04 19:20:54 2017  ---------------




---------------    Wed Jan 04 19:21:40 2017  ---------------




---------------    Wed Jan 04 19:21:49 2017  ---------------


