=======================================================================
PADS Professional Layout - Version 2015.0.678.963
=======================================================================

RELOAD CELLS

Job Directory:  C:\Users\branden.sheffield\Documents\Crusher3.0\Mentor\CrusherMain\PCB\


Design Units:(mm)

Replace Cell Log:   repCellLog31.txt

Fri Feb 05 15:21:56 2016

Reference Designator            Cell Name                         New Cell Name
===============================================================================


---------------  RELOAD CELLS  Fri Feb 05 15:21:56 2016  ---------------




---------------  RELOAD CELLS TMP  Fri Feb 05 15:21:56 2016  ---------------


R60                             BOURNS,Slide,Pot,3721P            BOURNS,Slide,Pot,3721P          


---------------    Fri Feb 05 15:21:56 2016  ---------------




---------------    Fri Feb 05 15:21:56 2016  ---------------




---------------    Fri Feb 05 23:37:38 2016  ---------------




---------------    Fri Feb 05 23:37:38 2016  ---------------




---------------    Fri Feb 05 23:37:38 2016  ---------------




---------------    Fri Feb 05 23:37:45 2016  ---------------




---------------    Fri Feb 05 23:37:45 2016  ---------------




---------------    Fri Feb 05 23:37:45 2016  ---------------




---------------    Fri Feb 05 23:37:52 2016  ---------------




---------------    Fri Feb 05 23:37:52 2016  ---------------




---------------    Fri Feb 05 23:49:00 2016  ---------------


