=======================================================================
PADS Professional Layout - Version 2015.0.678.963
=======================================================================

RELOAD CELLS

Job Directory:  C:\Users\branden.sheffield\Documents\HeshBT\Mentor\LHBT120Main\PCB\


Design Units:(mm)

Replace Cell Log:   repCellLog39.txt

Wed Apr 27 14:07:09 2016

Reference Designator            Cell Name                         New Cell Name
===============================================================================


---------------  RELOAD CELLS  Wed Apr 27 14:07:09 2016  ---------------




---------------    Wed Apr 27 14:07:09 2016  ---------------




---------------    Wed Apr 27 14:07:19 2016  ---------------




---------------    Wed Apr 27 14:07:41 2016  ---------------


