=======================================================================
PADS Professional Layout - Version 2015.0.678.963
=======================================================================

Job Directory:    C:\Users\john.timothy\Desktop\LHBT120Main\PCB\


Design Units:(mm)

Test Point Log:   C:\Users\john.timothy\Desktop\LHBT120Main\PCB\LogFiles\testptlog_04.txt

Wed May 11 10:18:09 2016

Net Name        Ref                  X          Y     Side    Location        Operation Result
==============================================================================================
1V35            TP12                -12.21       1.89 Bottom  Hanger          Delete              
1V35            TP12                -12.21       1.89 Bottom  Hanger          Delete              
