$HEADER$
BOARD_TYPE PCB_DESIGN
UNITS MM
$END HEADER$

$PART_SECTION_BEGIN$
C62                              cap_0402                         0.00       3.77       -35.86     TOP        NO
C63                              cap_0402                         0.00       -9.53      -19.78     TOP        NO
C64                              cap_0402                         0.00       -12.30     -18.49     TOP        NO
R61                              res_0402                         90.00      0.09       -15.34     TOP        NO
C65                              cap_0402                         90.00      12.35      -0.71      TOP        NO
R62                              res_0402                         0.00       5.94       -14.61     TOP        NO
R63                              res_0402                         270.00     4.14       17.94      TOP        NO
R64                              res_0402                         180.00     5.70       5.41       TOP        NO
R65                              res_0402                         0.00       8.77       -14.43     TOP        NO
R66                              res_0402                         180.00     -5.78      -0.89      TOP        NO
R67                              res_0402                         90.00      2.39       11.76      TOP        NO
TP11                             TP1.5                            0.00       -11.98     -33.14     TOP        NO
R70                              res_0402                         180.00     -5.79      0.21       TOP        NO
R68                              res_0402                         0.00       2.81       13.05      TOP        NO
R101                             res_0805                         180.00     20.98      -2.58      TOP        NO
R71                              res_0402                         0.00       -7.74      -6.12      TOP        NO
R69                              res_0402                         90.00      -4.03      2.19       TOP        NO
TP61                             TP1.5                            0.00       0.45       18.36      BOTTOM     YES
TP71                             TP2                              0.00       1.16       -20.75     BOTTOM     YES
TP59                             TP1.5                            180.00     -7.17      18.38      BOTTOM     YES
TP81                             TP1.5                            180.00     -9.42      -4.83      TOP        NO
SW1                              TS033W1-N35F-03                  77.00      26.97      -15.21     TOP        NO
TP69                             TP2                              0.00       -11.18     -16.71     BOTTOM     YES
TP91                             TP1.5                            0.00       0.45       18.36      TOP        NO
SW2                              TS033W1-N35F-03                  40.50      17.66      -32.12     TOP        NO
R80                              res_0402                         180.00     18.57      -20.53     TOP        NO
SW3                              TS033W1-N35F-03                  62.50      23.21      -24.96     TOP        NO
R81                              res_0402                         90.00      23.19      -13.22     TOP        NO
R79                              res_0402                         0.00       12.08      -16.31     TOP        NO
TP89                             TP1.5                            0.00       -7.17      18.39      TOP        NO
R82                              res_0402                         90.00      9.51       1.30       TOP        NO
R83                              res_0402                         0.00       -7.12      -21.92     TOP        NO
C91                              cap_0603                         270.00     13.92      -20.75     TOP        NO
C92                              cap_0402                         180.00     18.52      -17.78     TOP        NO
C93                              cap_0603                         90.00      21.41      0.16       TOP        NO
R91                              res_0402                         180.00     14.05      -17.96     TOP        NO
R92                              res_0402                         180.00     14.05      -18.93     TOP        NO
R93                              res_0402                         180.00     20.53      -19.98     TOP        NO
R94                              res_0402                         0.00       20.47      -17.22     TOP        NO
R95                              res_0402                         180.00     18.53      -18.67     TOP        NO
R96                              res_0402                         180.00     16.24      -20.11     TOP        NO
R97                              res_0402                         0.00       16.24      -20.97     TOP        NO
R98                              res_0402                         90.00      16.58      -16.10     TOP        NO
R99                              res_0402                         0.00       20.18      -15.68     TOP        NO
TP12                             TP1.5                            0.00       0.45       14.77      BOTTOM     YES
TP32                             TP2                              0.00       -11.70     -13.76     BOTTOM     YES
TP62                             TP1.5                            0.00       1.17       -28.49     BOTTOM     YES
TP72                             TP2                              0.00       6.52       -20.74     BOTTOM     YES
TP82                             TP1.5                            0.00       -7.17      14.78      BOTTOM     YES
TP92                             TP1.5                            0.00       -7.17      14.79      TOP        NO
ANT1                             BT_invF_small                    0.00       9.66       24.29      TOP        NO
TP13                             TP1.5                            0.00       -9.71      14.77      TOP        NO
TP63                             TP1.5                            0.00       -12.26     18.38      BOTTOM     YES
TP73                             TP2                              0.00       -12.21     3.50       TOP        NO
TP83                             TP1                              0.00       26.40      -18.53     TOP        NO
TP93                             TP1.5                            0.00       0.44       14.77      TOP        NO
FB1                              bead_0402                        180.00     7.97       -35.84     TOP        NO
FB2                              bead_0402                        180.00     3.92       -33.53     TOP        NO
FB3                              bead_0402                        270.00     2.98       -16.07     TOP        NO
FB4                              bead_0402                        270.00     3.99       -16.08     TOP        NO
FB5                              bead_0402                        270.00     -15.07     -20.45     TOP        NO
TP14                             TP1.5                            0.00       21.94      7.05       TOP        NO
TP34                             TP2                              0.00       -11.69     -13.73     TOP        NO
TP84                             TP1                              0.00       13.85      -33.40     TOP        NO
TP15                             TP1.5                            0.00       1.12       -25.41     BOTTOM     YES
TP55                             TP1.5                            0.00       -12.27     18.38      TOP        NO
TP65                             TP1.5                            0.00       -9.72      14.77      BOTTOM     YES
TP75                             TP1.5                            0.00       10.18      -20.73     BOTTOM     YES
TP85                             TP1                              0.00       19.83      -27.42     TOP        NO
TP95                             TP1.5                            0.00       -14.83     18.36      TOP        NO
C1                               cap_0402                         270.00     12.89      1.36       TOP        NO
D1                               CUS520                           180.00     11.67      -11.81     TOP        NO
L1                               ind_0603                         90.00      14.23      0.91       TOP        NO
Q1                               RE1C002UN                        90.00      13.97      -16.30     TOP        NO
R1                               res_0402                         90.00      5.88       13.62      TOP        NO
U1                               CSR8635                          270.00     13.80      7.66       TOP        NO
Y1                               TSX-3225                         0.00       5.40       10.76      TOP        NO
C2                               cap_0402                         270.00     15.76      1.40       TOP        NO
D2                               C19HE1WT                         0.00       28.37      -7.80      TOP        NO
TP56                             TP1.5                            180.00     -9.72      18.37      BOTTOM     YES
L2                               ind_0603                         180.00     19.10      2.04       TOP        NO
Q2                               RE1C002UN                        90.00      18.22      -16.18     TOP        NO
R2                               res_0402                         90.00      -2.62      -1.98      TOP        NO
TP76                             TP1.5                            0.00       -2.49      -20.74     TOP        NO
U2                               SGM4917                          270.00     3.24       -12.73     TOP        NO
TP86                             TP1.5                            0.00       -9.72      18.38      TOP        NO
FL1                              LFB21_0805                       90.00      12.61      14.69      TOP        NO
C3                               cap_0402                         270.00     16.63      1.53       TOP        NO
CONN1                            uUSB_1050171001                  0.00       5.39       -39.83     TOP        NO
Q3                               RZM001P02                        0.00       20.50      -18.61     TOP        NO
R3                               res_0402                         0.00       -8.23      -15.87     TOP        NO
U3                               W25Q16DW_BY                      0.00       -2.56      8.65       TOP        NO
C4                               cap_0402                         270.00     14.42      -1.41      TOP        NO
Q4                               RZM001P02                        0.00       16.21      -18.13     TOP        NO
U4                               BAT54C                           0.00       -6.87      -8.39      TOP        NO
C5                               cap_0402                         90.00      8.72       13.83      TOP        NO
Q5                               DMN1019USN-13                    270.00     -5.15      -3.35      TOP        NO
R5                               res_0402                         0.00       -0.09      7.41       TOP        NO
TP27                             TP2                              0.00       1.16       -20.73     TOP        NO
C6                               cap_0402                         90.00      9.58       13.83      TOP        NO
TP57                             TP1.5                            180.00     -2.09      18.37      BOTTOM     YES
TP67                             TP1.5                            0.00       10.17      -20.73     TOP        NO
Q6                               RE1C002UN                        90.00      -9.43      -21.42     TOP        NO
R6                               res_0402                         0.00       -0.11      10.03      TOP        NO
TP77                             TP1.5                            0.00       -2.50      -20.74     BOTTOM     YES
U6                               BAT54C                           180.00     -6.46      2.78       TOP        NO
TP87                             TP1.5                            0.00       -2.09      18.38      TOP        NO
C10                              cap_0402                         270.00     11.49      1.33       TOP        NO
C7                               cap_0402                         270.00     19.28      0.36       TOP        NO
D10                              ESD_BI_0402                      0.00       23.87      -6.46      TOP        NO
D7                               ESD_BI_0402                      180.00     -9.07      -12.46     TOP        NO
C11                              cap_0402                         0.00       19.82      8.55       TOP        NO
D11                              ESD_BI_0402                      270.00     -8.99      -29.90     TOP        NO
C12                              cap_0402                         180.00     19.72      12.71      TOP        NO
D12                              ESD_BI_0402                      90.00      -0.71      -36.09     TOP        NO
L7                               ind_0402                         180.00     -9.07      -13.73     TOP        NO
TP1                              TP1.5                            0.00       -14.83     18.36      BOTTOM     YES
C13                              cap_0402                         0.00       10.10      21.10      TOP        NO
D13                              ESD_BI_0402                      180.00     19.91      -23.06     TOP        NO
Q7                               BCX51                            180.00     14.94      -6.48      TOP        NO
R10                              res_0402                         0.00       -1.09      11.61      TOP        NO
R7                               res_0402                         0.00       -0.10      8.28       TOP        NO
TP2                              TP2                              0.00       -12.22     10.09      TOP        NO
D14                              ESD_BI_0402                      180.00     12.73      -31.89     TOP        NO
U10                              3_5mm_EJ361D6A_cowboy            90.00      -5.00      -41.48     TOP        NO
U7                               FDV301N                          0.00       -13.38     -3.10      TOP        NO
R11                              res_0402                         0.00       25.58      -6.13      TOP        NO
TP3                              TP2                              0.00       -12.22     6.80       TOP        NO
C15                              cap_0402                         90.00      25.19      -11.71     TOP        NO
D15                              ESD_BI_0402                      180.00     22.76      -15.68     TOP        NO
TP4                              TP1.5                            0.00       1.11       -25.41     TOP        NO
R12                              res_0402                         0.00       25.58      -7.82      TOP        NO
C16                              cap_0402                         0.00       2.97       -9.53      TOP        NO
D16                              ESD_BI_0402                      0.00       -5.49      -28.42     TOP        NO
L14                              ind_0402                         0.00       10.10      23.71      TOP        NO
TP5                              TP1.5                            0.00       1.15       -28.49     TOP        NO
R13                              res_0402                         0.00       25.58      -8.70      TOP        NO
C17                              cap_0402                         90.00      4.77       -9.77      TOP        NO
D17                              CUS520                           180.00     -12.82     -20.03     TOP        NO
TP6                              TP1                              0.00       17.13      -12.49     TOP        NO
R14                              res_0402                         90.00      4.86       15.12      TOP        NO
C18                              cap_0402                         90.00      1.46       -9.81      TOP        NO
C20                              cap_0603                         270.00     -0.84      -10.65     TOP        NO
C8                               cap_0402                         0.00       14.68      13.05      TOP        NO
D20                              ESD_BI_0402                      270.00     6.04       -33.44     TOP        NO
D8                               ESD_BI_0402                      0.00       23.47      -9.02      TOP        NO
D18                              CUS520                           180.00     20.06      14.01      TOP        NO
R15                              res_0402                         180.00     24.97      -9.89      TOP        NO
TP7                              TP1                              0.00       22.48      -17.00     TOP        NO
C21                              cap_0603                         270.00     8.70       -12.34     TOP        NO
C19                              cap_0402                         90.00      7.39       13.58      TOP        NO
D19                              ESD_BI_0402                      180.00     7.97       -34.74     TOP        NO
R16                              res_0402                         270.00     -6.70      -27.01     TOP        NO
C22                              cap_0603                         270.00     7.30       -10.09     TOP        NO
TP9                              TP2                              0.00       -11.18     -16.72     TOP        NO
R17                              res_0402                         180.00     -6.27      -24.73     TOP        NO
C23                              cap_0603                         270.00     -2.31      -12.99     TOP        NO
R18                              res_0402                         180.00     -10.69     -2.48      TOP        NO
R8                               res_0402                         0.00       -0.11      9.16       TOP        NO
C24                              cap_0402                         90.00      10.56      14.95      TOP        NO
R19                              res_0201                         90.00      10.84      13.23      TOP        NO
C25                              cap_0402                         90.00      4.00       15.12      TOP        NO
C26                              cap_0402                         90.00      -3.00      11.24      TOP        NO
C27                              cap_0402                         180.00     19.82      10.83      TOP        NO
C28                              cap_0402                         0.00       -4.28      -26.59     TOP        NO
C30                              cap_0402                         180.00     19.82      9.85       TOP        NO
C9                               cap_0402                         0.00       15.40      13.91      TOP        NO
D9                               ESD_BI_0402                      0.00       23.87      -7.94      TOP        NO
C29                              cap_0603                         0.00       12.71      -30.49     TOP        NO
C31                              cap_0402                         0.00       -9.08      -14.75     TOP        NO
C32                              cap_0402                         270.00     17.63      0.55       TOP        NO
C33                              cap_0402                         90.00      17.29      13.42      TOP        NO
TP10                             TP1.5                            0.00       -11.98     -30.64     TOP        NO
R9                               res_0402                         90.00      -4.55      9.32       TOP        NO
R100                             res_1210                         270.00     19.54      -6.36      TOP        NO
U9                               BAT54C                           90.00      20.01      -12.75     TOP        NO
TP28                             TP2                              0.00       6.52       -20.73     TOP        NO
TP60                             TP1.5                            90.00      -12.26     14.77      BOTTOM     YES
TP58                             TP1.5                            180.00     -4.63      18.37      BOTTOM     YES
TP90                             TP1.5                            0.00       -12.26     14.78      TOP        NO
TP78                             TP1.5                            0.00       -9.66      -35.64     TOP        NO
TP88                             TP1.5                            0.00       -4.63      18.38      TOP        NO
C46                              cap_0402                         270.00     2.11       -15.56     TOP        NO
C50                              cap_0402                         0.00       6.08       -18.50     TOP        NO
R45                              res_0402                         180.00     6.55       -12.56     TOP        NO
R46                              res_0402                         180.00     6.56       -13.49     TOP        NO
R47                              res_0402                         0.00       -0.34      -12.88     TOP        NO
R50                              res_0402                         90.00      6.13       -10.50     TOP        NO
R48                              res_0402                         0.00       -0.33      -13.81     TOP        NO
R49                              res_0402                         90.00      0.40       -11.28     TOP        NO
R52                              res_0402                         0.00       22.58      -18.78     TOP        NO
R53                              res_0402                         0.00       22.58      -19.68     TOP        NO
R54                              res_0402                         270.00     -0.61      -33.45     TOP        NO
C60                              cap_0402                         180.00     0.94       -18.49     TOP        NO
R55                              res_0402                         270.00     -0.62      -31.13     TOP        NO
C61                              cap_0402                         270.00     9.67       22.39      TOP        NO
$PART_SECTION_END$
