[2016.06.10 10:26:53] [0000m.00s.985ms] [0] WELCOME
[2016.06.10 10:26:53] [0000m.00s.985ms] [1] iCDB Diagnostic ver.2.101, 3UDjJHMiCHg78unffLJcEw, build:673008 created 2015-03-11 13:21:12, sources stamp:3UDjJHMiCHg78unffLJcEw
[2016.06.10 10:26:53] [0000m.00s.985ms] [1] Copyright 2015 Mentor Graphics Corporation. All Rights Reserved.
[2016.06.10 10:26:53] [0000m.00s.985ms] [1] Base flow version [VX.1.1]
[2016.06.10 10:26:53] [0000m.00s.987ms] [1] GBS Install Id [43430], Flow Id [PADS-Pro VX.1.1], Full Flow Name [PADS Professional VX.1.1], Exact Access Date [Feb 1 2015]
[2016.06.10 10:26:53] [0000m.00s.987ms] [1] Machine [PC-ENG2LJDFJKDS]  User [branden.sheffield]  PID [3124]
[2016.06.10 10:26:53] [0000m.00s.987ms] [1] Operating system [Microsoft Windows 7 Enterprise Edition, 64-bit Service Pack 1 (build 7601)]
[2016.06.10 10:26:53] [0000m.00s.987ms] [1] Current working dir [C:\Users\branden.sheffield\Documents\HeshBT\Mentor\LHBT120Main]
[2016.06.10 10:26:53] [0000m.00s.987ms] [1] PATH [C:\MentorGraphics\PADSProVX.1.1\MGC_HOME.ixn\bin;C:\MentorGraphics\PADSProVX.1.1\MGC_HOME.ixn\lib;C:\MentorGraphics\PADSProVX.1.1\SDD_HOME\common\win32\bin;C:\MentorGraphics\PADSProVX.1.1\SDD_HOME\common\win32\lib;C:\MentorGraphics\PADSProVX.1.1\MGC_HOME.ixn\bin;C:\MentorGraphics\PADSProVX.1.1\MGC_HOME.ixn\lib;C:\MentorGraphics\PADSProVX.1.1\SDD_HOME\wv\win32\bin;C:\Program Files (x86)\CSR\BlueSuite 2.5.8\DFU Tools;C:\ProgramData\Oracle\Java\javapath;C:\Program Files (x86)\NVIDIA Corporation\PhysX\Common;C:\Windows\system32;C:\Windows;C:\Windows\System32\Wbem;C:\Windows\System32\WindowsPowerShell\v1.0\;C:\Program Files (x86)\MATLAB\MATLAB Compiler Runtime\v716\runtime\win32;C:\Program Files (x86)\Skype\Phone\;C:\Program Files\TortoiseSVN\bin]
[2016.06.10 10:26:53] [0000m.00s.987ms] [1] SDD_HOME [C:\MentorGraphics\PADSProVX.1.1\SDD_HOME] on file system [NTFS]
[2016.06.10 10:26:53] [0000m.00s.987ms] [1] SDD_PLATFORM [win32]
[2016.06.10 10:26:53] [0000m.00s.987ms] [1] WDIR [C:\WDIR\PADSProVX.1.1;C:\MentorGraphics\PADSProVX.1.1\SDD_HOME\standard;]
[2016.06.10 10:26:53] [0000m.00s.987ms] [1] Local iCDB working dir [C:\WDIR\PADSProVX.1.1\iCDB] on file system [NTFS]
[2016.06.10 10:26:53] [0000m.01s.040ms] [2] Diagnostic: Snapshot: DxD
[2016.06.10 10:26:53] [0000m.01s.040ms] [2] Diagnostic: SnapshotCheck: CDBImplBlock
[2016.06.10 10:26:53] [0000m.01s.040ms] [2] Diagnostic: SnapshotCheck: CDBImplComp
[2016.06.10 10:26:53] [0000m.01s.040ms] [2] Diagnostic: SnapshotCheck: DxDCompView (cached)
[2016.06.10 10:26:53] [0000m.01s.042ms] [2] Diagnostic: DxDCheck: LineDxD
[2016.06.10 10:26:53] [0000m.01s.042ms] [2] Diagnostic: DxDCheck: CircleDxD
[2016.06.10 10:26:53] [0000m.01s.042ms] [2] Diagnostic: DxDCheck: ArcDxD
[2016.06.10 10:26:53] [0000m.01s.042ms] [1] Diagnostic: Warning: {[ArcDxD] [4] } --> UID does not exist
[2016.06.10 10:26:53] [0000m.01s.042ms] [2] Diagnostic: DxDCheck: RectDxD
[2016.06.10 10:26:53] [0000m.01s.042ms] [2] Diagnostic: DxDCheck: TextDxD
[2016.06.10 10:26:53] [0000m.01s.042ms] [2] Diagnostic: SnapshotCheck: CDBImplGroup
[2016.06.10 10:26:53] [0000m.01s.042ms] [2] Diagnostic: SnapshotCheck: CDBImplPin (regular)
[2016.06.10 10:26:53] [0000m.01s.042ms] [2] Diagnostic: SnapshotCheck: AttributesUtility (regular)
[2016.06.10 10:26:53] [0000m.01s.042ms] [2] Diagnostic: SnapshotCheck: CDBImplPin (cached)
[2016.06.10 10:26:53] [0000m.01s.042ms] [2] Diagnostic: SnapshotCheck: AttributesUtility (cached)
[2016.06.10 10:26:53] [0000m.01s.045ms] [1] Diagnostic: Check failed on Snapshot: DxD
[2016.06.10 10:26:53] [0000m.01s.045ms] [2] Diagnostic: Block: Schematic1
[2016.06.10 10:26:53] [0000m.01s.045ms] [2] Diagnostic: BlockCheck: CDBImplNet
[2016.06.10 10:26:53] [0000m.01s.045ms] [2] Diagnostic: BlockCheck: CDBImplBus
[2016.06.10 10:26:53] [0000m.01s.045ms] [2] Diagnostic: BlockCheck: CDBImplPin
[2016.06.10 10:26:53] [0000m.01s.045ms] [2] Diagnostic: BlockCheck: CDBImplPort
[2016.06.10 10:26:53] [0000m.01s.045ms] [2] Diagnostic: BlockCheck: CDBImplComp
[2016.06.10 10:26:53] [0000m.01s.047ms] [2] Diagnostic: BlockCheck: AttributesUtility
[2016.06.10 10:26:53] [0000m.01s.047ms] [2] Diagnostic: BlockCheck: CDBImplBlockViewDxD
[2016.06.10 10:26:53] [0000m.01s.050ms] [2] Diagnostic: BlockViewDxDCheck: CDBImplNetDxD
[2016.06.10 10:26:53] [0000m.01s.050ms] [2] Diagnostic: BlockViewDxDCheck: CDBImplRipperDxD
[2016.06.10 10:26:53] [0000m.01s.050ms] [2] Diagnostic: CesConfigCheck: CesConstraint
[2016.06.10 10:26:53] [0000m.01s.055ms] [2] Diagnostic: CesConfigCheck: CesPin
[2016.06.10 10:26:53] [0000m.01s.057ms] [2] Diagnostic: CesConfigCheck: CesFromTo
[2016.06.10 10:26:53] [0000m.01s.057ms] [2] Diagnostic: CesConfigCheck: CesPhysicalNet
[2016.06.10 10:26:53] [0000m.01s.060ms] [2] Diagnostic: CesConfigCheck: CesPinPair
[2016.06.10 10:26:53] [0000m.01s.060ms] [2] Diagnostic: CesConfigCheck: CesElectricalNet
[2016.06.10 10:26:53] [0000m.01s.060ms] [2] Diagnostic: CesConfigCheck: CesDiffPair
[2016.06.10 10:26:53] [0000m.01s.060ms] [2] Diagnostic: CesConfigCheck: CesComponent
[2016.06.10 10:26:53] [0000m.01s.062ms] [2] Diagnostic: CesConfigCheck: CesPartPin
[2016.06.10 10:26:53] [0000m.01s.062ms] [2] Diagnostic: CesConfigCheck: CesPartPinPair
[2016.06.10 10:26:53] [0000m.01s.062ms] [2] Diagnostic: CesConfigCheck: CesPart
[2016.06.10 10:26:53] [0000m.01s.062ms] [2] Diagnostic: CesConfigCheck: CesDesign
[2016.06.10 10:26:53] [0000m.01s.062ms] [2] Diagnostic: CesConfigCheck: CesLayerClearRule
[2016.06.10 10:26:53] [0000m.01s.062ms] [2] Diagnostic: CesConfigCheck: CesSchemeClearRule
[2016.06.10 10:26:53] [0000m.01s.062ms] [2] Diagnostic: CesConfigCheck: CesViaAssign
[2016.06.10 10:26:53] [0000m.01s.062ms] [2] Diagnostic: CesConfigCheck: CesLayerRule
[2016.06.10 10:26:53] [0000m.01s.062ms] [2] Diagnostic: CesConfigCheck: CesSchemeNetClassRule
[2016.06.10 10:26:53] [0000m.01s.062ms] [2] Diagnostic: CesConfigCheck: CesScheme
[2016.06.10 10:26:53] [0000m.01s.062ms] [2] Diagnostic: CesConfigCheck: CesLayer
[2016.06.10 10:26:53] [0000m.01s.062ms] [2] Diagnostic: CesConfigCheck: CesNetClass
[2016.06.10 10:26:53] [0000m.01s.062ms] [2] Diagnostic: CesConfigCheck: CesClearRule
[2016.06.10 10:26:53] [0000m.01s.062ms] [2] Diagnostic: CesConfigCheck: CesConstraintClass
[2016.06.10 10:26:53] [0000m.01s.062ms] [2] Diagnostic: CesConfigCheck: CesViaSpan
[2016.06.10 10:26:53] [0000m.01s.062ms] [2] Diagnostic: CesConfigCheck: CesGenClear
[2016.06.10 10:26:53] [0000m.01s.062ms] [2] Diagnostic: CesConfigCheck: CesPartTech
[2016.06.10 10:26:53] [0000m.01s.062ms] [2] Diagnostic: CesConfigCheck: CesConstVar
[2016.06.10 10:26:53] [0000m.01s.062ms] [2] Diagnostic: CesConfigCheck: CesC2CClearRule
[2016.06.10 10:26:53] [0000m.01s.062ms] [2] Diagnostic: CesConfigCheck: CesPkgTypeClearRule
[2016.06.10 10:26:53] [0000m.01s.062ms] [2] Diagnostic: CesConfigCheck: CesP2PClearRule
[2016.06.10 10:26:53] [0000m.01s.062ms] [2] Diagnostic: CesConfigCheck: CesParRuleSection
[2016.06.10 10:26:53] [0000m.01s.062ms] [2] Diagnostic: CesConfigCheck: CesParRuleDef
[2016.06.10 10:26:53] [0000m.01s.062ms] [2] Diagnostic: CesConfigCheck: CesNoiseRule
[2016.06.10 10:26:53] [0000m.01s.062ms] [2] Diagnostic: CesConfigCheck: CesGenObj
[2016.06.10 10:26:53] [0000m.01s.062ms] [2] Diagnostic: CesConfigCheck: CesGenCompObj
[2016.06.10 10:26:53] [0000m.01s.062ms] [2] Diagnostic: CesConfigCheck: CesGenObjType
[2016.06.10 10:26:53] [0000m.01s.062ms] [2] Diagnostic: CesConfigCheck: CesVia
[2016.06.10 10:26:53] [0000m.01s.062ms] [2] Diagnostic: CesConfigCheck: CesZAxisLayerRule
[2016.06.10 10:26:53] [0000m.01s.062ms] [2] Diagnostic: CesConfigCheck: CesZAxisClearRule
[2016.06.10 10:26:53] [0000m.01s.062ms] [2] Diagnostic: ConfigCheck: CDBImplComp
[2016.06.10 10:26:53] [0000m.01s.065ms] [2] Diagnostic: ConfigCheck: CDBImplNet
[2016.06.10 10:26:53] [0000m.01s.065ms] [2] Diagnostic: ConfigCheck: CDBImplPin
[2016.06.10 10:26:53] [0000m.01s.065ms] [2] Diagnostic: Snapshot: DxD check finished.
[2016.06.10 10:26:53] [0000m.01s.075ms] [2] Diagnostic: Snapshot: __ise_DxD
[2016.06.10 10:26:53] [0000m.01s.075ms] [2] Diagnostic: SnapshotCheck: CDBImplBlock
[2016.06.10 10:26:53] [0000m.01s.075ms] [2] Diagnostic: SnapshotCheck: CDBImplComp
[2016.06.10 10:26:53] [0000m.01s.075ms] [2] Diagnostic: SnapshotCheck: CDBImplGroup
[2016.06.10 10:26:53] [0000m.01s.075ms] [2] Diagnostic: SnapshotCheck: CDBImplPin (regular)
[2016.06.10 10:26:53] [0000m.01s.075ms] [2] Diagnostic: SnapshotCheck: AttributesUtility (regular)
[2016.06.10 10:26:53] [0000m.01s.075ms] [2] Diagnostic: SnapshotCheck: CDBImplPin (cached)
[2016.06.10 10:26:53] [0000m.01s.075ms] [2] Diagnostic: SnapshotCheck: AttributesUtility (cached)
[2016.06.10 10:26:53] [0000m.01s.075ms] [2] Diagnostic: Snapshot: __ise_DxD check finished.
[2016.06.10 10:26:53] [0000m.01s.080ms] [2] Diagnostic: Snapshot: xIOPT
[2016.06.10 10:26:53] [0000m.01s.080ms] [2] Diagnostic: SnapshotCheck: CDBImplBlock
[2016.06.10 10:26:53] [0000m.01s.080ms] [2] Diagnostic: SnapshotCheck: CDBImplComp
[2016.06.10 10:26:53] [0000m.01s.080ms] [2] Diagnostic: SnapshotCheck: CDBImplGroup
[2016.06.10 10:26:53] [0000m.01s.080ms] [2] Diagnostic: SnapshotCheck: CDBImplPin (regular)
[2016.06.10 10:26:53] [0000m.01s.080ms] [2] Diagnostic: SnapshotCheck: AttributesUtility (regular)
[2016.06.10 10:26:53] [0000m.01s.080ms] [2] Diagnostic: SnapshotCheck: CDBImplPin (cached)
[2016.06.10 10:26:53] [0000m.01s.080ms] [2] Diagnostic: SnapshotCheck: AttributesUtility (cached)
[2016.06.10 10:26:53] [0000m.01s.080ms] [2] Diagnostic: Snapshot: xIOPT check finished.
[2016.06.10 10:26:53] [0000m.01s.095ms] [2] Diagnostic: Snapshot: Main_layout_temp
[2016.06.10 10:26:53] [0000m.01s.095ms] [2] Diagnostic: SnapshotCheck: CDBImplBlock
[2016.06.10 10:26:53] [0000m.01s.095ms] [2] Diagnostic: SnapshotCheck: CDBImplComp
[2016.06.10 10:26:53] [0000m.01s.095ms] [2] Diagnostic: SnapshotCheck: DxDCompView (cached)
[2016.06.10 10:26:53] [0000m.01s.095ms] [2] Diagnostic: DxDCheck: LineDxD
[2016.06.10 10:26:53] [0000m.01s.095ms] [2] Diagnostic: DxDCheck: CircleDxD
[2016.06.10 10:26:53] [0000m.01s.095ms] [2] Diagnostic: DxDCheck: ArcDxD
[2016.06.10 10:26:53] [0000m.01s.095ms] [2] Diagnostic: DxDCheck: RectDxD
[2016.06.10 10:26:53] [0000m.01s.095ms] [2] Diagnostic: DxDCheck: TextDxD
[2016.06.10 10:26:53] [0000m.01s.095ms] [2] Diagnostic: SnapshotCheck: CDBImplGroup
[2016.06.10 10:26:53] [0000m.01s.095ms] [2] Diagnostic: SnapshotCheck: CDBImplPin (regular)
[2016.06.10 10:26:53] [0000m.01s.095ms] [2] Diagnostic: SnapshotCheck: AttributesUtility (regular)
[2016.06.10 10:26:53] [0000m.01s.095ms] [2] Diagnostic: SnapshotCheck: CDBImplPin (cached)
[2016.06.10 10:26:53] [0000m.01s.097ms] [2] Diagnostic: SnapshotCheck: AttributesUtility (cached)
[2016.06.10 10:26:53] [0000m.01s.097ms] [2] Diagnostic: Block: Schematic1
[2016.06.10 10:26:53] [0000m.01s.097ms] [2] Diagnostic: BlockCheck: CDBImplNet
[2016.06.10 10:26:53] [0000m.01s.097ms] [2] Diagnostic: BlockCheck: CDBImplBus
[2016.06.10 10:26:53] [0000m.01s.097ms] [2] Diagnostic: BlockCheck: CDBImplPin
[2016.06.10 10:26:53] [0000m.01s.097ms] [2] Diagnostic: BlockCheck: CDBImplPort
[2016.06.10 10:26:53] [0000m.01s.097ms] [2] Diagnostic: BlockCheck: CDBImplComp
[2016.06.10 10:26:53] [0000m.01s.097ms] [2] Diagnostic: BlockCheck: AttributesUtility
[2016.06.10 10:26:53] [0000m.01s.097ms] [2] Diagnostic: CesConfigCheck: CesConstraint
[2016.06.10 10:26:53] [0000m.01s.100ms] [2] Diagnostic: CesConfigCheck: CesPin
[2016.06.10 10:26:53] [0000m.01s.100ms] [2] Diagnostic: CesConfigCheck: CesFromTo
[2016.06.10 10:26:53] [0000m.01s.100ms] [2] Diagnostic: CesConfigCheck: CesPhysicalNet
[2016.06.10 10:26:53] [0000m.01s.102ms] [2] Diagnostic: CesConfigCheck: CesPinPair
[2016.06.10 10:26:53] [0000m.01s.102ms] [2] Diagnostic: CesConfigCheck: CesElectricalNet
[2016.06.10 10:26:53] [0000m.01s.102ms] [2] Diagnostic: CesConfigCheck: CesDiffPair
[2016.06.10 10:26:53] [0000m.01s.102ms] [2] Diagnostic: CesConfigCheck: CesComponent
[2016.06.10 10:26:53] [0000m.01s.102ms] [2] Diagnostic: CesConfigCheck: CesPartPin
[2016.06.10 10:26:53] [0000m.01s.102ms] [2] Diagnostic: CesConfigCheck: CesPartPinPair
[2016.06.10 10:26:53] [0000m.01s.102ms] [2] Diagnostic: CesConfigCheck: CesPart
[2016.06.10 10:26:53] [0000m.01s.102ms] [2] Diagnostic: CesConfigCheck: CesDesign
[2016.06.10 10:26:53] [0000m.01s.102ms] [2] Diagnostic: CesConfigCheck: CesLayerClearRule
[2016.06.10 10:26:53] [0000m.01s.102ms] [2] Diagnostic: CesConfigCheck: CesSchemeClearRule
[2016.06.10 10:26:53] [0000m.01s.102ms] [2] Diagnostic: CesConfigCheck: CesViaAssign
[2016.06.10 10:26:53] [0000m.01s.102ms] [2] Diagnostic: CesConfigCheck: CesLayerRule
[2016.06.10 10:26:53] [0000m.01s.102ms] [2] Diagnostic: CesConfigCheck: CesSchemeNetClassRule
[2016.06.10 10:26:53] [0000m.01s.102ms] [2] Diagnostic: CesConfigCheck: CesScheme
[2016.06.10 10:26:53] [0000m.01s.102ms] [2] Diagnostic: CesConfigCheck: CesLayer
[2016.06.10 10:26:53] [0000m.01s.102ms] [2] Diagnostic: CesConfigCheck: CesNetClass
[2016.06.10 10:26:53] [0000m.01s.102ms] [2] Diagnostic: CesConfigCheck: CesClearRule
[2016.06.10 10:26:53] [0000m.01s.102ms] [2] Diagnostic: CesConfigCheck: CesConstraintClass
[2016.06.10 10:26:53] [0000m.01s.102ms] [2] Diagnostic: CesConfigCheck: CesViaSpan
[2016.06.10 10:26:53] [0000m.01s.102ms] [2] Diagnostic: CesConfigCheck: CesGenClear
[2016.06.10 10:26:53] [0000m.01s.102ms] [2] Diagnostic: CesConfigCheck: CesPartTech
[2016.06.10 10:26:53] [0000m.01s.102ms] [2] Diagnostic: CesConfigCheck: CesConstVar
[2016.06.10 10:26:53] [0000m.01s.102ms] [2] Diagnostic: CesConfigCheck: CesC2CClearRule
[2016.06.10 10:26:53] [0000m.01s.102ms] [2] Diagnostic: CesConfigCheck: CesPkgTypeClearRule
[2016.06.10 10:26:53] [0000m.01s.102ms] [2] Diagnostic: CesConfigCheck: CesP2PClearRule
[2016.06.10 10:26:53] [0000m.01s.102ms] [2] Diagnostic: CesConfigCheck: CesParRuleSection
[2016.06.10 10:26:53] [0000m.01s.102ms] [2] Diagnostic: CesConfigCheck: CesParRuleDef
[2016.06.10 10:26:53] [0000m.01s.102ms] [2] Diagnostic: CesConfigCheck: CesNoiseRule
[2016.06.10 10:26:53] [0000m.01s.102ms] [2] Diagnostic: CesConfigCheck: CesGenObj
[2016.06.10 10:26:53] [0000m.01s.102ms] [2] Diagnostic: CesConfigCheck: CesGenCompObj
[2016.06.10 10:26:53] [0000m.01s.102ms] [2] Diagnostic: CesConfigCheck: CesGenObjType
[2016.06.10 10:26:53] [0000m.01s.102ms] [2] Diagnostic: CesConfigCheck: CesVia
[2016.06.10 10:26:53] [0000m.01s.102ms] [2] Diagnostic: CesConfigCheck: CesZAxisLayerRule
[2016.06.10 10:26:53] [0000m.01s.102ms] [2] Diagnostic: CesConfigCheck: CesZAxisClearRule
[2016.06.10 10:26:53] [0000m.01s.102ms] [2] Diagnostic: ConfigCheck: CDBImplComp
[2016.06.10 10:26:53] [0000m.01s.102ms] [2] Diagnostic: ConfigCheck: CDBImplNet
[2016.06.10 10:26:53] [0000m.01s.105ms] [2] Diagnostic: ConfigCheck: CDBImplPin
[2016.06.10 10:26:53] [0000m.01s.105ms] [2] Diagnostic: Snapshot: Main_layout_temp check finished.
[2016.06.10 10:26:53] [0000m.01s.117ms] [2] Diagnostic: Snapshot: Main
[2016.06.10 10:26:53] [0000m.01s.117ms] [2] Diagnostic: SnapshotCheck: CDBImplBlock
[2016.06.10 10:26:53] [0000m.01s.117ms] [2] Diagnostic: SnapshotCheck: CDBImplComp
[2016.06.10 10:26:53] [0000m.01s.117ms] [2] Diagnostic: SnapshotCheck: DxDCompView (cached)
[2016.06.10 10:26:53] [0000m.01s.117ms] [2] Diagnostic: DxDCheck: LineDxD
[2016.06.10 10:26:53] [0000m.01s.117ms] [2] Diagnostic: DxDCheck: CircleDxD
[2016.06.10 10:26:53] [0000m.01s.117ms] [2] Diagnostic: DxDCheck: ArcDxD
[2016.06.10 10:26:53] [0000m.01s.117ms] [2] Diagnostic: DxDCheck: RectDxD
[2016.06.10 10:26:53] [0000m.01s.117ms] [2] Diagnostic: DxDCheck: TextDxD
[2016.06.10 10:26:53] [0000m.01s.117ms] [2] Diagnostic: SnapshotCheck: CDBImplGroup
[2016.06.10 10:26:53] [0000m.01s.117ms] [2] Diagnostic: SnapshotCheck: CDBImplPin (regular)
[2016.06.10 10:26:53] [0000m.01s.117ms] [2] Diagnostic: SnapshotCheck: AttributesUtility (regular)
[2016.06.10 10:26:53] [0000m.01s.117ms] [2] Diagnostic: SnapshotCheck: CDBImplPin (cached)
[2016.06.10 10:26:53] [0000m.01s.120ms] [2] Diagnostic: SnapshotCheck: AttributesUtility (cached)
[2016.06.10 10:26:53] [0000m.01s.120ms] [2] Diagnostic: Block: Schematic1
[2016.06.10 10:26:53] [0000m.01s.120ms] [2] Diagnostic: BlockCheck: CDBImplNet
[2016.06.10 10:26:53] [0000m.01s.120ms] [2] Diagnostic: BlockCheck: CDBImplBus
[2016.06.10 10:26:53] [0000m.01s.120ms] [2] Diagnostic: BlockCheck: CDBImplPin
[2016.06.10 10:26:53] [0000m.01s.120ms] [2] Diagnostic: BlockCheck: CDBImplPort
[2016.06.10 10:26:53] [0000m.01s.120ms] [2] Diagnostic: BlockCheck: CDBImplComp
[2016.06.10 10:26:53] [0000m.01s.120ms] [2] Diagnostic: BlockCheck: AttributesUtility
[2016.06.10 10:26:53] [0000m.01s.120ms] [2] Diagnostic: CesConfigCheck: CesConstraint
[2016.06.10 10:26:53] [0000m.01s.120ms] [2] Diagnostic: CesConfigCheck: CesPin
[2016.06.10 10:26:53] [0000m.01s.122ms] [2] Diagnostic: CesConfigCheck: CesFromTo
[2016.06.10 10:26:53] [0000m.01s.122ms] [2] Diagnostic: CesConfigCheck: CesPhysicalNet
[2016.06.10 10:26:53] [0000m.01s.122ms] [2] Diagnostic: CesConfigCheck: CesPinPair
[2016.06.10 10:26:53] [0000m.01s.122ms] [2] Diagnostic: CesConfigCheck: CesElectricalNet
[2016.06.10 10:26:53] [0000m.01s.122ms] [2] Diagnostic: CesConfigCheck: CesDiffPair
[2016.06.10 10:26:53] [0000m.01s.125ms] [2] Diagnostic: CesConfigCheck: CesComponent
[2016.06.10 10:26:53] [0000m.01s.125ms] [2] Diagnostic: CesConfigCheck: CesPartPin
[2016.06.10 10:26:53] [0000m.01s.125ms] [2] Diagnostic: CesConfigCheck: CesPartPinPair
[2016.06.10 10:26:53] [0000m.01s.125ms] [2] Diagnostic: CesConfigCheck: CesPart
[2016.06.10 10:26:53] [0000m.01s.125ms] [2] Diagnostic: CesConfigCheck: CesDesign
[2016.06.10 10:26:53] [0000m.01s.125ms] [2] Diagnostic: CesConfigCheck: CesLayerClearRule
[2016.06.10 10:26:53] [0000m.01s.125ms] [2] Diagnostic: CesConfigCheck: CesSchemeClearRule
[2016.06.10 10:26:53] [0000m.01s.125ms] [2] Diagnostic: CesConfigCheck: CesViaAssign
[2016.06.10 10:26:53] [0000m.01s.125ms] [2] Diagnostic: CesConfigCheck: CesLayerRule
[2016.06.10 10:26:53] [0000m.01s.125ms] [2] Diagnostic: CesConfigCheck: CesSchemeNetClassRule
[2016.06.10 10:26:53] [0000m.01s.125ms] [2] Diagnostic: CesConfigCheck: CesScheme
[2016.06.10 10:26:53] [0000m.01s.125ms] [2] Diagnostic: CesConfigCheck: CesLayer
[2016.06.10 10:26:53] [0000m.01s.125ms] [2] Diagnostic: CesConfigCheck: CesNetClass
[2016.06.10 10:26:53] [0000m.01s.125ms] [2] Diagnostic: CesConfigCheck: CesClearRule
[2016.06.10 10:26:53] [0000m.01s.125ms] [2] Diagnostic: CesConfigCheck: CesConstraintClass
[2016.06.10 10:26:53] [0000m.01s.125ms] [2] Diagnostic: CesConfigCheck: CesViaSpan
[2016.06.10 10:26:53] [0000m.01s.125ms] [2] Diagnostic: CesConfigCheck: CesGenClear
[2016.06.10 10:26:53] [0000m.01s.125ms] [2] Diagnostic: CesConfigCheck: CesPartTech
[2016.06.10 10:26:53] [0000m.01s.125ms] [2] Diagnostic: CesConfigCheck: CesConstVar
[2016.06.10 10:26:53] [0000m.01s.125ms] [2] Diagnostic: CesConfigCheck: CesC2CClearRule
[2016.06.10 10:26:53] [0000m.01s.125ms] [2] Diagnostic: CesConfigCheck: CesPkgTypeClearRule
[2016.06.10 10:26:53] [0000m.01s.125ms] [2] Diagnostic: CesConfigCheck: CesP2PClearRule
[2016.06.10 10:26:53] [0000m.01s.125ms] [2] Diagnostic: CesConfigCheck: CesParRuleSection
[2016.06.10 10:26:53] [0000m.01s.125ms] [2] Diagnostic: CesConfigCheck: CesParRuleDef
[2016.06.10 10:26:53] [0000m.01s.125ms] [2] Diagnostic: CesConfigCheck: CesNoiseRule
[2016.06.10 10:26:53] [0000m.01s.125ms] [2] Diagnostic: CesConfigCheck: CesGenObj
[2016.06.10 10:26:53] [0000m.01s.125ms] [2] Diagnostic: CesConfigCheck: CesGenCompObj
[2016.06.10 10:26:53] [0000m.01s.125ms] [2] Diagnostic: CesConfigCheck: CesGenObjType
[2016.06.10 10:26:53] [0000m.01s.125ms] [2] Diagnostic: CesConfigCheck: CesVia
[2016.06.10 10:26:53] [0000m.01s.125ms] [2] Diagnostic: CesConfigCheck: CesZAxisLayerRule
[2016.06.10 10:26:53] [0000m.01s.125ms] [2] Diagnostic: CesConfigCheck: CesZAxisClearRule
[2016.06.10 10:26:53] [0000m.01s.125ms] [2] Diagnostic: ConfigCheck: CDBImplComp
[2016.06.10 10:26:53] [0000m.01s.125ms] [2] Diagnostic: ConfigCheck: CDBImplNet
[2016.06.10 10:26:53] [0000m.01s.127ms] [2] Diagnostic: ConfigCheck: CDBImplPin
[2016.06.10 10:26:53] [0000m.01s.127ms] [2] Diagnostic: Snapshot: Main check finished.
[2016.06.10 10:26:53] [0000m.01s.137ms] [2] Diagnostic: Snapshot: Main_RefSync
[2016.06.10 10:26:53] [0000m.01s.137ms] [2] Diagnostic: SnapshotCheck: CDBImplBlock
[2016.06.10 10:26:53] [0000m.01s.137ms] [2] Diagnostic: SnapshotCheck: CDBImplComp
[2016.06.10 10:26:53] [0000m.01s.137ms] [2] Diagnostic: SnapshotCheck: DxDCompView (cached)
[2016.06.10 10:26:53] [0000m.01s.137ms] [2] Diagnostic: DxDCheck: LineDxD
[2016.06.10 10:26:53] [0000m.01s.137ms] [2] Diagnostic: DxDCheck: CircleDxD
[2016.06.10 10:26:53] [0000m.01s.137ms] [2] Diagnostic: DxDCheck: ArcDxD
[2016.06.10 10:26:53] [0000m.01s.137ms] [2] Diagnostic: DxDCheck: RectDxD
[2016.06.10 10:26:53] [0000m.01s.137ms] [2] Diagnostic: DxDCheck: TextDxD
[2016.06.10 10:26:53] [0000m.01s.137ms] [2] Diagnostic: SnapshotCheck: CDBImplGroup
[2016.06.10 10:26:53] [0000m.01s.137ms] [2] Diagnostic: SnapshotCheck: CDBImplPin (regular)
[2016.06.10 10:26:53] [0000m.01s.137ms] [2] Diagnostic: SnapshotCheck: AttributesUtility (regular)
[2016.06.10 10:26:53] [0000m.01s.137ms] [2] Diagnostic: SnapshotCheck: CDBImplPin (cached)
[2016.06.10 10:26:53] [0000m.01s.137ms] [2] Diagnostic: SnapshotCheck: AttributesUtility (cached)
[2016.06.10 10:26:53] [0000m.01s.137ms] [2] Diagnostic: Block: Schematic1
[2016.06.10 10:26:53] [0000m.01s.137ms] [2] Diagnostic: BlockCheck: CDBImplNet
[2016.06.10 10:26:53] [0000m.01s.137ms] [2] Diagnostic: BlockCheck: CDBImplBus
[2016.06.10 10:26:53] [0000m.01s.137ms] [2] Diagnostic: BlockCheck: CDBImplPin
[2016.06.10 10:26:53] [0000m.01s.137ms] [2] Diagnostic: BlockCheck: CDBImplPort
[2016.06.10 10:26:53] [0000m.01s.137ms] [2] Diagnostic: BlockCheck: CDBImplComp
[2016.06.10 10:26:53] [0000m.01s.140ms] [2] Diagnostic: BlockCheck: AttributesUtility
[2016.06.10 10:26:53] [0000m.01s.140ms] [2] Diagnostic: CesConfigCheck: CesConstraint
[2016.06.10 10:26:53] [0000m.01s.140ms] [2] Diagnostic: CesConfigCheck: CesPin
[2016.06.10 10:26:53] [0000m.01s.140ms] [2] Diagnostic: CesConfigCheck: CesFromTo
[2016.06.10 10:26:53] [0000m.01s.140ms] [2] Diagnostic: CesConfigCheck: CesPhysicalNet
[2016.06.10 10:26:53] [0000m.01s.142ms] [2] Diagnostic: CesConfigCheck: CesPinPair
[2016.06.10 10:26:53] [0000m.01s.142ms] [2] Diagnostic: CesConfigCheck: CesElectricalNet
[2016.06.10 10:26:53] [0000m.01s.142ms] [2] Diagnostic: CesConfigCheck: CesDiffPair
[2016.06.10 10:26:53] [0000m.01s.142ms] [2] Diagnostic: CesConfigCheck: CesComponent
[2016.06.10 10:26:53] [0000m.01s.142ms] [2] Diagnostic: CesConfigCheck: CesPartPin
[2016.06.10 10:26:53] [0000m.01s.142ms] [2] Diagnostic: CesConfigCheck: CesPartPinPair
[2016.06.10 10:26:53] [0000m.01s.142ms] [2] Diagnostic: CesConfigCheck: CesPart
[2016.06.10 10:26:53] [0000m.01s.142ms] [2] Diagnostic: CesConfigCheck: CesDesign
[2016.06.10 10:26:53] [0000m.01s.142ms] [2] Diagnostic: CesConfigCheck: CesLayerClearRule
[2016.06.10 10:26:53] [0000m.01s.142ms] [2] Diagnostic: CesConfigCheck: CesSchemeClearRule
[2016.06.10 10:26:53] [0000m.01s.142ms] [2] Diagnostic: CesConfigCheck: CesViaAssign
[2016.06.10 10:26:53] [0000m.01s.142ms] [2] Diagnostic: CesConfigCheck: CesLayerRule
[2016.06.10 10:26:53] [0000m.01s.142ms] [2] Diagnostic: CesConfigCheck: CesSchemeNetClassRule
[2016.06.10 10:26:53] [0000m.01s.142ms] [2] Diagnostic: CesConfigCheck: CesScheme
[2016.06.10 10:26:53] [0000m.01s.142ms] [2] Diagnostic: CesConfigCheck: CesLayer
[2016.06.10 10:26:53] [0000m.01s.142ms] [2] Diagnostic: CesConfigCheck: CesNetClass
[2016.06.10 10:26:53] [0000m.01s.142ms] [2] Diagnostic: CesConfigCheck: CesClearRule
[2016.06.10 10:26:53] [0000m.01s.142ms] [2] Diagnostic: CesConfigCheck: CesConstraintClass
[2016.06.10 10:26:53] [0000m.01s.142ms] [2] Diagnostic: CesConfigCheck: CesViaSpan
[2016.06.10 10:26:53] [0000m.01s.142ms] [2] Diagnostic: CesConfigCheck: CesGenClear
[2016.06.10 10:26:53] [0000m.01s.142ms] [2] Diagnostic: CesConfigCheck: CesPartTech
[2016.06.10 10:26:53] [0000m.01s.142ms] [2] Diagnostic: CesConfigCheck: CesConstVar
[2016.06.10 10:26:53] [0000m.01s.142ms] [2] Diagnostic: CesConfigCheck: CesC2CClearRule
[2016.06.10 10:26:53] [0000m.01s.142ms] [2] Diagnostic: CesConfigCheck: CesPkgTypeClearRule
[2016.06.10 10:26:53] [0000m.01s.142ms] [2] Diagnostic: CesConfigCheck: CesP2PClearRule
[2016.06.10 10:26:53] [0000m.01s.142ms] [2] Diagnostic: CesConfigCheck: CesParRuleSection
[2016.06.10 10:26:53] [0000m.01s.142ms] [2] Diagnostic: CesConfigCheck: CesParRuleDef
[2016.06.10 10:26:53] [0000m.01s.142ms] [2] Diagnostic: CesConfigCheck: CesNoiseRule
[2016.06.10 10:26:53] [0000m.01s.142ms] [2] Diagnostic: CesConfigCheck: CesGenObj
[2016.06.10 10:26:53] [0000m.01s.142ms] [2] Diagnostic: CesConfigCheck: CesGenCompObj
[2016.06.10 10:26:53] [0000m.01s.142ms] [2] Diagnostic: CesConfigCheck: CesGenObjType
[2016.06.10 10:26:53] [0000m.01s.142ms] [2] Diagnostic: CesConfigCheck: CesVia
[2016.06.10 10:26:53] [0000m.01s.142ms] [2] Diagnostic: CesConfigCheck: CesZAxisLayerRule
[2016.06.10 10:26:53] [0000m.01s.142ms] [2] Diagnostic: CesConfigCheck: CesZAxisClearRule
[2016.06.10 10:26:53] [0000m.01s.142ms] [2] Diagnostic: ConfigCheck: CDBImplComp
[2016.06.10 10:26:53] [0000m.01s.142ms] [2] Diagnostic: ConfigCheck: CDBImplNet
[2016.06.10 10:26:53] [0000m.01s.142ms] [2] Diagnostic: ConfigCheck: CDBImplPin
[2016.06.10 10:26:53] [0000m.01s.142ms] [2] Diagnostic: Snapshot: Main_RefSync check finished.
[2016.06.10 10:26:53] [0000m.01s.172ms] [2] Diagnostic: Snapshot: Main_LDDTemp
[2016.06.10 10:26:53] [0000m.01s.172ms] [2] Diagnostic: SnapshotCheck: CDBImplBlock
[2016.06.10 10:26:53] [0000m.01s.172ms] [2] Diagnostic: SnapshotCheck: CDBImplComp
[2016.06.10 10:26:53] [0000m.01s.172ms] [2] Diagnostic: SnapshotCheck: DxDCompView (cached)
[2016.06.10 10:26:53] [0000m.01s.172ms] [2] Diagnostic: DxDCheck: LineDxD
[2016.06.10 10:26:53] [0000m.01s.172ms] [2] Diagnostic: DxDCheck: CircleDxD
[2016.06.10 10:26:53] [0000m.01s.172ms] [2] Diagnostic: DxDCheck: ArcDxD
[2016.06.10 10:26:53] [0000m.01s.172ms] [1] Diagnostic: Warning: {[ArcDxD] [4] } --> UID does not exist
[2016.06.10 10:26:53] [0000m.01s.172ms] [2] Diagnostic: DxDCheck: RectDxD
[2016.06.10 10:26:53] [0000m.01s.172ms] [2] Diagnostic: DxDCheck: TextDxD
[2016.06.10 10:26:53] [0000m.01s.172ms] [2] Diagnostic: SnapshotCheck: CDBImplGroup
[2016.06.10 10:26:53] [0000m.01s.172ms] [2] Diagnostic: SnapshotCheck: CDBImplPin (regular)
[2016.06.10 10:26:53] [0000m.01s.172ms] [2] Diagnostic: SnapshotCheck: AttributesUtility (regular)
[2016.06.10 10:26:53] [0000m.01s.172ms] [2] Diagnostic: SnapshotCheck: CDBImplPin (cached)
[2016.06.10 10:26:53] [0000m.01s.175ms] [2] Diagnostic: SnapshotCheck: AttributesUtility (cached)
[2016.06.10 10:26:53] [0000m.01s.175ms] [1] Diagnostic: Check failed on Snapshot: Main_LDDTemp
[2016.06.10 10:26:53] [0000m.01s.175ms] [2] Diagnostic: Block: Schematic1
[2016.06.10 10:26:53] [0000m.01s.175ms] [2] Diagnostic: BlockCheck: CDBImplNet
[2016.06.10 10:26:53] [0000m.01s.175ms] [2] Diagnostic: BlockCheck: CDBImplBus
[2016.06.10 10:26:53] [0000m.01s.175ms] [2] Diagnostic: BlockCheck: CDBImplPin
[2016.06.10 10:26:53] [0000m.01s.175ms] [2] Diagnostic: BlockCheck: CDBImplPort
[2016.06.10 10:26:53] [0000m.01s.175ms] [2] Diagnostic: BlockCheck: CDBImplComp
[2016.06.10 10:26:53] [0000m.01s.175ms] [2] Diagnostic: BlockCheck: AttributesUtility
[2016.06.10 10:26:53] [0000m.01s.175ms] [2] Diagnostic: BlockCheck: CDBImplBlockViewDxD
[2016.06.10 10:26:53] [0000m.01s.177ms] [2] Diagnostic: BlockViewDxDCheck: CDBImplNetDxD
[2016.06.10 10:26:53] [0000m.01s.177ms] [2] Diagnostic: BlockViewDxDCheck: CDBImplRipperDxD
[2016.06.10 10:26:53] [0000m.01s.177ms] [2] Diagnostic: CesConfigCheck: CesConstraint
[2016.06.10 10:26:53] [0000m.01s.177ms] [2] Diagnostic: CesConfigCheck: CesPin
[2016.06.10 10:26:53] [0000m.01s.180ms] [2] Diagnostic: CesConfigCheck: CesFromTo
[2016.06.10 10:26:53] [0000m.01s.180ms] [2] Diagnostic: CesConfigCheck: CesPhysicalNet
[2016.06.10 10:26:53] [0000m.01s.180ms] [2] Diagnostic: CesConfigCheck: CesPinPair
[2016.06.10 10:26:53] [0000m.01s.180ms] [2] Diagnostic: CesConfigCheck: CesElectricalNet
[2016.06.10 10:26:53] [0000m.01s.180ms] [2] Diagnostic: CesConfigCheck: CesDiffPair
[2016.06.10 10:26:53] [0000m.01s.180ms] [2] Diagnostic: CesConfigCheck: CesComponent
[2016.06.10 10:26:53] [0000m.01s.180ms] [2] Diagnostic: CesConfigCheck: CesPartPin
[2016.06.10 10:26:53] [0000m.01s.180ms] [2] Diagnostic: CesConfigCheck: CesPartPinPair
[2016.06.10 10:26:53] [0000m.01s.180ms] [2] Diagnostic: CesConfigCheck: CesPart
[2016.06.10 10:26:53] [0000m.01s.180ms] [2] Diagnostic: CesConfigCheck: CesDesign
[2016.06.10 10:26:53] [0000m.01s.180ms] [2] Diagnostic: CesConfigCheck: CesLayerClearRule
[2016.06.10 10:26:53] [0000m.01s.180ms] [2] Diagnostic: CesConfigCheck: CesSchemeClearRule
[2016.06.10 10:26:53] [0000m.01s.180ms] [2] Diagnostic: CesConfigCheck: CesViaAssign
[2016.06.10 10:26:53] [0000m.01s.180ms] [2] Diagnostic: CesConfigCheck: CesLayerRule
[2016.06.10 10:26:53] [0000m.01s.180ms] [2] Diagnostic: CesConfigCheck: CesSchemeNetClassRule
[2016.06.10 10:26:53] [0000m.01s.180ms] [2] Diagnostic: CesConfigCheck: CesScheme
[2016.06.10 10:26:53] [0000m.01s.180ms] [2] Diagnostic: CesConfigCheck: CesLayer
[2016.06.10 10:26:53] [0000m.01s.180ms] [2] Diagnostic: CesConfigCheck: CesNetClass
[2016.06.10 10:26:53] [0000m.01s.180ms] [2] Diagnostic: CesConfigCheck: CesClearRule
[2016.06.10 10:26:53] [0000m.01s.180ms] [2] Diagnostic: CesConfigCheck: CesConstraintClass
[2016.06.10 10:26:53] [0000m.01s.180ms] [2] Diagnostic: CesConfigCheck: CesViaSpan
[2016.06.10 10:26:53] [0000m.01s.180ms] [2] Diagnostic: CesConfigCheck: CesGenClear
[2016.06.10 10:26:53] [0000m.01s.180ms] [2] Diagnostic: CesConfigCheck: CesPartTech
[2016.06.10 10:26:53] [0000m.01s.180ms] [2] Diagnostic: CesConfigCheck: CesConstVar
[2016.06.10 10:26:53] [0000m.01s.180ms] [2] Diagnostic: CesConfigCheck: CesC2CClearRule
[2016.06.10 10:26:53] [0000m.01s.180ms] [2] Diagnostic: CesConfigCheck: CesPkgTypeClearRule
[2016.06.10 10:26:53] [0000m.01s.180ms] [2] Diagnostic: CesConfigCheck: CesP2PClearRule
[2016.06.10 10:26:53] [0000m.01s.180ms] [2] Diagnostic: CesConfigCheck: CesParRuleSection
[2016.06.10 10:26:53] [0000m.01s.180ms] [2] Diagnostic: CesConfigCheck: CesParRuleDef
[2016.06.10 10:26:53] [0000m.01s.180ms] [2] Diagnostic: CesConfigCheck: CesNoiseRule
[2016.06.10 10:26:53] [0000m.01s.180ms] [2] Diagnostic: CesConfigCheck: CesGenObj
[2016.06.10 10:26:53] [0000m.01s.180ms] [2] Diagnostic: CesConfigCheck: CesGenCompObj
[2016.06.10 10:26:53] [0000m.01s.180ms] [2] Diagnostic: CesConfigCheck: CesGenObjType
[2016.06.10 10:26:53] [0000m.01s.180ms] [2] Diagnostic: CesConfigCheck: CesVia
[2016.06.10 10:26:53] [0000m.01s.180ms] [2] Diagnostic: CesConfigCheck: CesZAxisLayerRule
[2016.06.10 10:26:53] [0000m.01s.180ms] [2] Diagnostic: CesConfigCheck: CesZAxisClearRule
[2016.06.10 10:26:53] [0000m.01s.180ms] [2] Diagnostic: ConfigCheck: CDBImplComp
[2016.06.10 10:26:53] [0000m.01s.182ms] [2] Diagnostic: ConfigCheck: CDBImplNet
[2016.06.10 10:26:53] [0000m.01s.182ms] [2] Diagnostic: ConfigCheck: CDBImplPin
[2016.06.10 10:26:53] [0000m.01s.182ms] [2] Diagnostic: Snapshot: Main_LDDTemp check finished.
[2016.06.10 10:26:53] [0000m.01s.187ms] [0] Diagnostic: FINISH
[2016.06.10 10:26:53] [0000m.01s.187ms] [0] .
