
                                    DXFImport
                                    ---------

                      05:31 PM Thursday, September 17, 2015
Job Name: C:\Users\branden.sheffield\Documents\Crusher3.0\Mentor\CrusherMain\PCB\Work\CellEditorFiles\CellDB\DXF_Left_outline.pcb

    DXFile "C:\Users\branden.sheffield\Documents\Crusher3.0\ME\C3_EC_004-PCB.DXF" loaded successfully.
    
    DXFile C:\Users\branden.sheffield\Documents\Crusher3.0\ME\C3_EC_004-PCB.DXF created 09/16/2015 at 08:24:02
    
    DXFile "C:\Users\branden.sheffield\Documents\Crusher3.0\ME\C3_EC_004-PCB.DXF" imported successfully.
    
