--------------------------------------------------------------------------------
 Project integration - START (2015-09-10 18:24:58) 
--------------------------------------------------------------------------------
FE snapshot name: DxD
BE snapshot name: Main_layout_temp
Top level block: (2-1-5)
Parameters: FAConnectivity,FAConstraints,FEWin,
--------------------------------------------------------------------------------
[OK] - Full snapshot copy 16.00 [ms]
--------------------------------------------------------------------------------
 Project integration - END (2015-09-10 18:24:58) 
--------------------------------------------------------------------------------
